%!PS-Adobe-2.0 EPSF-2.0
%%BoundingBox:  0 0 567 384
%%Title: obr/phenix-star-all-pions.eps: PHENIX charged and neutral pions
%%Creator: ROOT Version 5.34/38
%%CreationDate: Thu May 28 15:19:02 2020
%%EndComments
%%BeginProlog
80 dict begin
/s {stroke} def /l {lineto} def /m {moveto} def /t {translate} def
/r {rotate} def /rl {roll}  def /R {repeat} def
/d {rlineto} def /rm {rmoveto} def /gr {grestore} def /f {eofill} def
/c {setrgbcolor} def /black {0 setgray} def /sd {setdash} def
/cl {closepath} def /sf {scalefont setfont} def /lw {setlinewidth} def
/box {m dup 0 exch d exch 0 d 0 exch neg d cl} def
/NC{systemdict begin initclip end}def/C{NC box clip newpath}def
/bl {box s} def /bf {gsave box gsave f grestore 1 lw [] 0 sd s grestore} def /Y { 0 exch d} def /X { 0 d} def 
/K {{pop pop 0 moveto} exch kshow} bind def
/ita {/ang 15 def gsave [1 0 ang dup sin exch cos div 1 0 0] concat} def 
/mp {newpath /y exch def /x exch def} def
/side {[w .77 mul w .23 mul] .385 w mul sd w 0 l currentpoint t -144 r} def
/mr {mp x y w2 0 360 arc} def /m24 {mr s} def /m20 {mr f} def
/mb {mp x y w2 add m w2 neg 0 d 0 w neg d w 0 d 0 w d cl} def
/mt {mp x y w2 add m w2 neg w neg d w 0 d cl} def
/m21 {mb f} def /m25 {mb s} def /m22 {mt f} def /m26{mt s} def
/m23 {mp x y w2 sub m w2 w d w neg 0 d cl f} def
/m27 {mp x y w2 add m w3 neg w2 neg d w3 w2 neg d w3 w2 d cl s} def
/m28 {mp x w2 sub y w2 sub w3 add m w3 0 d  0 w3 neg d w3 0 d 0 w3 d w3 0 d  0 w3 d w3 neg 0 d 0 w3 d w3 neg 0 d 0 w3 neg d w3 neg 0 d cl s } def
/m29 {mp gsave x w2 sub y w2 add w3 sub m currentpoint t 4 {side} repeat cl fill gr} def
/m30 {mp gsave x w2 sub y w2 add w3 sub m currentpoint t 4 {side} repeat cl s gr} def
/m31 {mp x y w2 sub m 0 w d x w2 sub y m w 0 d x w2 sub y w2 add m w w neg d x w2 sub y w2 sub m w w d s} def
/m32 {mp x y w2 sub m w2 w d w neg 0 d cl s} def
/m33 {mp x y w2 add m w3 neg w2 neg d w3 w2 neg d w3 w2 d cl f} def
/m34 {mp x w2 sub y w2 sub w3 add m w3 0 d  0 w3 neg d w3 0 d 0 w3 d w3 0 d  0 w3 d w3 neg 0 d 0 w3 d w3 neg 0 d 0 w3 neg d w3 neg 0 d cl f } def
/m2 {mp x y w2 sub m 0 w d x w2 sub y m w 0 d s} def
/m5 {mp x w2 sub y w2 sub m w w d x w2 sub y w2 add m w w neg d s} def
/reEncode {exch findfont dup length dict begin {1 index /FID eq  {pop pop} {def} ifelse } forall /Encoding exch def currentdict end dup /FontName get exch definefont pop } def [/Times-Bold /Times-Italic /Times-BoldItalic /Helvetica /Helvetica-Oblique
 /Helvetica-Bold /Helvetica-BoldOblique /Courier /Courier-Oblique /Courier-Bold /Courier-BoldOblique /Times-Roman /AvantGarde-Book /AvantGarde-BookOblique /AvantGarde-Demi /AvantGarde-DemiOblique /Bookman-Demi /Bookman-DemiItalic /Bookman-Light
 /Bookman-LightItalic /Helvetica-Narrow /Helvetica-Narrow-Bold /Helvetica-Narrow-BoldOblique /Helvetica-Narrow-Oblique /NewCenturySchlbk-Roman /NewCenturySchlbk-Bold /NewCenturySchlbk-BoldItalic /NewCenturySchlbk-Italic /Palatino-Bold
 /Palatino-BoldItalic /Palatino-Italic /Palatino-Roman ] {ISOLatin1Encoding reEncode } forall
%%EndProlog
%%BeginSetup
%%EndSetup
newpath  gsave  .25 .25 scale  gsave  0 0 t black[  ] 0 sd 3 lw 1 1 1 c 2268 1538 0 0 bf black 1 1 1 c 1814 1230 227 154 bf black 1814 1230 227 154 bl 227 154 m 1814 X s 227 191 m -37 Y s 282 172 m -18 Y s 337 172 m -18 Y s 393 172 m -18 Y s 448 191
 m -37 Y s 503 172 m -18 Y s 559 172 m -18 Y s 614 172 m -18 Y s 669 191 m -37 Y s 725 172 m -18 Y s 780 172 m -18 Y s 835 172 m -18 Y s 890 191 m -37 Y s 946 172 m -18 Y s 1001 172 m -18 Y s 1056 172 m -18 Y s 1112 191 m -37 Y s 1167 172 m -18 Y s
 1222 172 m -18 Y s 1278 172 m -18 Y s 1333 191 m -37 Y s 1388 172 m -18 Y s 1444 172 m -18 Y s 1499 172 m -18 Y s 1554 191 m -37 Y s 1610 172 m -18 Y s 1665 172 m -18 Y s 1720 172 m -18 Y s 1775 191 m -37 Y s 1831 172 m -18 Y s 1886 172 m -18 Y s
 1941 172 m -18 Y s 1997 191 m -37 Y s 1997 191 m -37 Y s
 gsave  2268 1538 0 0 C 208.526 94.4882 t 0 r /Helvetica findfont 61.9061 sf 0 0 m (0) show NC gr 
 gsave  2268 1538 0 0 C 430.084 94.4882 t 0 r /Helvetica findfont 61.9061 sf 0 0 m (2) show NC gr 
 gsave  2268 1538 0 0 C 651.643 94.4882 t 0 r /Helvetica findfont 61.9061 sf 0 0 m (4) show NC gr 
 gsave  2268 1538 0 0 C 873.201 94.4882 t 0 r /Helvetica findfont 61.9061 sf 0 0 m (6) show NC gr 
 gsave  2268 1538 0 0 C 1094.76 94.4882 t 0 r /Helvetica findfont 61.9061 sf 0 0 m (8) show NC gr 
 gsave  2268 1538 0 0 C 1296.77 94.4882 t 0 r /Helvetica findfont 61.9061 sf 0 0 m (10) show NC gr 
 gsave  2268 1538 0 0 C 1518.33 94.4882 t 0 r /Helvetica findfont 61.9061 sf 0 0 m (12) show NC gr 
 gsave  2268 1538 0 0 C 1736.63 94.4882 t 0 r /Helvetica findfont 61.9061 sf 0 0 m (14) show NC gr 
 gsave  2268 1538 0 0 C 1958.19 94.4882 t 0 r /Helvetica findfont 61.9061 sf 0 0 m (16) show NC gr  227 154 m 1230 Y s 254 155 m -27 X s 254 167 m -27 X s 254 178 m -27 X s 254 187 m -27 X s 254 195 m -27 X s 281 202 m -54 X s
 gsave  2268 1538 0 0 C 179.202 205.267 t 0 r /Helvetica findfont 39.0986 sf 0 0 m (8) show NC gr 
 gsave  2268 1538 0 0 C 159.652 205.267 t 0 r /Symbol findfont 39.0986 sf 0 0 m (-) show NC gr 
 gsave  2268 1538 0 0 C 91.23 172.685 t 0 r /Helvetica findfont 61.9061 sf 0 0 m (10) show NC gr  254 248 m -27 X s 254 275 m -27 X s 254 295 m -27 X s 254 310 m -27 X s 254 322 m -27 X s 254 332 m -27 X s 254 341 m -27 X s 254 349 m -27 X s 281 356
 m -54 X s
 gsave  2268 1538 0 0 C 179.202 358.403 t 0 r /Helvetica findfont 39.0986 sf 0 0 m (7) show NC gr 
 gsave  2268 1538 0 0 C 159.652 358.403 t 0 r /Symbol findfont 39.0986 sf 0 0 m (-) show NC gr 
 gsave  2268 1538 0 0 C 91.23 329.08 t 0 r /Helvetica findfont 61.9061 sf 0 0 m (10) show NC gr  254 403 m -27 X s 254 430 m -27 X s 254 449 m -27 X s 254 464 m -27 X s 254 477 m -27 X s 254 487 m -27 X s 254 496 m -27 X s 254 504 m -27 X s 281 511 m
 -54 X s
 gsave  2268 1538 0 0 C 179.202 514.798 t 0 r /Helvetica findfont 39.0986 sf 0 0 m (6) show NC gr 
 gsave  2268 1538 0 0 C 159.652 514.798 t 0 r /Symbol findfont 39.0986 sf 0 0 m (-) show NC gr 
 gsave  2268 1538 0 0 C 91.23 482.216 t 0 r /Helvetica findfont 61.9061 sf 0 0 m (10) show NC gr  254 558 m -27 X s 254 585 m -27 X s 254 604 m -27 X s 254 619 m -27 X s 254 631 m -27 X s 254 642 m -27 X s 254 651 m -27 X s 254 659 m -27 X s 281 666
 m -54 X s
 gsave  2268 1538 0 0 C 179.202 671.192 t 0 r /Helvetica findfont 39.0986 sf 0 0 m (5) show NC gr 
 gsave  2268 1538 0 0 C 159.652 671.192 t 0 r /Symbol findfont 39.0986 sf 0 0 m (-) show NC gr 
 gsave  2268 1538 0 0 C 91.23 638.61 t 0 r /Helvetica findfont 61.9061 sf 0 0 m (10) show NC gr  254 712 m -27 X s 254 739 m -27 X s 254 759 m -27 X s 254 774 m -27 X s 254 786 m -27 X s 254 796 m -27 X s 254 805 m -27 X s 254 813 m -27 X s 281 820 m
 -54 X s
 gsave  2268 1538 0 0 C 179.202 821.07 t 0 r /Helvetica findfont 39.0986 sf 0 0 m (4) show NC gr 
 gsave  2268 1538 0 0 C 159.652 821.07 t 0 r /Symbol findfont 39.0986 sf 0 0 m (-) show NC gr 
 gsave  2268 1538 0 0 C 91.23 791.746 t 0 r /Helvetica findfont 61.9061 sf 0 0 m (10) show NC gr  254 867 m -27 X s 254 894 m -27 X s 254 913 m -27 X s 254 928 m -27 X s 254 941 m -27 X s 254 951 m -27 X s 254 960 m -27 X s 254 968 m -27 X s 281 975
 m -54 X s
 gsave  2268 1538 0 0 C 179.202 980.722 t 0 r /Helvetica findfont 39.0986 sf 0 0 m (3) show NC gr 
 gsave  2268 1538 0 0 C 159.652 980.722 t 0 r /Symbol findfont 39.0986 sf 0 0 m (-) show NC gr 
 gsave  2268 1538 0 0 C 91.23 948.14 t 0 r /Helvetica findfont 61.9061 sf 0 0 m (10) show NC gr  254 1022 m -27 X s 254 1049 m -27 X s 254 1068 m -27 X s 254 1083 m -27 X s 254 1095 m -27 X s 254 1106 m -27 X s 254 1115 m -27 X s 254 1123 m -27 X s
 281 1130 m -54 X s
 gsave  2268 1538 0 0 C 179.202 1130.6 t 0 r /Helvetica findfont 39.0986 sf 0 0 m (2) show NC gr 
 gsave  2268 1538 0 0 C 159.652 1130.6 t 0 r /Symbol findfont 39.0986 sf 0 0 m (-) show NC gr 
 gsave  2268 1538 0 0 C 91.23 1101.28 t 0 r /Helvetica findfont 61.9061 sf 0 0 m (10) show NC gr  254 1176 m -27 X s 254 1204 m -27 X s 254 1223 m -27 X s 254 1238 m -27 X s 254 1250 m -27 X s 254 1260 m -27 X s 254 1269 m -27 X s 254 1277 m -27 X s
 281 1284 m -54 X s
 gsave  2268 1538 0 0 C 185.718 1286.99 t 0 r /Helvetica findfont 39.0986 sf 0 0 m (1) show NC gr 
 gsave  2268 1538 0 0 C 166.169 1286.99 t 0 r /Symbol findfont 39.0986 sf 0 0 m (-) show NC gr 
 gsave  2268 1538 0 0 C 97.7464 1257.67 t 0 r /Helvetica findfont 61.9061 sf 0 0 m (10) show NC gr  254 1331 m -27 X s 254 1358 m -27 X s 254 1378 m -27 X s 1 0 0 c /w 18 def /w2 {w 2 div} def /w3 {w 3 div} def 362 1373 417 1251 472 1143 529 1055 584
 975 639 902 695 832 750 770 805 719 862 673 917 619 972 585 1051 516 1163 462 1273 390 1428 311 1692 200 17 { m22} R black 358 1373 m -21 X s 337 1366 m 13 Y s 366 1373 m 27 X s 393 1366 m 13 Y s 413 1251 m -20 X s 393 1244 m 13 Y s 421 1251 m 27 X
 s 448 1244 m 13 Y s 468 1143 m -20 X s 448 1137 m 13 Y s 476 1143 m 27 X s 503 1137 m 13 Y s 525 1055 m -22 X s 503 1049 m 13 Y s 533 1055 m 26 X s 559 1049 m 13 Y s 580 975 m -21 X s 559 968 m 13 Y s 588 975 m 26 X s 614 968 m 13 Y s 584 968 m s
 578 968 m 13 X s 635 902 m -21 X s 614 896 m 13 Y s 643 902 m 26 X s 669 896 m 13 Y s 639 909 m s 633 909 m 13 X s 639 896 m -1 Y s 633 895 m 13 X s 691 832 m -22 X s 669 826 m 13 Y s 699 832 m 26 X s 725 826 m 13 Y s 746 770 m -21 X s 725 764 m 13
 Y s 754 770 m 26 X s 780 764 m 13 Y s 750 764 m -1 Y s 743 763 m 14 X s 801 719 m -21 X s 780 712 m 13 Y s 809 719 m 26 X s 835 712 m 13 Y s 805 712 m s 799 712 m 13 X s 858 673 m -23 X s 835 666 m 13 Y s 866 673 m 24 X s 890 666 m 13 Y s 862 679 m
 s 855 679 m 13 X s 862 666 m -1 Y s 855 665 m 13 X s 913 619 m -23 X s 890 613 m 13 Y s 921 619 m 25 X s 946 613 m 13 Y s 917 626 m s 911 626 m 13 X s 917 613 m -2 Y s 911 611 m 13 X s 968 585 m -22 X s 946 578 m 13 Y s 976 585 m 25 X s 1001 578 m
 13 Y s 972 591 m 2 Y s 966 593 m 13 X s 972 578 m -2 Y s 966 576 m 13 X s 1047 516 m -46 X s 1001 510 m 13 Y s 1055 516 m 57 X s 1112 510 m 13 Y s 1051 523 m 2 Y s 1044 525 m 13 X s 1051 510 m -3 Y s 1044 507 m 13 X s 1159 462 m -47 X s 1112 456 m
 13 Y s 1167 462 m 55 X s 1222 456 m 13 Y s 1163 469 m 3 Y s 1156 472 m 13 X s 1163 456 m -5 Y s 1156 451 m 13 X s 1269 390 m -47 X s 1222 383 m 13 Y s 1277 390 m 56 X s 1333 383 m 13 Y s 1273 396 m 7 Y s 1267 403 m 13 X s 1273 383 m -10 Y s 1267 373
 m 13 X s 1424 311 m -91 X s 1333 304 m 13 Y s 1432 311 m 122 X s 1554 304 m 13 Y s 1428 317 m 9 Y s 1422 326 m 13 X s 1428 304 m -13 Y s 1422 291 m 13 X s 1689 200 m -135 X s 1554 193 m 14 Y s 1696 200 m 190 X s 1886 193 m 14 Y s 1692 207 m 18 Y s
 1686 225 m 13 X s 1692 193 m -32 Y s 1686 161 m 13 X s 564 979 m -5 X s 559 972 m 13 Y s 577 979 m 9 X s 586 972 m 13 Y s 592 941 m -6 X s 586 935 m 13 Y s 605 941 m 9 X s 614 935 m 13 Y s 620 907 m -6 X s 614 900 m 13 Y s 633 907 m 9 X s 642 900 m
 13 Y s 648 873 m -6 X s 642 866 m 13 Y s 661 873 m 8 X s 669 866 m 13 Y s 686 825 m -17 X s 669 819 m 13 Y s 699 825 m 26 X s 725 819 m 13 Y s 742 767 m -17 X s 725 761 m 13 Y s 755 767 m 25 X s 780 761 m 13 Y s 798 714 m -18 X s 780 707 m 13 Y s
 811 714 m 24 X s 835 707 m 13 Y s 853 664 m -18 X s 835 658 m 13 Y s 866 664 m 24 X s 890 658 m 13 Y s 908 618 m -18 X s 890 612 m 13 Y s 921 618 m 25 X s 946 612 m 13 Y s 965 578 m -19 X s 946 571 m 13 Y s 978 578 m 23 X s 1001 571 m 13 Y s 1040
 523 m -39 X s 1001 516 m 13 Y s 1053 523 m 59 X s 1112 516 m 13 Y s 1184 428 m -72 X s 1112 421 m 13 Y s 1197 428 m 136 X s 1333 421 m 13 Y s 1415 319 m -82 X s 1333 312 m 13 Y s 1428 319 m 126 X s 1554 312 m 13 Y s 1669 219 m -115 X s 1554 213 m 13
 Y s 1682 219 m 204 X s 1886 213 m 13 Y s 0 0 1 c 571 979 598 941 626 907 655 873 692 825 749 767 804 714 860 664 915 618 971 578 1046 523 1190 428 1421 319 1676 219 14 { m20} R black 564 973 m -5 X s 559 967 m 13 Y s 577 973 m 9 X s 586 967 m 13 Y s
 592 936 m -6 X s 586 929 m 13 Y s 605 936 m 9 X s 614 929 m 13 Y s 620 899 m -6 X s 614 892 m 13 Y s 633 899 m 9 X s 642 892 m 13 Y s 648 866 m -6 X s 642 860 m 13 Y s 661 866 m 8 X s 669 860 m 13 Y s 686 817 m -17 X s 669 811 m 13 Y s 699 817 m 26
 X s 725 811 m 13 Y s 742 758 m -17 X s 725 752 m 13 Y s 755 758 m 25 X s 780 752 m 13 Y s 798 702 m -18 X s 780 695 m 13 Y s 811 702 m 24 X s 835 695 m 13 Y s 853 654 m -18 X s 835 647 m 13 Y s 866 654 m 24 X s 890 647 m 13 Y s 908 606 m -18 X s 890
 600 m 13 Y s 921 606 m 25 X s 946 600 m 13 Y s 965 565 m -19 X s 946 559 m 13 Y s 978 565 m 23 X s 1001 559 m 13 Y s 1040 509 m -39 X s 1001 503 m 13 Y s 1053 509 m 59 X s 1112 503 m 13 Y s 1184 410 m -72 X s 1112 404 m 13 Y s 1197 410 m 136 X s
 1333 404 m 13 Y s 1415 304 m -82 X s 1333 297 m 14 Y s 1428 304 m 126 X s 1554 297 m 14 Y s 1669 201 m -115 X s 1554 194 m 13 Y s 1682 201 m 204 X s 1886 194 m 13 Y s 571 973 598 936 626 899 655 866 692 817 749 758 804 702 860 654 915 606 971 565
 1046 509 1190 410 1421 304 1676 201 14 { m21} R 1 1 1 c 907 307 907 923 bf black 907 923 m 907 X s 1814 923 m 307 Y s 1814 1230 m -907 X s 907 1230 m -307 Y s
 gsave  2268 1538 0 0 C 1133.86 1185.99 t 0 r /Helvetica-Bold findfont 58.6478 sf 0 0 m (PHENIX pi\255) show NC gr  /w 26 def /w2 {w 2 div} def /w3 {w 3 div} def 1020 1200 m23
 gsave  2268 1538 0 0 C 1133.86 1127.34 t 0 r /Helvetica-Bold findfont 58.6478 sf 0 0 m (PHENIX pi+) show NC gr  1020 1138 m23
 gsave  2268 1538 0 0 C 1133.86 1065.44 t 0 r /Helvetica-Bold findfont 58.6478 sf 0 0 m (PHENIX pi0) show NC gr  1 0 0 c /w 18 def /w2 {w 2 div} def /w3 {w 3 div} def 1020 1077 m22 black
 gsave  2268 1538 0 0 C 1133.86 1003.53 t 0 r /Helvetica-Bold findfont 58.6478 sf 0 0 m (STAR pi+) show NC gr  0 0 1 c 1020 1015 m20 black
 gsave  2268 1538 0 0 C 1133.86 941.624 t 0 r /Helvetica-Bold findfont 58.6478 sf 0 0 m (STAR pi\255) show NC gr  1020 953 m21
 gr  gr showpage
end
%%EOF
