%!PS-Adobe-2.0 EPSF-2.0
%%BoundingBox:  0 0 567 734
%%Title: obr/pi0_phenix_pythia_mb_with_kevin.eps: PYTHIA/PHENIX pi0 spectra
%%Creator: ROOT Version 5.34/38
%%CreationDate: Thu May 28 15:19:03 2020
%%EndComments
%%BeginProlog
80 dict begin
/s {stroke} def /l {lineto} def /m {moveto} def /t {translate} def
/r {rotate} def /rl {roll}  def /R {repeat} def
/d {rlineto} def /rm {rmoveto} def /gr {grestore} def /f {eofill} def
/c {setrgbcolor} def /black {0 setgray} def /sd {setdash} def
/cl {closepath} def /sf {scalefont setfont} def /lw {setlinewidth} def
/box {m dup 0 exch d exch 0 d 0 exch neg d cl} def
/NC{systemdict begin initclip end}def/C{NC box clip newpath}def
/bl {box s} def /bf {gsave box gsave f grestore 1 lw [] 0 sd s grestore} def /Y { 0 exch d} def /X { 0 d} def 
/K {{pop pop 0 moveto} exch kshow} bind def
/ita {/ang 15 def gsave [1 0 ang dup sin exch cos div 1 0 0] concat} def 
/mp {newpath /y exch def /x exch def} def
/side {[w .77 mul w .23 mul] .385 w mul sd w 0 l currentpoint t -144 r} def
/mr {mp x y w2 0 360 arc} def /m24 {mr s} def /m20 {mr f} def
/mb {mp x y w2 add m w2 neg 0 d 0 w neg d w 0 d 0 w d cl} def
/mt {mp x y w2 add m w2 neg w neg d w 0 d cl} def
/m21 {mb f} def /m25 {mb s} def /m22 {mt f} def /m26{mt s} def
/m23 {mp x y w2 sub m w2 w d w neg 0 d cl f} def
/m27 {mp x y w2 add m w3 neg w2 neg d w3 w2 neg d w3 w2 d cl s} def
/m28 {mp x w2 sub y w2 sub w3 add m w3 0 d  0 w3 neg d w3 0 d 0 w3 d w3 0 d  0 w3 d w3 neg 0 d 0 w3 d w3 neg 0 d 0 w3 neg d w3 neg 0 d cl s } def
/m29 {mp gsave x w2 sub y w2 add w3 sub m currentpoint t 4 {side} repeat cl fill gr} def
/m30 {mp gsave x w2 sub y w2 add w3 sub m currentpoint t 4 {side} repeat cl s gr} def
/m31 {mp x y w2 sub m 0 w d x w2 sub y m w 0 d x w2 sub y w2 add m w w neg d x w2 sub y w2 sub m w w d s} def
/m32 {mp x y w2 sub m w2 w d w neg 0 d cl s} def
/m33 {mp x y w2 add m w3 neg w2 neg d w3 w2 neg d w3 w2 d cl f} def
/m34 {mp x w2 sub y w2 sub w3 add m w3 0 d  0 w3 neg d w3 0 d 0 w3 d w3 0 d  0 w3 d w3 neg 0 d 0 w3 d w3 neg 0 d 0 w3 neg d w3 neg 0 d cl f } def
/m2 {mp x y w2 sub m 0 w d x w2 sub y m w 0 d s} def
/m5 {mp x w2 sub y w2 sub m w w d x w2 sub y w2 add m w w neg d s} def
/reEncode {exch findfont dup length dict begin {1 index /FID eq  {pop pop} {def} ifelse } forall /Encoding exch def currentdict end dup /FontName get exch definefont pop } def [/Times-Bold /Times-Italic /Times-BoldItalic /Helvetica /Helvetica-Oblique
 /Helvetica-Bold /Helvetica-BoldOblique /Courier /Courier-Oblique /Courier-Bold /Courier-BoldOblique /Times-Roman /AvantGarde-Book /AvantGarde-BookOblique /AvantGarde-Demi /AvantGarde-DemiOblique /Bookman-Demi /Bookman-DemiItalic /Bookman-Light
 /Bookman-LightItalic /Helvetica-Narrow /Helvetica-Narrow-Bold /Helvetica-Narrow-BoldOblique /Helvetica-Narrow-Oblique /NewCenturySchlbk-Roman /NewCenturySchlbk-Bold /NewCenturySchlbk-BoldItalic /NewCenturySchlbk-Italic /Palatino-Bold
 /Palatino-BoldItalic /Palatino-Italic /Palatino-Roman ] {ISOLatin1Encoding reEncode } forall
%%EndProlog
%%BeginSetup
%%EndSetup
newpath  gsave  .25 .25 scale  gsave  0 0 t black[  ] 0 sd 3 lw 1 1 1 c 2268 2937 0 0 bf black 1 1 1 c 1814 2203 227 734 bf black 1 1 1 c 1452 1983 408 734 bf black 1452 1983 408 734 bl 1 1 1 c 1 0 0 c black 408 2667 m 17 X s 440 2667 m 17 X s 1 0 0
 c /w 21 def /w2 {w 2 div} def /w3 {w 3 div} def 432 2667 m26 black 457 2510 m 16 X s 488 2510 m 17 X s 1 0 0 c 481 2510 m26 black 505 2322 m 17 X s 537 2322 m 16 X s 1 0 0 c 529 2322 m26 black 553 2166 m 17 X s 585 2166 m 17 X s 1 0 0 c 578 2166 m26
 black 602 2035 m 16 X s 633 2035 m 17 X s 1 0 0 c 626 2035 m26 black 650 1921 m 17 X s 682 1921 m 16 X s 1 0 0 c 674 1921 m26 black 698 1822 m 17 X s 730 1822 m 17 X s 1 0 0 c 723 1822 m26 black 747 1733 m 16 X s 779 1733 m 16 X s 1 0 0 c 771 1733
 m26 black 795 1657 m 17 X s 827 1657 m 17 X s 1 0 0 c 819 1657 m26 black 844 1585 m 16 X s 875 1585 m 17 X s 1 0 0 c 868 1585 m26 black 892 1524 m 17 X s 924 1524 m 16 X s 1 0 0 c 916 1524 m26 black 940 1466 m 17 X s 972 1466 m 17 X s 1 0 0 c 965
 1466 m26 black 989 1412 m 16 X s 1021 1412 m 16 X s 1 0 0 c 1013 1412 m26 black 1037 1368 m 17 X s 1069 1368 m 16 X s 1 0 0 c 1061 1368 m26 black 1085 1327 m 17 X s 1117 1327 m 17 X s 1 0 0 c 1110 1327 m26 black 1134 1282 m 16 X s 1166 1282 m 16 X s
 1 0 0 c 1158 1282 m26 black 1182 1245 m 17 X s 1214 1245 m 17 X s 1 0 0 c 1206 1245 m26 black 1255 1196 m 2 Y s 1255 1213 m 1 Y s 1231 1205 m 16 X s 1262 1205 m 17 X s 1 0 0 c 1255 1205 m26 black 1303 1170 m 3 Y s 1303 1188 m 2 Y s 1279 1181 m 17 X
 s 1311 1181 m 16 X s 1 0 0 c 1303 1181 m26 black 1352 1134 m 5 Y s 1352 1155 m 3 Y s 1327 1147 m 17 X s 1359 1147 m 17 X s 1 0 0 c 1352 1147 m26 black 1400 1080 m 11 Y s 1400 1106 m 7 Y s 1376 1098 m 16 X s 1408 1098 m 16 X s 1 0 0 c 1400 1098 m26
 black 1448 1064 m 12 Y s 1448 1092 m 8 Y s 1424 1084 m 17 X s 1456 1084 m 17 X s 1 0 0 c 1448 1084 m26 black 1497 997 m 22 Y s 1497 1034 m 14 Y s 1473 1026 m 16 X s 1504 1026 m 17 X s 1 0 0 c 1497 1026 m26 black 1545 1018 m 18 Y s 1545 1051 m 11 Y s
 1521 1043 m 16 X s 1553 1043 m 16 X s 1 0 0 c 1545 1043 m26 black 1593 980 m 24 Y s 1593 1019 m 15 Y s 1569 1012 m 17 X s 1601 1012 m 17 X s 1 0 0 c 1593 1012 m26 black 1642 892 m 46 Y s 1642 954 m 23 Y s 1618 946 m 16 X s 1649 946 m 17 X s 1 0 0 c
 1642 946 m26 black 1690 793 m 88 Y s 1690 896 m 34 Y s 1666 889 m 17 X s 1698 889 m 16 X s 1 0 0 c 1690 889 m26 black 1739 790 m 88 Y s 1739 893 m 34 Y s 1714 886 m 17 X s 1746 886 m 17 X s 1 0 0 c 1739 886 m26 black 1787 788 m 88 Y s 1787 891 m 34
 Y s 1763 883 m 16 X s 1795 883 m 16 X s 1 0 0 c 1787 883 m26 black 1835 905 m 39 Y s 1835 959 m 21 Y s 1811 952 m 17 X s 1843 952 m 17 X s 1 0 0 c 1835 952 m26 black 408 734 m 1452 X s 408 787 m -53 Y s 505 761 m -27 Y s 602 761 m -27 Y s 698 761 m
 -27 Y s 795 761 m -27 Y s 892 787 m -53 Y s 989 761 m -27 Y s 1085 761 m -27 Y s 1182 761 m -27 Y s 1279 761 m -27 Y s 1376 787 m -53 Y s 1473 761 m -27 Y s 1569 761 m -27 Y s 1666 761 m -27 Y s 1763 761 m -27 Y s 1860 787 m -53 Y s
 gsave  1814 2203 227 734 C 388.099 654.442 t 0 r /Helvetica-Bold findfont 68.6032 sf 0 0 m (0) show NC gr 
 gsave  1814 2203 227 734 C 871.321 654.442 t 0 r /Helvetica-Bold findfont 68.6032 sf 0 0 m (5) show NC gr 
 gsave  1814 2203 227 734 C 1335.52 654.442 t 0 r /Helvetica-Bold findfont 68.6032 sf 0 0 m (10) show NC gr 
 gsave  1814 2203 227 734 C 1818.74 654.442 t 0 r /Helvetica-Bold findfont 68.6032 sf 0 0 m (15) show NC gr  408 2717 m 1452 X s 408 2664 m 53 Y s 505 2691 m 26 Y s 602 2691 m 26 Y s 698 2691 m 26 Y s 795 2691 m 26 Y s 892 2664 m 53 Y s 989 2691 m 26
 Y s 1085 2691 m 26 Y s 1182 2691 m 26 Y s 1279 2691 m 26 Y s 1376 2664 m 53 Y s 1473 2691 m 26 Y s 1569 2691 m 26 Y s 1666 2691 m 26 Y s 1763 2691 m 26 Y s 1860 2664 m 53 Y s 408 734 m 1983 Y s
 gsave  1814 2203 227 734 C 338.636 2709.08 t 90 r /Helvetica findfont 34.3016 sf 0 0 m (\)) show NC gr 
 gsave  1814 2203 227 734 C 323.416 2693.86 t 90 r /Helvetica findfont 22.8677 sf 0 0 m (3) show NC gr 
 gsave  1814 2203 227 734 C 338.636 2674.84 t 90 r /Helvetica-Oblique findfont 34.3016 sf 0 0 m (c) show NC gr 
 gsave  1814 2203 227 734 C 323.416 2652.01 t 90 r /Helvetica findfont 22.8677 sf 0 0 m (\2552) show NC gr 
 gsave  1814 2203 227 734 C 338.636 2503.62 t 90 r /Helvetica findfont 34.3016 sf 0 0 m ( \(mb GeV) show NC gr 
 gsave  1814 2203 227 734 C 319.611 2488.4 t 90 r /Helvetica findfont 22.8677 sf 0 0 m (3) show NC gr 
 gsave  1814 2203 227 734 C 338.636 2465.57 t 90 r /Helvetica-Oblique findfont 34.3016 sf 0 0 m (p) show NC gr 
 gsave  1814 2203 227 734 C 338.636 2419.91 t 90 r /Helvetica findfont 34.3016 sf 0 0 m ( / d) show NC gr 
 gsave  1814 2203 227 734 C 338.636 2397.08 t 90 r /Symbol findfont 34.3016 sf 0 0 m (s) show NC gr 
 gsave  1814 2203 227 734 C 319.611 2381.86 t 90 r /Helvetica findfont 22.8677 sf 0 0 m (3) show NC gr 
 gsave  1814 2203 227 734 C 338.636 2355.23 t 90 r /Helvetica findfont 34.3016 sf 0 0 m ( d) show NC gr 
 gsave  1814 2203 227 734 C 338.636 2328.59 t 90 r /Helvetica-Oblique findfont 34.3016 sf 0 0 m (E) show NC gr  433 744 m -25 X s 433 755 m -25 X s 433 764 m -25 X s 457 772 m -49 X s
 gsave  1814 2203 227 734 C 369.075 776.198 t 0 r /Helvetica findfont 41.9242 sf 0 0 m (9) show NC gr 
 gsave  1814 2203 227 734 C 346.245 776.198 t 0 r /Symbol findfont 41.9242 sf 0 0 m (-) show NC gr 
 gsave  1814 2203 227 734 C 273.952 741.954 t 0 r /Helvetica findfont 64.7919 sf 0 0 m (10) show NC gr  433 826 m -25 X s 433 857 m -25 X s 433 879 m -25 X s 433 897 m -25 X s 433 911 m -25 X s 433 923 m -25 X s 433 933 m -25 X s 433 942 m -25 X s
 457 951 m -49 X s
 gsave  1814 2203 227 734 C 369.075 955.028 t 0 r /Helvetica findfont 41.9242 sf 0 0 m (8) show NC gr 
 gsave  1814 2203 227 734 C 346.245 955.028 t 0 r /Symbol findfont 41.9242 sf 0 0 m (-) show NC gr 
 gsave  1814 2203 227 734 C 273.952 920.784 t 0 r /Helvetica findfont 64.7919 sf 0 0 m (10) show NC gr  433 1004 m -25 X s 433 1036 m -25 X s 433 1058 m -25 X s 433 1075 m -25 X s 433 1090 m -25 X s 433 1102 m -25 X s 433 1112 m -25 X s 433 1121 m
 -25 X s 457 1129 m -49 X s
 gsave  1814 2203 227 734 C 369.075 1130.05 t 0 r /Helvetica findfont 41.9242 sf 0 0 m (7) show NC gr 
 gsave  1814 2203 227 734 C 346.245 1130.05 t 0 r /Symbol findfont 41.9242 sf 0 0 m (-) show NC gr 
 gsave  1814 2203 227 734 C 273.952 1099.61 t 0 r /Helvetica findfont 64.7919 sf 0 0 m (10) show NC gr  433 1183 m -25 X s 433 1215 m -25 X s 433 1237 m -25 X s 433 1254 m -25 X s 433 1268 m -25 X s 433 1280 m -25 X s 433 1291 m -25 X s 433 1300 m
 -25 X s 457 1308 m -49 X s
 gsave  1814 2203 227 734 C 369.075 1312.69 t 0 r /Helvetica findfont 41.9242 sf 0 0 m (6) show NC gr 
 gsave  1814 2203 227 734 C 346.245 1312.69 t 0 r /Symbol findfont 41.9242 sf 0 0 m (-) show NC gr 
 gsave  1814 2203 227 734 C 273.952 1278.44 t 0 r /Helvetica findfont 64.7919 sf 0 0 m (10) show NC gr  433 1362 m -25 X s 433 1393 m -25 X s 433 1416 m -25 X s 433 1433 m -25 X s 433 1447 m -25 X s 433 1459 m -25 X s 433 1469 m -25 X s 433 1479 m
 -25 X s 457 1487 m -49 X s
 gsave  1814 2203 227 734 C 369.075 1491.52 t 0 r /Helvetica findfont 41.9242 sf 0 0 m (5) show NC gr 
 gsave  1814 2203 227 734 C 346.245 1491.52 t 0 r /Symbol findfont 41.9242 sf 0 0 m (-) show NC gr 
 gsave  1814 2203 227 734 C 273.952 1457.27 t 0 r /Helvetica findfont 64.7919 sf 0 0 m (10) show NC gr  433 1541 m -25 X s 433 1572 m -25 X s 433 1594 m -25 X s 433 1612 m -25 X s 433 1626 m -25 X s 433 1638 m -25 X s 433 1648 m -25 X s 433 1657 m
 -25 X s 457 1666 m -49 X s
 gsave  1814 2203 227 734 C 369.075 1666.54 t 0 r /Helvetica findfont 41.9242 sf 0 0 m (4) show NC gr 
 gsave  1814 2203 227 734 C 346.245 1666.54 t 0 r /Symbol findfont 41.9242 sf 0 0 m (-) show NC gr 
 gsave  1814 2203 227 734 C 273.952 1636.1 t 0 r /Helvetica findfont 64.7919 sf 0 0 m (10) show NC gr  433 1719 m -25 X s 433 1751 m -25 X s 433 1773 m -25 X s 433 1790 m -25 X s 433 1805 m -25 X s 433 1817 m -25 X s 433 1827 m -25 X s 433 1836 m -25
 X s 457 1844 m -49 X s
 gsave  1814 2203 227 734 C 369.075 1849.18 t 0 r /Helvetica findfont 41.9242 sf 0 0 m (3) show NC gr 
 gsave  1814 2203 227 734 C 346.245 1849.18 t 0 r /Symbol findfont 41.9242 sf 0 0 m (-) show NC gr 
 gsave  1814 2203 227 734 C 273.952 1814.93 t 0 r /Helvetica findfont 64.7919 sf 0 0 m (10) show NC gr  433 1898 m -25 X s 433 1930 m -25 X s 433 1952 m -25 X s 433 1969 m -25 X s 433 1983 m -25 X s 433 1995 m -25 X s 433 2006 m -25 X s 433 2015 m
 -25 X s 457 2023 m -49 X s
 gsave  1814 2203 227 734 C 369.075 2024.2 t 0 r /Helvetica findfont 41.9242 sf 0 0 m (2) show NC gr 
 gsave  1814 2203 227 734 C 346.245 2024.2 t 0 r /Symbol findfont 41.9242 sf 0 0 m (-) show NC gr 
 gsave  1814 2203 227 734 C 273.952 1993.76 t 0 r /Helvetica findfont 64.7919 sf 0 0 m (10) show NC gr  433 2077 m -25 X s 433 2108 m -25 X s 433 2131 m -25 X s 433 2148 m -25 X s 433 2162 m -25 X s 433 2174 m -25 X s 433 2184 m -25 X s 433 2194 m
 -25 X s 457 2202 m -49 X s
 gsave  1814 2203 227 734 C 376.684 2203.03 t 0 r /Helvetica findfont 41.9242 sf 0 0 m (1) show NC gr 
 gsave  1814 2203 227 734 C 353.855 2203.03 t 0 r /Symbol findfont 41.9242 sf 0 0 m (-) show NC gr 
 gsave  1814 2203 227 734 C 281.562 2172.59 t 0 r /Helvetica findfont 64.7919 sf 0 0 m (10) show NC gr  433 2256 m -25 X s 433 2287 m -25 X s 433 2309 m -25 X s 433 2327 m -25 X s 433 2341 m -25 X s 433 2353 m -25 X s 433 2363 m -25 X s 433 2372 m
 -25 X s 457 2380 m -49 X s
 gsave  1814 2203 227 734 C 394.606 2354.57 t 0 r  -35 0 t /Helvetica findfont 64.7919 sf 0 0 m (1) show NC gr  433 2434 m -25 X s 433 2466 m -25 X s 433 2488 m -25 X s 433 2505 m -25 X s 433 2520 m -25 X s 433 2531 m -25 X s 433 2542 m -25 X s 433
 2551 m -25 X s 457 2559 m -49 X s
 gsave  1814 2203 227 734 C 394.606 2533.3 t 0 r  -70 0 t /Helvetica findfont 64.7919 sf 0 0 m (10) show NC gr  433 2613 m -25 X s 433 2644 m -25 X s 433 2667 m -25 X s 433 2684 m -25 X s 433 2698 m -25 X s 433 2710 m -25 X s 1860 734 m 1983 Y s 1835
 744 m 25 X s 1835 755 m 25 X s 1835 764 m 25 X s 1811 772 m 49 X s 1835 826 m 25 X s 1835 857 m 25 X s 1835 879 m 25 X s 1835 897 m 25 X s 1835 911 m 25 X s 1835 923 m 25 X s 1835 933 m 25 X s 1835 942 m 25 X s 1811 951 m 49 X s 1835 1004 m 25 X s
 1835 1036 m 25 X s 1835 1058 m 25 X s 1835 1075 m 25 X s 1835 1090 m 25 X s 1835 1102 m 25 X s 1835 1112 m 25 X s 1835 1121 m 25 X s 1811 1129 m 49 X s 1835 1183 m 25 X s 1835 1215 m 25 X s 1835 1237 m 25 X s 1835 1254 m 25 X s 1835 1268 m 25 X s
 1835 1280 m 25 X s 1835 1291 m 25 X s 1835 1300 m 25 X s 1811 1308 m 49 X s 1835 1362 m 25 X s 1835 1393 m 25 X s 1835 1416 m 25 X s 1835 1433 m 25 X s 1835 1447 m 25 X s 1835 1459 m 25 X s 1835 1469 m 25 X s 1835 1479 m 25 X s 1811 1487 m 49 X s
 1835 1541 m 25 X s 1835 1572 m 25 X s 1835 1594 m 25 X s 1835 1612 m 25 X s 1835 1626 m 25 X s 1835 1638 m 25 X s 1835 1648 m 25 X s 1835 1657 m 25 X s 1811 1666 m 49 X s 1835 1719 m 25 X s 1835 1751 m 25 X s 1835 1773 m 25 X s 1835 1790 m 25 X s
 1835 1805 m 25 X s 1835 1817 m 25 X s 1835 1827 m 25 X s 1835 1836 m 25 X s 1811 1844 m 49 X s 1835 1898 m 25 X s 1835 1930 m 25 X s 1835 1952 m 25 X s 1835 1969 m 25 X s 1835 1983 m 25 X s 1835 1995 m 25 X s 1835 2006 m 25 X s 1835 2015 m 25 X s
 1811 2023 m 49 X s 1835 2077 m 25 X s 1835 2108 m 25 X s 1835 2131 m 25 X s 1835 2148 m 25 X s 1835 2162 m 25 X s 1835 2174 m 25 X s 1835 2184 m 25 X s 1835 2194 m 25 X s 1811 2202 m 49 X s 1835 2256 m 25 X s 1835 2287 m 25 X s 1835 2309 m 25 X s
 1835 2327 m 25 X s 1835 2341 m 25 X s 1835 2353 m 25 X s 1835 2363 m 25 X s 1835 2372 m 25 X s 1811 2380 m 49 X s 1835 2434 m 25 X s 1835 2466 m 25 X s 1835 2488 m 25 X s 1835 2505 m 25 X s 1835 2520 m 25 X s 1835 2531 m 25 X s 1835 2542 m 25 X s
 1835 2551 m 25 X s 1811 2559 m 49 X s 1835 2613 m 25 X s 1835 2644 m 25 X s 1835 2667 m 25 X s 1835 2684 m 25 X s 1835 2698 m 25 X s 1835 2710 m 25 X s 522 2304 m -17 X s 505 2296 m 16 Y s 531 2304 m 22 X s 553 2296 m 16 Y s 570 2163 m -17 X s 553
 2155 m 15 Y s 579 2163 m 23 X s 602 2155 m 15 Y s 618 2038 m -16 X s 602 2031 m 15 Y s 628 2038 m 22 X s 650 2031 m 15 Y s 668 1937 m -18 X s 650 1930 m 15 Y s 677 1937 m 21 X s 698 1930 m 15 Y s 716 1844 m -18 X s 698 1836 m 16 Y s 725 1844 m 22 X
 s 747 1836 m 16 Y s 765 1760 m -18 X s 747 1753 m 15 Y s 774 1760 m 21 X s 795 1753 m 15 Y s 769 1768 m s 761 1768 m 16 X s 769 1753 m -1 Y s 761 1752 m 16 X s 813 1679 m -18 X s 795 1671 m 16 Y s 822 1679 m 22 X s 844 1671 m 16 Y s 861 1607 m -17 X
 s 844 1600 m 15 Y s 870 1607 m 22 X s 892 1600 m 15 Y s 866 1600 m s 858 1600 m 15 X s 910 1548 m -18 X s 892 1541 m 15 Y s 919 1548 m 21 X s 940 1541 m 15 Y s 914 1541 m -1 Y s 907 1540 m 15 X s 959 1495 m -19 X s 940 1487 m 15 Y s 968 1495 m 21 X
 s 989 1487 m 15 Y s 964 1487 m -1 Y s 956 1486 m 15 X s 1007 1433 m -18 X s 989 1425 m 16 Y s 1017 1433 m 20 X s 1037 1425 m 16 Y s 1012 1441 m s 1004 1441 m 16 X s 1012 1425 m -1 Y s 1004 1424 m 16 X s 1056 1393 m -19 X s 1037 1386 m 15 Y s 1065
 1393 m 20 X s 1085 1386 m 15 Y s 1060 1401 m 1 Y s 1053 1402 m 15 X s 1060 1386 m -3 Y s 1053 1383 m 15 X s 1124 1314 m -39 X s 1085 1306 m 16 Y s 1134 1314 m 48 X s 1182 1306 m 16 Y s 1129 1322 m 2 Y s 1121 1324 m 16 X s 1129 1306 m -3 Y s 1121
 1303 m 16 X s 1222 1252 m -40 X s 1182 1244 m 15 Y s 1231 1252 m 48 X s 1279 1244 m 15 Y s 1227 1259 m 4 Y s 1219 1263 m 15 X s 1227 1244 m -6 Y s 1219 1238 m 15 X s 1319 1168 m -40 X s 1279 1160 m 15 Y s 1328 1168 m 48 X s 1376 1160 m 15 Y s 1323
 1175 m 8 Y s 1316 1183 m 15 X s 1323 1160 m -12 Y s 1316 1148 m 15 X s 1454 1077 m -78 X s 1376 1069 m 15 Y s 1464 1077 m 105 X s 1569 1069 m 15 Y s 1459 1084 m 10 Y s 1451 1094 m 16 X s 1459 1069 m -15 Y s 1451 1054 m 16 X s 1686 949 m -117 X s
 1569 941 m 15 Y s 1695 949 m 165 X s 1860 941 m 15 Y s 1690 956 m 21 Y s 1683 977 m 15 X s 1690 941 m -38 Y s 1683 903 m 15 X s 1 0 0 c 526 2304 575 2163 623 2038 672 1937 721 1844 769 1760 817 1679 866 1607 914 1548 964 1495 1012 1433 1060 1393
 1129 1314 1227 1252 1323 1168 1459 1077 1690 949 17 { m22} R black 1 1 1 c 726 441 952 2056 bf black
 gsave  1814 2203 227 734 C 958.833 2370.45 t 0 r /Helvetica-Bold findfont 49.5467 sf 0 0 m (PYTHIA/Data) show NC gr 
 gsave  1814 2203 227 734 C 1069.18 2168.79 t 0 r /Helvetica-Bold findfont 34.3016 sf 0 0 m (0) show NC gr 
 gsave  1814 2203 227 734 C 1042.54 2145.96 t 0 r /Symbol findfont 49.5467 sf 0 0 m (p) show NC gr  1 0 0 c 998 2166 m26 black
 gsave  1814 2203 227 734 C 1206.15 2145.96 t 0 r /Helvetica-Bold findfont 49.5467 sf 0 0 m (PHENIX PRL) show NC gr  1 0 0 c 1161 2166 m22 black 1 1 1 c 1814 734 227 0 bf black 1 1 1 c 1452 440 408 294 bf black 1452 440 408 294 bl 408 294 m 1452 X s
 gsave  1814 734 227 0 C 1841.57 197.854 t 0 r /Helvetica findfont 53.2685 sf 0 0 m (\)) show NC gr 
 gsave  1814 734 227 0 C 1811.13 197.854 t 0 r /Helvetica-Oblique findfont 53.2685 sf 0 0 m (c) show NC gr 
 gsave  1814 734 227 0 C 1655.13 197.854 t 0 r /Helvetica findfont 53.2685 sf 0 0 m ( \(GeV/) show NC gr 
 gsave  1814 734 227 0 C 1632.3 167.415 t 0 r /Helvetica findfont 34.244 sf 0 0 m (T) show NC gr 
 gsave  1814 734 227 0 C 1598.06 197.854 t 0 r /Helvetica-Oblique findfont 53.2685 sf 0 0 m (p) show NC gr  408 352 m -58 Y s 505 323 m -29 Y s 602 323 m -29 Y s 698 323 m -29 Y s 795 323 m -29 Y s 892 352 m -58 Y s 989 323 m -29 Y s 1085 323 m -29 Y
 s 1182 323 m -29 Y s 1279 323 m -29 Y s 1376 352 m -58 Y s 1473 323 m -29 Y s 1569 323 m -29 Y s 1666 323 m -29 Y s 1763 323 m -29 Y s 1860 352 m -58 Y s
 gsave  1814 734 227 0 C 391.904 247.318 t 0 r /Helvetica findfont 53.2685 sf 0 0 m (0) show NC gr 
 gsave  1814 734 227 0 C 875.125 247.318 t 0 r /Helvetica findfont 53.2685 sf 0 0 m (5) show NC gr 
 gsave  1814 734 227 0 C 1343.13 247.318 t 0 r /Helvetica findfont 53.2685 sf 0 0 m (10) show NC gr 
 gsave  1814 734 227 0 C 1826.35 247.318 t 0 r /Helvetica findfont 53.2685 sf 0 0 m (15) show NC gr  408 734 m 1452 X s 408 676 m 58 Y s 505 705 m 29 Y s 602 705 m 29 Y s 698 705 m 29 Y s 795 705 m 29 Y s 892 676 m 58 Y s 989 705 m 29 Y s 1085 705 m
 29 Y s 1182 705 m 29 Y s 1279 705 m 29 Y s 1376 676 m 58 Y s 1473 705 m 29 Y s 1569 705 m 29 Y s 1666 705 m 29 Y s 1763 705 m 29 Y s 1860 676 m 58 Y s 408 294 m 440 Y s
 gsave  1814 734 227 0 C 315.806 422.343 t 90 r /Helvetica findfont 53.2685 sf 0 0 m (data/PYTHIA) show NC gr  441 294 m -33 X s 425 311 m -17 X s 425 329 m -17 X s 425 347 m -17 X s 425 364 m -17 X s 441 382 m -33 X s 425 399 m -17 X s 425 417 m -17
 X s 425 435 m -17 X s 425 452 m -17 X s 441 470 m -33 X s 425 488 m -17 X s 425 505 m -17 X s 425 523 m -17 X s 425 540 m -17 X s 441 558 m -33 X s 425 576 m -17 X s 425 593 m -17 X s 425 611 m -17 X s 425 629 m -17 X s 441 646 m -33 X s 425 664 m
 -17 X s 425 681 m -17 X s 425 699 m -17 X s 425 717 m -17 X s 441 734 m -33 X s
 gsave  1814 734 227 0 C 365.27 277.757 t 0 r /Helvetica findfont 53.2685 sf 0 0 m (0) show NC gr 
 gsave  1814 734 227 0 C 323.416 365.27 t 0 r /Helvetica findfont 53.2685 sf 0 0 m (0.4) show NC gr 
 gsave  1814 734 227 0 C 323.416 452.782 t 0 r /Helvetica findfont 53.2685 sf 0 0 m (0.8) show NC gr 
 gsave  1814 734 227 0 C 323.416 536.49 t 0 r /Helvetica findfont 53.2685 sf 0 0 m (1.2) show NC gr 
 gsave  1814 734 227 0 C 323.416 627.807 t 0 r /Helvetica findfont 53.2685 sf 0 0 m (1.6) show NC gr 
 gsave  1814 734 227 0 C 365.27 711.515 t 0 r /Helvetica findfont 53.2685 sf 0 0 m (2) show NC gr  1860 294 m 440 Y s 1827 294 m 33 X s 1843 311 m 17 X s 1843 329 m 17 X s 1843 347 m 17 X s 1843 364 m 17 X s 1827 382 m 33 X s 1843 399 m 17 X s 1843
 417 m 17 X s 1843 435 m 17 X s 1843 452 m 17 X s 1827 470 m 33 X s 1843 488 m 17 X s 1843 505 m 17 X s 1843 523 m 17 X s 1843 540 m 17 X s 1827 558 m 33 X s 1843 576 m 17 X s 1843 593 m 17 X s 1843 611 m 17 X s 1843 629 m 17 X s 1827 646 m 33 X s
 1843 664 m 17 X s 1843 681 m 17 X s 1843 699 m 17 X s 1843 717 m 17 X s 1827 734 m 33 X s 517 446 m -12 X s 505 439 m 15 Y s 535 446 m 18 X s 553 439 m 15 Y s 565 487 m -12 X s 553 479 m 16 Y s 584 487 m 18 X s 602 479 m 16 Y s 614 503 m -12 X s 602
 495 m 16 Y s 632 503 m 18 X s 650 495 m 16 Y s 623 518 m 1 Y s 615 519 m 16 X s 623 488 m -1 Y s 615 487 m 16 X s 663 535 m -13 X s 650 528 m 15 Y s 681 535 m 17 X s 698 528 m 15 Y s 672 551 m 4 Y s 665 555 m 15 X s 672 520 m -4 Y s 665 516 m 15 X s
 712 542 m -14 X s 698 535 m 15 Y s 730 542 m 17 X s 747 535 m 15 Y s 721 558 m 7 Y s 713 565 m 15 X s 721 527 m -8 Y s 713 519 m 15 X s 760 543 m -13 X s 747 536 m 15 Y s 778 543 m 17 X s 795 536 m 15 Y s 769 559 m 11 Y s 761 570 m 16 X s 769 528 m
 -11 Y s 761 517 m 16 X s 808 525 m -13 X s 795 517 m 15 Y s 827 525 m 17 X s 844 517 m 15 Y s 817 540 m 5 Y s 810 545 m 15 X s 817 510 m -5 Y s 810 505 m 15 X s 857 515 m -13 X s 844 507 m 15 Y s 875 515 m 17 X s 892 507 m 15 Y s 866 530 m 6 Y s 858
 536 m 15 X s 866 499 m -5 Y s 858 494 m 15 X s 905 524 m -13 X s 892 516 m 15 Y s 923 524 m 17 X s 940 516 m 15 Y s 914 539 m 8 Y s 907 547 m 15 X s 914 508 m -7 Y s 907 501 m 15 X s 954 539 m -14 X s 940 531 m 15 Y s 973 539 m 16 X s 989 531 m 15 Y
 s 964 554 m 10 Y s 956 564 m 15 X s 964 523 m -10 Y s 956 513 m 15 X s 1003 512 m -14 X s 989 504 m 15 Y s 1021 512 m 16 X s 1037 504 m 15 Y s 1012 527 m 10 Y s 1004 537 m 16 X s 1012 496 m -9 Y s 1004 487 m 16 X s 1051 540 m -14 X s 1037 533 m 15 Y
 s 1069 540 m 16 X s 1085 533 m 15 Y s 1060 556 m 15 Y s 1053 571 m 15 X s 1060 525 m -15 Y s 1053 510 m 15 X s 1120 498 m -35 X s 1085 490 m 15 Y s 1138 498 m 44 X s 1182 490 m 15 Y s 1129 513 m 12 Y s 1121 525 m 16 X s 1129 483 m -12 Y s 1121 471 m
 16 X s 1218 560 m -36 X s 1182 553 m 15 Y s 1236 560 m 43 X s 1279 553 m 15 Y s 1227 576 m 27 Y s 1219 603 m 15 X s 1227 545 m -28 Y s 1219 517 m 15 X s 1314 526 m -35 X s 1279 519 m 15 Y s 1333 526 m 43 X s 1376 519 m 15 Y s 1323 542 m 36 Y s 1316
 578 m 15 X s 1323 511 m -36 Y s 1316 475 m 15 X s 1450 528 m -74 X s 1376 521 m 15 Y s 1468 528 m 101 X s 1569 521 m 15 Y s 1459 544 m 43 Y s 1451 587 m 16 X s 1459 513 m -44 Y s 1451 469 m 16 X s 1681 547 m -112 X s 1569 539 m 15 Y s 1699 547 m 161
 X s 1860 539 m 15 Y s 1690 562 m 96 Y s 1683 658 m 15 X s 1690 531 m -96 Y s 1683 435 m 15 X s 1 0 0 c /w 30 def /w2 {w 2 div} def /w3 {w 3 div} def 526 446 575 487 623 503 672 535 721 542 769 543 817 525 866 515 914 524 964 539 1012 512 1060 540
 1129 498 1227 560 1323 526 1459 528 1690 547 17 { m26} R
 gr  gr showpage
end
%%EOF
