%!PS-Adobe-2.0 EPSF-2.0
%%BoundingBox:  0 0 567 734
%%Title: obr/piminus_phenix_star_pythia_mb_with_kevin.eps: PYTHIA/STAR,PHENIX pi- spectra
%%Creator: ROOT Version 5.34/38
%%CreationDate: Thu May 28 15:19:03 2020
%%EndComments
%%BeginProlog
80 dict begin
/s {stroke} def /l {lineto} def /m {moveto} def /t {translate} def
/r {rotate} def /rl {roll}  def /R {repeat} def
/d {rlineto} def /rm {rmoveto} def /gr {grestore} def /f {eofill} def
/c {setrgbcolor} def /black {0 setgray} def /sd {setdash} def
/cl {closepath} def /sf {scalefont setfont} def /lw {setlinewidth} def
/box {m dup 0 exch d exch 0 d 0 exch neg d cl} def
/NC{systemdict begin initclip end}def/C{NC box clip newpath}def
/bl {box s} def /bf {gsave box gsave f grestore 1 lw [] 0 sd s grestore} def /Y { 0 exch d} def /X { 0 d} def 
/K {{pop pop 0 moveto} exch kshow} bind def
/ita {/ang 15 def gsave [1 0 ang dup sin exch cos div 1 0 0] concat} def 
/mp {newpath /y exch def /x exch def} def
/side {[w .77 mul w .23 mul] .385 w mul sd w 0 l currentpoint t -144 r} def
/mr {mp x y w2 0 360 arc} def /m24 {mr s} def /m20 {mr f} def
/mb {mp x y w2 add m w2 neg 0 d 0 w neg d w 0 d 0 w d cl} def
/mt {mp x y w2 add m w2 neg w neg d w 0 d cl} def
/m21 {mb f} def /m25 {mb s} def /m22 {mt f} def /m26{mt s} def
/m23 {mp x y w2 sub m w2 w d w neg 0 d cl f} def
/m27 {mp x y w2 add m w3 neg w2 neg d w3 w2 neg d w3 w2 d cl s} def
/m28 {mp x w2 sub y w2 sub w3 add m w3 0 d  0 w3 neg d w3 0 d 0 w3 d w3 0 d  0 w3 d w3 neg 0 d 0 w3 d w3 neg 0 d 0 w3 neg d w3 neg 0 d cl s } def
/m29 {mp gsave x w2 sub y w2 add w3 sub m currentpoint t 4 {side} repeat cl fill gr} def
/m30 {mp gsave x w2 sub y w2 add w3 sub m currentpoint t 4 {side} repeat cl s gr} def
/m31 {mp x y w2 sub m 0 w d x w2 sub y m w 0 d x w2 sub y w2 add m w w neg d x w2 sub y w2 sub m w w d s} def
/m32 {mp x y w2 sub m w2 w d w neg 0 d cl s} def
/m33 {mp x y w2 add m w3 neg w2 neg d w3 w2 neg d w3 w2 d cl f} def
/m34 {mp x w2 sub y w2 sub w3 add m w3 0 d  0 w3 neg d w3 0 d 0 w3 d w3 0 d  0 w3 d w3 neg 0 d 0 w3 d w3 neg 0 d 0 w3 neg d w3 neg 0 d cl f } def
/m2 {mp x y w2 sub m 0 w d x w2 sub y m w 0 d s} def
/m5 {mp x w2 sub y w2 sub m w w d x w2 sub y w2 add m w w neg d s} def
/reEncode {exch findfont dup length dict begin {1 index /FID eq  {pop pop} {def} ifelse } forall /Encoding exch def currentdict end dup /FontName get exch definefont pop } def [/Times-Bold /Times-Italic /Times-BoldItalic /Helvetica /Helvetica-Oblique
 /Helvetica-Bold /Helvetica-BoldOblique /Courier /Courier-Oblique /Courier-Bold /Courier-BoldOblique /Times-Roman /AvantGarde-Book /AvantGarde-BookOblique /AvantGarde-Demi /AvantGarde-DemiOblique /Bookman-Demi /Bookman-DemiItalic /Bookman-Light
 /Bookman-LightItalic /Helvetica-Narrow /Helvetica-Narrow-Bold /Helvetica-Narrow-BoldOblique /Helvetica-Narrow-Oblique /NewCenturySchlbk-Roman /NewCenturySchlbk-Bold /NewCenturySchlbk-BoldItalic /NewCenturySchlbk-Italic /Palatino-Bold
 /Palatino-BoldItalic /Palatino-Italic /Palatino-Roman ] {ISOLatin1Encoding reEncode } forall
%%EndProlog
%%BeginSetup
%%EndSetup
newpath  gsave  .25 .25 scale  gsave  0 0 t black[  ] 0 sd 3 lw 1 1 1 c 2268 2937 0 0 bf black 1 1 1 c 1814 2203 227 734 bf black 1 1 1 c 1452 1983 408 734 bf black 1452 1983 408 734 bl 1 1 1 c black 455 2667 m 16 X s 486 2667 m 16 X s /w 21 def /w2
 {w 2 div} def /w3 {w 3 div} def 478 2667 m25 502 2509 m 16 X s 533 2509 m 16 X s 525 2509 m25 549 2319 m 15 X s 580 2319 m 15 X s 572 2319 m25 595 2163 m 16 X s 626 2163 m 16 X s 619 2163 m25 642 2032 m 16 X s 673 2032 m 16 X s 666 2032 m25 689 1918
 m 16 X s 720 1918 m 16 X s 713 1918 m25 736 1817 m 16 X s 767 1817 m 16 X s 759 1817 m25 783 1729 m 16 X s 814 1729 m 16 X s 806 1729 m25 830 1650 m 15 X s 861 1650 m 15 X s 853 1650 m25 876 1579 m 16 X s 907 1579 m 16 X s 900 1579 m25 923 1512 m 16
 X s 954 1512 m 16 X s 947 1512 m25 970 1457 m 16 X s 1001 1457 m 16 X s 993 1457 m25 1017 1401 m 16 X s 1048 1401 m 16 X s 1040 1401 m25 1064 1356 m 15 X s 1095 1356 m 15 X s 1087 1356 m25 1110 1310 m 16 X s 1141 1310 m 16 X s 1134 1310 m25 1157
 1271 m 16 X s 1188 1271 m 16 X s 1181 1271 m25 1204 1239 m 16 X s 1235 1239 m 16 X s 1227 1239 m25 1274 1184 m 2 Y s 1274 1201 m 1 Y s 1251 1193 m 16 X s 1282 1193 m 16 X s 1274 1193 m25 1321 1140 m 5 Y s 1321 1160 m 3 Y s 1298 1152 m 16 X s 1329
 1152 m 16 X s 1321 1152 m25 1368 1085 m 10 Y s 1368 1110 m 7 Y s 1345 1103 m 15 X s 1376 1103 m 15 X s 1368 1103 m25 1415 1082 m 9 Y s 1415 1107 m 6 Y s 1391 1099 m 16 X s 1422 1099 m 16 X s 1415 1099 m25 1462 1043 m 14 Y s 1462 1073 m 9 Y s 1438
 1065 m 16 X s 1469 1065 m 16 X s 1462 1065 m25 1508 991 m 22 Y s 1508 1028 m 14 Y s 1485 1020 m 16 X s 1516 1020 m 16 X s 1508 1020 m25 1555 976 m 25 Y s 1555 1016 m 15 Y s 1532 1008 m 16 X s 1563 1008 m 16 X s 1555 1008 m25 1602 914 m 38 Y s 1602
 967 m 22 Y s 1579 960 m 15 X s 1610 960 m 15 X s 1602 960 m25 1649 788 m 89 Y s 1649 892 m 34 Y s 1625 884 m 16 X s 1656 884 m 16 X s 1649 884 m25 1696 881 m 47 Y s 1696 943 m 24 Y s 1672 935 m 16 X s 1703 935 m 16 X s 1696 935 m25 1789 734 m 81 Y s
 1789 830 m 47 Y s 1766 822 m 16 X s 1797 822 m 16 X s 1789 822 m25 408 734 m 1452 X s 455 787 m -53 Y s 502 761 m -27 Y s 549 761 m -27 Y s 595 761 m -27 Y s 642 787 m -53 Y s 689 761 m -27 Y s 736 761 m -27 Y s 783 761 m -27 Y s 830 787 m -53 Y s
 876 761 m -27 Y s 923 761 m -27 Y s 970 761 m -27 Y s 1017 787 m -53 Y s 1064 761 m -27 Y s 1110 761 m -27 Y s 1157 761 m -27 Y s 1204 787 m -53 Y s 1251 761 m -27 Y s 1298 761 m -27 Y s 1345 761 m -27 Y s 1391 787 m -53 Y s 1438 761 m -27 Y s 1485
 761 m -27 Y s 1532 761 m -27 Y s 1579 787 m -53 Y s 1625 761 m -27 Y s 1672 761 m -27 Y s 1719 761 m -27 Y s 1766 787 m -53 Y s 455 787 m -53 Y s 408 761 m -27 Y s 1766 787 m -53 Y s 1813 761 m -27 Y s 1860 761 m -27 Y s
 gsave  1814 2203 227 734 C 433.758 654.442 t 0 r /Helvetica-Bold findfont 68.6032 sf 0 0 m (0) show NC gr 
 gsave  1814 2203 227 734 C 620.198 654.442 t 0 r /Helvetica-Bold findfont 68.6032 sf 0 0 m (2) show NC gr 
 gsave  1814 2203 227 734 C 810.442 654.442 t 0 r /Helvetica-Bold findfont 68.6032 sf 0 0 m (4) show NC gr 
 gsave  1814 2203 227 734 C 996.882 654.442 t 0 r /Helvetica-Bold findfont 68.6032 sf 0 0 m (6) show NC gr 
 gsave  1814 2203 227 734 C 1183.32 654.442 t 0 r /Helvetica-Bold findfont 68.6032 sf 0 0 m (8) show NC gr 
 gsave  1814 2203 227 734 C 1350.74 654.442 t 0 r /Helvetica-Bold findfont 68.6032 sf 0 0 m (10) show NC gr 
 gsave  1814 2203 227 734 C 1537.18 654.442 t 0 r /Helvetica-Bold findfont 68.6032 sf 0 0 m (12) show NC gr 
 gsave  1814 2203 227 734 C 1727.42 654.442 t 0 r /Helvetica-Bold findfont 68.6032 sf 0 0 m (14) show NC gr  408 2717 m 1452 X s 455 2664 m 53 Y s 502 2691 m 26 Y s 549 2691 m 26 Y s 595 2691 m 26 Y s 642 2664 m 53 Y s 689 2691 m 26 Y s 736 2691 m 26
 Y s 783 2691 m 26 Y s 830 2664 m 53 Y s 876 2691 m 26 Y s 923 2691 m 26 Y s 970 2691 m 26 Y s 1017 2664 m 53 Y s 1064 2691 m 26 Y s 1110 2691 m 26 Y s 1157 2691 m 26 Y s 1204 2664 m 53 Y s 1251 2691 m 26 Y s 1298 2691 m 26 Y s 1345 2691 m 26 Y s
 1391 2664 m 53 Y s 1438 2691 m 26 Y s 1485 2691 m 26 Y s 1532 2691 m 26 Y s 1579 2664 m 53 Y s 1625 2691 m 26 Y s 1672 2691 m 26 Y s 1719 2691 m 26 Y s 1766 2664 m 53 Y s 455 2664 m 53 Y s 408 2691 m 26 Y s 1766 2664 m 53 Y s 1813 2691 m 26 Y s 1860
 2691 m 26 Y s 408 734 m 1983 Y s 433 736 m -25 X s 433 747 m -25 X s 433 756 m -25 X s 457 764 m -49 X s
 gsave  1814 2203 227 734 C 365.27 768.589 t 0 r /Helvetica-Bold findfont 45.7355 sf 0 0 m (9) show NC gr 
 gsave  1814 2203 227 734 C 338.636 768.589 t 0 r /Symbol findfont 45.7355 sf 0 0 m (-) show NC gr 
 gsave  1814 2203 227 734 C 262.538 730.54 t 0 r /Helvetica-Bold findfont 68.6032 sf 0 0 m (10) show NC gr  433 818 m -25 X s 433 850 m -25 X s 433 872 m -25 X s 433 890 m -25 X s 433 904 m -25 X s 433 916 m -25 X s 433 926 m -25 X s 433 935 m -25 X
 s 457 944 m -49 X s
 gsave  1814 2203 227 734 C 365.27 951.223 t 0 r /Helvetica-Bold findfont 45.7355 sf 0 0 m (8) show NC gr 
 gsave  1814 2203 227 734 C 338.636 951.223 t 0 r /Symbol findfont 45.7355 sf 0 0 m (-) show NC gr 
 gsave  1814 2203 227 734 C 262.538 913.174 t 0 r /Helvetica-Bold findfont 68.6032 sf 0 0 m (10) show NC gr  433 998 m -25 X s 433 1029 m -25 X s 433 1052 m -25 X s 433 1069 m -25 X s 433 1083 m -25 X s 433 1095 m -25 X s 433 1106 m -25 X s 433 1115
 m -25 X s 457 1123 m -49 X s
 gsave  1814 2203 227 734 C 365.27 1126.25 t 0 r /Helvetica-Bold findfont 45.7355 sf 0 0 m (7) show NC gr 
 gsave  1814 2203 227 734 C 338.636 1126.25 t 0 r /Symbol findfont 45.7355 sf 0 0 m (-) show NC gr 
 gsave  1814 2203 227 734 C 262.538 1092 t 0 r /Helvetica-Bold findfont 68.6032 sf 0 0 m (10) show NC gr  433 1177 m -25 X s 433 1209 m -25 X s 433 1231 m -25 X s 433 1249 m -25 X s 433 1263 m -25 X s 433 1275 m -25 X s 433 1285 m -25 X s 433 1295 m
 -25 X s 457 1303 m -49 X s
 gsave  1814 2203 227 734 C 365.27 1308.88 t 0 r /Helvetica-Bold findfont 45.7355 sf 0 0 m (6) show NC gr 
 gsave  1814 2203 227 734 C 338.636 1308.88 t 0 r /Symbol findfont 45.7355 sf 0 0 m (-) show NC gr 
 gsave  1814 2203 227 734 C 262.538 1270.83 t 0 r /Helvetica-Bold findfont 68.6032 sf 0 0 m (10) show NC gr  433 1357 m -25 X s 433 1389 m -25 X s 433 1411 m -25 X s 433 1428 m -25 X s 433 1443 m -25 X s 433 1455 m -25 X s 433 1465 m -25 X s 433 1474
 m -25 X s 457 1482 m -49 X s
 gsave  1814 2203 227 734 C 365.27 1487.71 t 0 r /Helvetica-Bold findfont 45.7355 sf 0 0 m (5) show NC gr 
 gsave  1814 2203 227 734 C 338.636 1487.71 t 0 r /Symbol findfont 45.7355 sf 0 0 m (-) show NC gr 
 gsave  1814 2203 227 734 C 262.538 1449.66 t 0 r /Helvetica-Bold findfont 68.6032 sf 0 0 m (10) show NC gr  433 1537 m -25 X s 433 1568 m -25 X s 433 1591 m -25 X s 433 1608 m -25 X s 433 1622 m -25 X s 433 1634 m -25 X s 433 1645 m -25 X s 433 1654
 m -25 X s 457 1662 m -49 X s
 gsave  1814 2203 227 734 C 365.27 1662.74 t 0 r /Helvetica-Bold findfont 45.7355 sf 0 0 m (4) show NC gr 
 gsave  1814 2203 227 734 C 338.636 1662.74 t 0 r /Symbol findfont 45.7355 sf 0 0 m (-) show NC gr 
 gsave  1814 2203 227 734 C 262.538 1628.49 t 0 r /Helvetica-Bold findfont 68.6032 sf 0 0 m (10) show NC gr  433 1716 m -25 X s 433 1748 m -25 X s 433 1770 m -25 X s 433 1788 m -25 X s 433 1802 m -25 X s 433 1814 m -25 X s 433 1824 m -25 X s 433 1833
 m -25 X s 457 1842 m -49 X s
 gsave  1814 2203 227 734 C 365.27 1849.18 t 0 r /Helvetica-Bold findfont 45.7355 sf 0 0 m (3) show NC gr 
 gsave  1814 2203 227 734 C 338.636 1849.18 t 0 r /Symbol findfont 45.7355 sf 0 0 m (-) show NC gr 
 gsave  1814 2203 227 734 C 262.538 1811.13 t 0 r /Helvetica-Bold findfont 68.6032 sf 0 0 m (10) show NC gr  433 1896 m -25 X s 433 1927 m -25 X s 433 1950 m -25 X s 433 1967 m -25 X s 433 1981 m -25 X s 433 1993 m -25 X s 433 2004 m -25 X s 433 2013
 m -25 X s 457 2021 m -49 X s
 gsave  1814 2203 227 734 C 365.27 2024.2 t 0 r /Helvetica-Bold findfont 45.7355 sf 0 0 m (2) show NC gr 
 gsave  1814 2203 227 734 C 338.636 2024.2 t 0 r /Symbol findfont 45.7355 sf 0 0 m (-) show NC gr 
 gsave  1814 2203 227 734 C 262.538 1989.96 t 0 r /Helvetica-Bold findfont 68.6032 sf 0 0 m (10) show NC gr  433 2075 m -25 X s 433 2107 m -25 X s 433 2129 m -25 X s 433 2147 m -25 X s 433 2161 m -25 X s 433 2173 m -25 X s 433 2183 m -25 X s 433 2193
 m -25 X s 457 2201 m -49 X s
 gsave  1814 2203 227 734 C 372.88 2203.03 t 0 r /Helvetica-Bold findfont 45.7355 sf 0 0 m (1) show NC gr 
 gsave  1814 2203 227 734 C 346.245 2203.03 t 0 r /Symbol findfont 45.7355 sf 0 0 m (-) show NC gr 
 gsave  1814 2203 227 734 C 270.147 2168.79 t 0 r /Helvetica-Bold findfont 68.6032 sf 0 0 m (10) show NC gr  433 2255 m -25 X s 433 2287 m -25 X s 433 2309 m -25 X s 433 2326 m -25 X s 433 2341 m -25 X s 433 2353 m -25 X s 433 2363 m -25 X s 433 2372
 m -25 X s 457 2380 m -49 X s
 gsave  1814 2203 227 734 C 393.313 2351.58 t 0 r  -37 0 t /Helvetica-Bold findfont 68.6032 sf 0 0 m (1) show NC gr  433 2435 m -25 X s 433 2466 m -25 X s 433 2489 m -25 X s 433 2506 m -25 X s 433 2520 m -25 X s 433 2532 m -25 X s 433 2543 m -25 X s
 433 2552 m -25 X s 457 2560 m -49 X s
 gsave  1814 2203 227 734 C 393.313 2531.18 t 0 r  -74 0 t /Helvetica-Bold findfont 68.6032 sf 0 0 m (10) show NC gr  433 2614 m -25 X s 433 2646 m -25 X s 433 2668 m -25 X s 433 2686 m -25 X s 433 2700 m -25 X s 433 2712 m -25 X s 1860 734 m 1983 Y
 s 1835 736 m 25 X s 1835 747 m 25 X s 1835 756 m 25 X s 1811 764 m 49 X s 1835 818 m 25 X s 1835 850 m 25 X s 1835 872 m 25 X s 1835 890 m 25 X s 1835 904 m 25 X s 1835 916 m 25 X s 1835 926 m 25 X s 1835 935 m 25 X s 1811 944 m 49 X s 1835 998 m 25
 X s 1835 1029 m 25 X s 1835 1052 m 25 X s 1835 1069 m 25 X s 1835 1083 m 25 X s 1835 1095 m 25 X s 1835 1106 m 25 X s 1835 1115 m 25 X s 1811 1123 m 49 X s 1835 1177 m 25 X s 1835 1209 m 25 X s 1835 1231 m 25 X s 1835 1249 m 25 X s 1835 1263 m 25 X
 s 1835 1275 m 25 X s 1835 1285 m 25 X s 1835 1295 m 25 X s 1811 1303 m 49 X s 1835 1357 m 25 X s 1835 1389 m 25 X s 1835 1411 m 25 X s 1835 1428 m 25 X s 1835 1443 m 25 X s 1835 1455 m 25 X s 1835 1465 m 25 X s 1835 1474 m 25 X s 1811 1482 m 49 X s
 1835 1537 m 25 X s 1835 1568 m 25 X s 1835 1591 m 25 X s 1835 1608 m 25 X s 1835 1622 m 25 X s 1835 1634 m 25 X s 1835 1645 m 25 X s 1835 1654 m 25 X s 1811 1662 m 49 X s 1835 1716 m 25 X s 1835 1748 m 25 X s 1835 1770 m 25 X s 1835 1788 m 25 X s
 1835 1802 m 25 X s 1835 1814 m 25 X s 1835 1824 m 25 X s 1835 1833 m 25 X s 1811 1842 m 49 X s 1835 1896 m 25 X s 1835 1927 m 25 X s 1835 1950 m 25 X s 1835 1967 m 25 X s 1835 1981 m 25 X s 1835 1993 m 25 X s 1835 2004 m 25 X s 1835 2013 m 25 X s
 1811 2021 m 49 X s 1835 2075 m 25 X s 1835 2107 m 25 X s 1835 2129 m 25 X s 1835 2147 m 25 X s 1835 2161 m 25 X s 1835 2173 m 25 X s 1835 2183 m 25 X s 1835 2193 m 25 X s 1811 2201 m 49 X s 1835 2255 m 25 X s 1835 2287 m 25 X s 1835 2309 m 25 X s
 1835 2326 m 25 X s 1835 2341 m 25 X s 1835 2353 m 25 X s 1835 2363 m 25 X s 1835 2372 m 25 X s 1811 2380 m 49 X s 1835 2435 m 25 X s 1835 2466 m 25 X s 1835 2489 m 25 X s 1835 2506 m 25 X s 1835 2520 m 25 X s 1835 2532 m 25 X s 1835 2543 m 25 X s
 1835 2552 m 25 X s 1811 2560 m 49 X s 1835 2614 m 25 X s 1835 2646 m 25 X s 1835 2668 m 25 X s 1835 2686 m 25 X s 1835 2700 m 25 X s 1835 2712 m 25 X s 951 1514 m -28 X s 923 1506 m 15 Y s 969 1514 m 48 X s 1017 1506 m 15 Y s 1044 1417 m -27 X s
 1017 1409 m 15 Y s 1062 1417 m 48 X s 1110 1409 m 15 Y s 1140 1322 m -30 X s 1110 1315 m 15 Y s 1158 1322 m 46 X s 1204 1315 m 15 Y s 1236 1248 m -32 X s 1204 1240 m 15 Y s 1254 1248 m 44 X s 1298 1240 m 15 Y s 1355 1158 m -57 X s 1298 1151 m 15 Y s
 1373 1158 m 112 X s 1485 1151 m 15 Y s 1541 1043 m -56 X s 1485 1035 m 16 Y s 1560 1043 m 112 X s 1672 1035 m 16 Y s 1551 1028 m -1 Y s 1543 1027 m 15 X s /w 30 def /w2 {w 2 div} def /w3 {w 3 div} def 960 1514 1053 1417 1149 1322 1245 1248 1364 1158
 1551 1043 6 { m23} R 739 1839 m -3 X s 736 1832 m 15 Y s 754 1839 m 5 X s 759 1832 m 15 Y s 762 1796 m -3 X s 759 1789 m 15 Y s 777 1796 m 6 X s 783 1789 m 15 Y s 785 1753 m -2 X s 783 1745 m 16 Y s 801 1753 m 5 X s 806 1745 m 16 Y s 810 1715 m -4 X
 s 806 1708 m 15 Y s 825 1715 m 5 X s 830 1708 m 15 Y s 842 1659 m -12 X s 830 1651 m 15 Y s 857 1659 m 19 X s 876 1651 m 15 Y s 889 1590 m -13 X s 876 1582 m 15 Y s 905 1590 m 18 X s 923 1582 m 15 Y s 936 1525 m -13 X s 923 1517 m 15 Y s 951 1525 m
 19 X s 970 1517 m 15 Y s 983 1469 m -13 X s 970 1461 m 15 Y s 998 1469 m 19 X s 1017 1461 m 15 Y s 1030 1414 m -13 X s 1017 1406 m 15 Y s 1045 1414 m 19 X s 1064 1406 m 15 Y s 1078 1366 m -14 X s 1064 1359 m 15 Y s 1093 1366 m 17 X s 1110 1359 m 15
 Y s 1141 1301 m -31 X s 1110 1293 m 15 Y s 1156 1301 m 48 X s 1204 1293 m 15 Y s 1263 1186 m -59 X s 1204 1178 m 16 Y s 1278 1186 m 113 X s 1391 1178 m 16 Y s 1459 1063 m -68 X s 1391 1055 m 15 Y s 1474 1063 m 105 X s 1579 1055 m 15 Y s 1674 943 m
 -95 X s 1579 935 m 15 Y s 1689 943 m 171 X s 1860 935 m 15 Y s /w 21 def /w2 {w 2 div} def /w3 {w 3 div} def 746 1839 770 1796 793 1753 817 1715 849 1659 897 1590 944 1525 991 1469 1037 1414 1085 1366 1149 1301 1271 1186 1466 1063 1682 943 14 { m21}
 R 1 1 1 c 726 441 952 2056 bf black 952 2056 m 726 X s 1678 2056 m 441 Y s 1678 2497 m -726 X s 952 2497 m -441 Y s
 gsave  1814 2203 227 734 C 1133.86 2393.28 t 0 r /Helvetica-Bold findfont 68.6032 sf 0 0 m (PYTHIA 6.28 pi\255) show NC gr  1043 2423 m25
 gsave  1814 2203 227 734 C 1133.86 2244.89 t 0 r /Helvetica-Bold findfont 68.6032 sf 0 0 m (PHENIX pi\255) show NC gr  /w 30 def /w2 {w 2 div} def /w3 {w 3 div} def 1043 2276 m23
 gsave  1814 2203 227 734 C 1133.86 2100.3 t 0 r /Helvetica-Bold findfont 68.6032 sf 0 0 m (STAR pi\255) show NC gr  /w 21 def /w2 {w 2 div} def /w3 {w 3 div} def 1043 2130 m21 1 1 1 c 1814 734 227 0 bf black 1 1 1 c 1452 440 408 294 bf black 1452
 440 408 294 bl 408 294 m 1452 X s
 gsave  1814 734 227 0 C 1658.93 197.854 t 0 r /Helvetica findfont 53.2685 sf 0 0 m ( \(GeV/c\)) show NC gr 
 gsave  1814 734 227 0 C 1636.1 167.415 t 0 r /Helvetica findfont 34.244 sf 0 0 m (T) show NC gr 
 gsave  1814 734 227 0 C 1601.86 197.854 t 0 r /Helvetica-Oblique findfont 53.2685 sf 0 0 m (p) show NC gr  408 352 m -58 Y s 505 323 m -29 Y s 602 323 m -29 Y s 698 323 m -29 Y s 795 323 m -29 Y s 892 352 m -58 Y s 989 323 m -29 Y s 1085 323 m -29 Y
 s 1182 323 m -29 Y s 1279 323 m -29 Y s 1376 352 m -58 Y s 1473 323 m -29 Y s 1569 323 m -29 Y s 1666 323 m -29 Y s 1763 323 m -29 Y s 1860 352 m -58 Y s
 gsave  1814 734 227 0 C 391.904 247.318 t 0 r /Helvetica findfont 53.2685 sf 0 0 m (0) show NC gr 
 gsave  1814 734 227 0 C 875.125 247.318 t 0 r /Helvetica findfont 53.2685 sf 0 0 m (5) show NC gr 
 gsave  1814 734 227 0 C 1343.13 247.318 t 0 r /Helvetica findfont 53.2685 sf 0 0 m (10) show NC gr 
 gsave  1814 734 227 0 C 1826.35 247.318 t 0 r /Helvetica findfont 53.2685 sf 0 0 m (15) show NC gr  408 734 m 1452 X s 408 676 m 58 Y s 505 705 m 29 Y s 602 705 m 29 Y s 698 705 m 29 Y s 795 705 m 29 Y s 892 676 m 58 Y s 989 705 m 29 Y s 1085 705 m
 29 Y s 1182 705 m 29 Y s 1279 705 m 29 Y s 1376 676 m 58 Y s 1473 705 m 29 Y s 1569 705 m 29 Y s 1666 705 m 29 Y s 1763 705 m 29 Y s 1860 676 m 58 Y s 408 294 m 440 Y s
 gsave  1814 734 227 0 C 315.806 422.343 t 90 r /Helvetica findfont 53.2685 sf 0 0 m (data/PYTHIA) show NC gr  441 294 m -33 X s 425 316 m -17 X s 425 338 m -17 X s 425 360 m -17 X s 441 382 m -33 X s 425 404 m -17 X s 425 426 m -17 X s 425 448 m -17
 X s 441 470 m -33 X s 425 492 m -17 X s 425 514 m -17 X s 425 536 m -17 X s 441 558 m -33 X s 425 580 m -17 X s 425 602 m -17 X s 425 624 m -17 X s 441 646 m -33 X s 425 668 m -17 X s 425 690 m -17 X s 425 712 m -17 X s 441 734 m -33 X s
 gsave  1814 734 227 0 C 365.27 277.757 t 0 r /Helvetica findfont 53.2685 sf 0 0 m (0) show NC gr 
 gsave  1814 734 227 0 C 323.416 365.27 t 0 r /Helvetica findfont 53.2685 sf 0 0 m (0.4) show NC gr 
 gsave  1814 734 227 0 C 323.416 452.782 t 0 r /Helvetica findfont 53.2685 sf 0 0 m (0.8) show NC gr 
 gsave  1814 734 227 0 C 323.416 536.49 t 0 r /Helvetica findfont 53.2685 sf 0 0 m (1.2) show NC gr 
 gsave  1814 734 227 0 C 323.416 627.807 t 0 r /Helvetica findfont 53.2685 sf 0 0 m (1.6) show NC gr 
 gsave  1814 734 227 0 C 365.27 711.515 t 0 r /Helvetica findfont 53.2685 sf 0 0 m (2) show NC gr  1860 294 m 440 Y s 1827 294 m 33 X s 1843 316 m 17 X s 1843 338 m 17 X s 1843 360 m 17 X s 1827 382 m 33 X s 1843 404 m 17 X s 1843 426 m 17 X s 1843
 448 m 17 X s 1827 470 m 33 X s 1843 492 m 17 X s 1843 514 m 17 X s 1843 536 m 17 X s 1827 558 m 33 X s 1843 580 m 17 X s 1843 602 m 17 X s 1843 624 m 17 X s 1827 646 m 33 X s 1843 668 m 17 X s 1843 690 m 17 X s 1843 712 m 17 X s 1827 734 m 33 X s
 800 503 m -5 X s 795 496 m 15 Y s 831 503 m 13 X s 844 496 m 15 Y s 850 515 m -6 X s 844 507 m 16 Y s 880 515 m 12 X s 892 507 m 16 Y s 898 516 m -6 X s 892 508 m 15 Y s 928 516 m 12 X s 940 508 m 15 Y s 946 529 m -6 X s 940 521 m 15 Y s 977 529 m
 12 X s 989 521 m 15 Y s 995 532 m -6 X s 989 525 m 15 Y s 1025 532 m 12 X s 1037 525 m 15 Y s 1044 551 m -7 X s 1037 543 m 15 Y s 1075 551 m 10 X s 1085 543 m 15 Y s 1110 552 m -25 X s 1085 544 m 16 Y s 1140 552 m 42 X s 1182 544 m 16 Y s 1236 545 m
 -54 X s 1182 537 m 15 Y s 1266 545 m 110 X s 1376 537 m 15 Y s 1438 657 m -62 X s 1376 649 m 15 Y s 1468 657 m 101 X s 1569 649 m 15 Y s /w 30 def /w2 {w 2 div} def /w3 {w 3 div} def 709 491 733 499 757 500 783 514 816 503 865 515 913 516 962 529
 1010 532 1059 551 1125 552 1251 545 1453 657 13 { m25} R
 gr  gr showpage
end
%%EOF
