%!PS-Adobe-2.0 EPSF-2.0
%%BoundingBox:  0 0 567 678
%%Title: obr/pions_data_pythia_6428_spin_tune_mb.eps: PYTHIA/DATA pion spectra
%%Creator: ROOT Version 5.34/38
%%CreationDate: Thu May 28 15:19:03 2020
%%EndComments
%%BeginProlog
80 dict begin
/s {stroke} def /l {lineto} def /m {moveto} def /t {translate} def
/r {rotate} def /rl {roll}  def /R {repeat} def
/d {rlineto} def /rm {rmoveto} def /gr {grestore} def /f {eofill} def
/c {setrgbcolor} def /black {0 setgray} def /sd {setdash} def
/cl {closepath} def /sf {scalefont setfont} def /lw {setlinewidth} def
/box {m dup 0 exch d exch 0 d 0 exch neg d cl} def
/NC{systemdict begin initclip end}def/C{NC box clip newpath}def
/bl {box s} def /bf {gsave box gsave f grestore 1 lw [] 0 sd s grestore} def /Y { 0 exch d} def /X { 0 d} def 
/K {{pop pop 0 moveto} exch kshow} bind def
/ita {/ang 15 def gsave [1 0 ang dup sin exch cos div 1 0 0] concat} def 
/mp {newpath /y exch def /x exch def} def
/side {[w .77 mul w .23 mul] .385 w mul sd w 0 l currentpoint t -144 r} def
/mr {mp x y w2 0 360 arc} def /m24 {mr s} def /m20 {mr f} def
/mb {mp x y w2 add m w2 neg 0 d 0 w neg d w 0 d 0 w d cl} def
/mt {mp x y w2 add m w2 neg w neg d w 0 d cl} def
/m21 {mb f} def /m25 {mb s} def /m22 {mt f} def /m26{mt s} def
/m23 {mp x y w2 sub m w2 w d w neg 0 d cl f} def
/m27 {mp x y w2 add m w3 neg w2 neg d w3 w2 neg d w3 w2 d cl s} def
/m28 {mp x w2 sub y w2 sub w3 add m w3 0 d  0 w3 neg d w3 0 d 0 w3 d w3 0 d  0 w3 d w3 neg 0 d 0 w3 d w3 neg 0 d 0 w3 neg d w3 neg 0 d cl s } def
/m29 {mp gsave x w2 sub y w2 add w3 sub m currentpoint t 4 {side} repeat cl fill gr} def
/m30 {mp gsave x w2 sub y w2 add w3 sub m currentpoint t 4 {side} repeat cl s gr} def
/m31 {mp x y w2 sub m 0 w d x w2 sub y m w 0 d x w2 sub y w2 add m w w neg d x w2 sub y w2 sub m w w d s} def
/m32 {mp x y w2 sub m w2 w d w neg 0 d cl s} def
/m33 {mp x y w2 add m w3 neg w2 neg d w3 w2 neg d w3 w2 d cl f} def
/m34 {mp x w2 sub y w2 sub w3 add m w3 0 d  0 w3 neg d w3 0 d 0 w3 d w3 0 d  0 w3 d w3 neg 0 d 0 w3 d w3 neg 0 d 0 w3 neg d w3 neg 0 d cl f } def
/m2 {mp x y w2 sub m 0 w d x w2 sub y m w 0 d s} def
/m5 {mp x w2 sub y w2 sub m w w d x w2 sub y w2 add m w w neg d s} def
/reEncode {exch findfont dup length dict begin {1 index /FID eq  {pop pop} {def} ifelse } forall /Encoding exch def currentdict end dup /FontName get exch definefont pop } def [/Times-Bold /Times-Italic /Times-BoldItalic /Helvetica /Helvetica-Oblique
 /Helvetica-Bold /Helvetica-BoldOblique /Courier /Courier-Oblique /Courier-Bold /Courier-BoldOblique /Times-Roman /AvantGarde-Book /AvantGarde-BookOblique /AvantGarde-Demi /AvantGarde-DemiOblique /Bookman-Demi /Bookman-DemiItalic /Bookman-Light
 /Bookman-LightItalic /Helvetica-Narrow /Helvetica-Narrow-Bold /Helvetica-Narrow-BoldOblique /Helvetica-Narrow-Oblique /NewCenturySchlbk-Roman /NewCenturySchlbk-Bold /NewCenturySchlbk-BoldItalic /NewCenturySchlbk-Italic /Palatino-Bold
 /Palatino-BoldItalic /Palatino-Italic /Palatino-Roman ] {ISOLatin1Encoding reEncode } forall
%%EndProlog
%%BeginSetup
%%EndSetup
newpath  gsave  .25 .25 scale  gsave  0 0 t black[  ] 0 sd 3 lw 1 1 1 c 2268 2710 0 0 bf black 1 1 1 c 1996 2032 45 678 bf black 1 1 1 c 1596 1829 345 678 bf black 1596 1829 345 678 bl 1 1 1 c 1 0 0 c black 345 2445 m 19 X s 378 2445 m 20 X s 1 0 0 c
 /w 20 def /w2 {w 2 div} def /w3 {w 3 div} def 371 2445 m26 black 398 2307 m 19 X s 432 2307 m 19 X s 1 0 0 c 425 2307 m26 black 451 2143 m 20 X s 485 2143 m 19 X s 1 0 0 c 478 2143 m26 black 504 2006 m 20 X s 538 2006 m 20 X s 1 0 0 c 531 2006 m26
 black 558 1892 m 19 X s 591 1892 m 20 X s 1 0 0 c 584 1892 m26 black 611 1793 m 19 X s 644 1793 m 20 X s 1 0 0 c 637 1793 m26 black 664 1705 m 20 X s 698 1705 m 19 X s 1 0 0 c 691 1705 m26 black 717 1628 m 20 X s 751 1628 m 19 X s 1 0 0 c 744 1628
 m26 black 770 1561 m 20 X s 804 1561 m 20 X s 1 0 0 c 797 1561 m26 black 824 1498 m 19 X s 857 1498 m 20 X s 1 0 0 c 850 1498 m26 black 877 1445 m 19 X s 910 1445 m 20 X s 1 0 0 c 903 1445 m26 black 930 1394 m 20 X s 964 1394 m 19 X s 1 0 0 c 957
 1394 m26 black 983 1346 m 20 X s 1017 1346 m 19 X s 1 0 0 c 1010 1346 m26 black 1036 1308 m 20 X s 1070 1308 m 20 X s 1 0 0 c 1063 1308 m26 black 1090 1272 m 19 X s 1123 1272 m 20 X s 1 0 0 c 1116 1272 m26 black 1143 1233 m 20 X s 1177 1233 m 19 X s
 1 0 0 c 1170 1233 m26 black 1196 1201 m 20 X s 1230 1201 m 19 X s 1 0 0 c 1223 1201 m26 black 1276 1158 m 1 Y s 1276 1173 m s 1249 1166 m 20 X s 1283 1166 m 20 X s 1 0 0 c 1276 1166 m26 black 1329 1135 m 3 Y s 1329 1152 m 1 Y s 1303 1145 m 19 X s
 1336 1145 m 20 X s 1 0 0 c 1329 1145 m26 black 1382 1103 m 5 Y s 1382 1122 m 3 Y s 1356 1115 m 19 X s 1389 1115 m 20 X s 1 0 0 c 1382 1115 m26 black 1436 1057 m 8 Y s 1436 1079 m 6 Y s 1409 1072 m 20 X s 1443 1072 m 19 X s 1 0 0 c 1436 1072 m26
 black 1489 1043 m 10 Y s 1489 1067 m 7 Y s 1462 1060 m 20 X s 1496 1060 m 19 X s 1 0 0 c 1489 1060 m26 black 1542 984 m 18 Y s 1542 1016 m 12 Y s 1515 1009 m 20 X s 1549 1009 m 20 X s 1 0 0 c 1542 1009 m26 black 1595 1002 m 15 Y s 1595 1031 m 10 Y s
 1569 1024 m 19 X s 1602 1024 m 20 X s 1 0 0 c 1595 1024 m26 black 1648 969 m 21 Y s 1648 1004 m 12 Y s 1622 997 m 19 X s 1655 997 m 20 X s 1 0 0 c 1648 997 m26 black 1702 892 m 40 Y s 1702 946 m 21 Y s 1675 939 m 20 X s 1709 939 m 19 X s 1 0 0 c
 1702 939 m26 black 1755 806 m 76 Y s 1755 896 m 29 Y s 1728 889 m 20 X s 1762 889 m 20 X s 1 0 0 c 1755 889 m26 black 1808 803 m 76 Y s 1808 893 m 30 Y s 1782 886 m 19 X s 1815 886 m 20 X s 1 0 0 c 1808 886 m26 black 1861 801 m 76 Y s 1861 891 m 30
 Y s 1835 884 m 19 X s 1868 884 m 20 X s 1 0 0 c 1861 884 m26 black 1915 904 m 33 Y s 1915 951 m 18 Y s 1888 944 m 20 X s 1922 944 m 19 X s 1 0 0 c 1915 944 m26 black 345 678 m 1596 X s 345 726 m -48 Y s 451 702 m -24 Y s 558 702 m -24 Y s 664 702 m
 -24 Y s 770 702 m -24 Y s 877 726 m -48 Y s 983 702 m -24 Y s 1090 702 m -24 Y s 1196 702 m -24 Y s 1303 702 m -24 Y s 1409 726 m -48 Y s 1515 702 m -24 Y s 1622 702 m -24 Y s 1728 702 m -24 Y s 1835 702 m -24 Y s 1941 726 m -48 Y s
 gsave  1996 2032 45 678 C 322.957 603.788 t 0 r /Helvetica-Bold findfont 73.7806 sf 0 0 m (0) show NC gr 
 gsave  1996 2032 45 678 C 853.026 603.788 t 0 r /Helvetica-Bold findfont 73.7806 sf 0 0 m (5) show NC gr 
 gsave  1996 2032 45 678 C 1365.54 603.788 t 0 r /Helvetica-Bold findfont 73.7806 sf 0 0 m (10) show NC gr 
 gsave  1996 2032 45 678 C 1895.61 603.788 t 0 r /Helvetica-Bold findfont 73.7806 sf 0 0 m (15) show NC gr  345 2507 m 1596 X s 345 2458 m 49 Y s 451 2482 m 25 Y s 558 2482 m 25 Y s 664 2482 m 25 Y s 770 2482 m 25 Y s 877 2458 m 49 Y s 983 2482 m 25
 Y s 1090 2482 m 25 Y s 1196 2482 m 25 Y s 1303 2482 m 25 Y s 1409 2458 m 49 Y s 1515 2482 m 25 Y s 1622 2482 m 25 Y s 1728 2482 m 25 Y s 1835 2482 m 25 Y s 1941 2458 m 49 Y s 345 678 m 1829 Y s
 gsave  1996 2032 45 678 C 172.009 2488.87 t 90 r /Helvetica findfont 73.7806 sf 0 0 m (\)) show NC gr 
 gsave  1996 2032 45 678 C 143.926 2460.79 t 90 r /Helvetica findfont 49.1871 sf 0 0 m (3) show NC gr 
 gsave  1996 2032 45 678 C 172.009 2418.66 t 90 r /Helvetica-Oblique findfont 73.7806 sf 0 0 m (c) show NC gr 
 gsave  1996 2032 45 678 C 136.905 2376.54 t 90 r /Helvetica findfont 49.1871 sf 0 0 m (\2552) show NC gr 
 gsave  1996 2032 45 678 C 172.009 2060.6 t 90 r /Helvetica findfont 73.7806 sf 0 0 m ( \(mb GeV) show NC gr 
 gsave  1996 2032 45 678 C 133.395 2032.52 t 90 r /Helvetica findfont 49.1871 sf 0 0 m (3) show NC gr 
 gsave  1996 2032 45 678 C 172.009 1986.88 t 90 r /Helvetica-Oblique findfont 73.7806 sf 0 0 m (p) show NC gr 
 gsave  1996 2032 45 678 C 172.009 1888.59 t 90 r /Helvetica findfont 73.7806 sf 0 0 m ( / d) show NC gr 
 gsave  1996 2032 45 678 C 172.009 1842.96 t 90 r /Symbol findfont 73.7806 sf 0 0 m (s) show NC gr 
 gsave  1996 2032 45 678 C 133.395 1814.88 t 90 r /Helvetica findfont 49.1871 sf 0 0 m (3) show NC gr 
 gsave  1996 2032 45 678 C 172.009 1755.2 t 90 r /Helvetica findfont 73.7806 sf 0 0 m ( d) show NC gr 
 gsave  1996 2032 45 678 C 172.009 1699.03 t 90 r /Helvetica-Oblique findfont 73.7806 sf 0 0 m (E) show NC gr  372 678 m -27 X s 372 705 m -27 X s 372 725 m -27 X s 372 740 m -27 X s 372 752 m -27 X s 372 763 m -27 X s 372 772 m -27 X s 372 780 m -27
 X s 399 787 m -54 X s
 gsave  1996 2032 45 678 C 305.405 793.35 t 0 r /Helvetica findfont 38.647 sf 0 0 m (9) show NC gr 
 gsave  1996 2032 45 678 C 284.342 793.35 t 0 r /Symbol findfont 38.647 sf 0 0 m (-) show NC gr 
 gsave  1996 2032 45 678 C 217.645 761.756 t 0 r /Helvetica findfont 59.7272 sf 0 0 m (10) show NC gr  372 834 m -27 X s 372 861 m -27 X s 372 881 m -27 X s 372 896 m -27 X s 372 908 m -27 X s 372 919 m -27 X s 372 928 m -27 X s 372 936 m -27 X s 399
 943 m -54 X s
 gsave  1996 2032 45 678 C 305.405 947.807 t 0 r /Helvetica findfont 38.647 sf 0 0 m (8) show NC gr 
 gsave  1996 2032 45 678 C 284.342 947.807 t 0 r /Symbol findfont 38.647 sf 0 0 m (-) show NC gr 
 gsave  1996 2032 45 678 C 217.645 916.214 t 0 r /Helvetica findfont 59.7272 sf 0 0 m (10) show NC gr  372 990 m -27 X s 372 1018 m -27 X s 372 1037 m -27 X s 372 1052 m -27 X s 372 1065 m -27 X s 372 1075 m -27 X s 372 1084 m -27 X s 372 1092 m -27
 X s 399 1100 m -54 X s
 gsave  1996 2032 45 678 C 305.405 1102.26 t 0 r /Helvetica findfont 38.647 sf 0 0 m (7) show NC gr 
 gsave  1996 2032 45 678 C 284.342 1102.26 t 0 r /Symbol findfont 38.647 sf 0 0 m (-) show NC gr 
 gsave  1996 2032 45 678 C 217.645 1074.18 t 0 r /Helvetica findfont 59.7272 sf 0 0 m (10) show NC gr  372 1147 m -27 X s 372 1174 m -27 X s 372 1194 m -27 X s 372 1209 m -27 X s 372 1221 m -27 X s 372 1232 m -27 X s 372 1241 m -27 X s 372 1249 m -27
 X s 399 1256 m -54 X s
 gsave  1996 2032 45 678 C 305.405 1260.23 t 0 r /Helvetica findfont 38.647 sf 0 0 m (6) show NC gr 
 gsave  1996 2032 45 678 C 284.342 1260.23 t 0 r /Symbol findfont 38.647 sf 0 0 m (-) show NC gr 
 gsave  1996 2032 45 678 C 217.645 1228.64 t 0 r /Helvetica findfont 59.7272 sf 0 0 m (10) show NC gr  372 1303 m -27 X s 372 1330 m -27 X s 372 1350 m -27 X s 372 1365 m -27 X s 372 1378 m -27 X s 372 1388 m -27 X s 372 1397 m -27 X s 372 1405 m -27
 X s 399 1412 m -54 X s
 gsave  1996 2032 45 678 C 305.405 1418.2 t 0 r /Helvetica findfont 38.647 sf 0 0 m (5) show NC gr 
 gsave  1996 2032 45 678 C 284.342 1418.2 t 0 r /Symbol findfont 38.647 sf 0 0 m (-) show NC gr 
 gsave  1996 2032 45 678 C 217.645 1386.61 t 0 r /Helvetica findfont 59.7272 sf 0 0 m (10) show NC gr  372 1459 m -27 X s 372 1487 m -27 X s 372 1506 m -27 X s 372 1522 m -27 X s 372 1534 m -27 X s 372 1544 m -27 X s 372 1553 m -27 X s 372 1561 m -27
 X s 399 1569 m -54 X s
 gsave  1996 2032 45 678 C 305.405 1569.15 t 0 r /Helvetica findfont 38.647 sf 0 0 m (4) show NC gr 
 gsave  1996 2032 45 678 C 284.342 1569.15 t 0 r /Symbol findfont 38.647 sf 0 0 m (-) show NC gr 
 gsave  1996 2032 45 678 C 217.645 1541.06 t 0 r /Helvetica findfont 59.7272 sf 0 0 m (10) show NC gr  372 1616 m -27 X s 372 1643 m -27 X s 372 1663 m -27 X s 372 1678 m -27 X s 372 1690 m -27 X s 372 1701 m -27 X s 372 1710 m -27 X s 372 1718 m -27
 X s 399 1725 m -54 X s
 gsave  1996 2032 45 678 C 305.405 1730.63 t 0 r /Helvetica findfont 38.647 sf 0 0 m (3) show NC gr 
 gsave  1996 2032 45 678 C 284.342 1730.63 t 0 r /Symbol findfont 38.647 sf 0 0 m (-) show NC gr 
 gsave  1996 2032 45 678 C 217.645 1699.03 t 0 r /Helvetica findfont 59.7272 sf 0 0 m (10) show NC gr  372 1772 m -27 X s 372 1800 m -27 X s 372 1819 m -27 X s 372 1834 m -27 X s 372 1847 m -27 X s 372 1857 m -27 X s 372 1866 m -27 X s 372 1874 m -27
 X s 399 1881 m -54 X s
 gsave  1996 2032 45 678 C 305.405 1881.57 t 0 r /Helvetica findfont 38.647 sf 0 0 m (2) show NC gr 
 gsave  1996 2032 45 678 C 284.342 1881.57 t 0 r /Symbol findfont 38.647 sf 0 0 m (-) show NC gr 
 gsave  1996 2032 45 678 C 217.645 1853.49 t 0 r /Helvetica findfont 59.7272 sf 0 0 m (10) show NC gr  372 1928 m -27 X s 372 1956 m -27 X s 372 1975 m -27 X s 372 1991 m -27 X s 372 2003 m -27 X s 372 2013 m -27 X s 372 2023 m -27 X s 372 2031 m -27
 X s 399 2038 m -54 X s
 gsave  1996 2032 45 678 C 312.425 2039.54 t 0 r /Helvetica findfont 38.647 sf 0 0 m (1) show NC gr 
 gsave  1996 2032 45 678 C 291.363 2039.54 t 0 r /Symbol findfont 38.647 sf 0 0 m (-) show NC gr 
 gsave  1996 2032 45 678 C 224.665 2011.46 t 0 r /Helvetica findfont 59.7272 sf 0 0 m (10) show NC gr  372 2085 m -27 X s 372 2112 m -27 X s 372 2132 m -27 X s 372 2147 m -27 X s 372 2159 m -27 X s 372 2170 m -27 X s 372 2179 m -27 X s 372 2187 m -27
 X s 399 2194 m -54 X s
 gsave  1996 2032 45 678 C 329.752 2170.18 t 0 r  -32 0 t /Helvetica findfont 59.7272 sf 0 0 m (1) show NC gr  372 2241 m -27 X s 372 2269 m -27 X s 372 2288 m -27 X s 372 2303 m -27 X s 372 2316 m -27 X s 372 2326 m -27 X s 372 2335 m -27 X s 372
 2343 m -27 X s 399 2350 m -54 X s
 gsave  1996 2032 45 678 C 329.752 2326.54 t 0 r  -65 0 t /Helvetica findfont 59.7272 sf 0 0 m (10) show NC gr  372 2397 m -27 X s 372 2425 m -27 X s 372 2445 m -27 X s 372 2460 m -27 X s 372 2472 m -27 X s 372 2483 m -27 X s 372 2492 m -27 X s 372
 2500 m -27 X s 399 2507 m -54 X s
 gsave  1996 2032 45 678 C 305.405 2509.93 t 0 r /Helvetica findfont 38.647 sf 0 0 m (2) show NC gr 
 gsave  1996 2032 45 678 C 238.707 2481.85 t 0 r /Helvetica findfont 59.7272 sf 0 0 m (10) show NC gr  1941 678 m 1829 Y s 1914 678 m 27 X s 1914 705 m 27 X s 1914 725 m 27 X s 1914 740 m 27 X s 1914 752 m 27 X s 1914 763 m 27 X s 1914 772 m 27 X s
 1914 780 m 27 X s 1887 787 m 54 X s 1914 834 m 27 X s 1914 861 m 27 X s 1914 881 m 27 X s 1914 896 m 27 X s 1914 908 m 27 X s 1914 919 m 27 X s 1914 928 m 27 X s 1914 936 m 27 X s 1887 943 m 54 X s 1914 990 m 27 X s 1914 1018 m 27 X s 1914 1037 m 27
 X s 1914 1052 m 27 X s 1914 1065 m 27 X s 1914 1075 m 27 X s 1914 1084 m 27 X s 1914 1092 m 27 X s 1887 1100 m 54 X s 1914 1147 m 27 X s 1914 1174 m 27 X s 1914 1194 m 27 X s 1914 1209 m 27 X s 1914 1221 m 27 X s 1914 1232 m 27 X s 1914 1241 m 27 X
 s 1914 1249 m 27 X s 1887 1256 m 54 X s 1914 1303 m 27 X s 1914 1330 m 27 X s 1914 1350 m 27 X s 1914 1365 m 27 X s 1914 1378 m 27 X s 1914 1388 m 27 X s 1914 1397 m 27 X s 1914 1405 m 27 X s 1887 1412 m 54 X s 1914 1459 m 27 X s 1914 1487 m 27 X s
 1914 1506 m 27 X s 1914 1522 m 27 X s 1914 1534 m 27 X s 1914 1544 m 27 X s 1914 1553 m 27 X s 1914 1561 m 27 X s 1887 1569 m 54 X s 1914 1616 m 27 X s 1914 1643 m 27 X s 1914 1663 m 27 X s 1914 1678 m 27 X s 1914 1690 m 27 X s 1914 1701 m 27 X s
 1914 1710 m 27 X s 1914 1718 m 27 X s 1887 1725 m 54 X s 1914 1772 m 27 X s 1914 1800 m 27 X s 1914 1819 m 27 X s 1914 1834 m 27 X s 1914 1847 m 27 X s 1914 1857 m 27 X s 1914 1866 m 27 X s 1914 1874 m 27 X s 1887 1881 m 54 X s 1914 1928 m 27 X s
 1914 1956 m 27 X s 1914 1975 m 27 X s 1914 1991 m 27 X s 1914 2003 m 27 X s 1914 2013 m 27 X s 1914 2023 m 27 X s 1914 2031 m 27 X s 1887 2038 m 54 X s 1914 2085 m 27 X s 1914 2112 m 27 X s 1914 2132 m 27 X s 1914 2147 m 27 X s 1914 2159 m 27 X s
 1914 2170 m 27 X s 1914 2179 m 27 X s 1914 2187 m 27 X s 1887 2194 m 54 X s 1914 2241 m 27 X s 1914 2269 m 27 X s 1914 2288 m 27 X s 1914 2303 m 27 X s 1914 2316 m 27 X s 1914 2326 m 27 X s 1914 2335 m 27 X s 1914 2343 m 27 X s 1887 2350 m 54 X s
 1914 2397 m 27 X s 1914 2425 m 27 X s 1914 2445 m 27 X s 1914 2460 m 27 X s 1914 2472 m 27 X s 1914 2483 m 27 X s 1914 2492 m 27 X s 1914 2500 m 27 X s 1887 2507 m 54 X s 470 2127 m -19 X s 451 2120 m 14 Y s 479 2127 m 25 X s 504 2120 m 14 Y s 524
 2004 m -20 X s 504 1997 m 14 Y s 532 2004 m 26 X s 558 1997 m 14 Y s 577 1895 m -19 X s 558 1888 m 14 Y s 585 1895 m 26 X s 611 1888 m 14 Y s 631 1806 m -20 X s 611 1799 m 14 Y s 639 1806 m 25 X s 664 1799 m 14 Y s 684 1725 m -20 X s 664 1718 m 14 Y
 s 693 1725 m 24 X s 717 1718 m 14 Y s 737 1652 m -20 X s 717 1644 m 15 Y s 746 1652 m 24 X s 770 1644 m 15 Y s 742 1644 m s 735 1644 m 14 X s 791 1580 m -21 X s 770 1573 m 14 Y s 799 1580 m 25 X s 824 1573 m 14 Y s 844 1518 m -20 X s 824 1511 m 14 Y
 s 852 1518 m 25 X s 877 1511 m 14 Y s 897 1466 m -20 X s 877 1459 m 14 Y s 906 1466 m 24 X s 930 1459 m 14 Y s 901 1459 m s 894 1459 m 14 X s 951 1419 m -21 X s 930 1412 m 14 Y s 960 1419 m 23 X s 983 1412 m 14 Y s 956 1412 m s 949 1412 m 14 X s
 1005 1365 m -22 X s 983 1358 m 14 Y s 1013 1365 m 23 X s 1036 1358 m 14 Y s 1009 1372 m 1 Y s 1002 1373 m 14 X s 1009 1358 m -1 Y s 1002 1357 m 14 X s 1058 1330 m -22 X s 1036 1323 m 15 Y s 1066 1330 m 24 X s 1090 1323 m 15 Y s 1062 1338 m s 1055
 1338 m 14 X s 1062 1323 m -2 Y s 1055 1321 m 14 X s 1133 1261 m -43 X s 1090 1254 m 14 Y s 1142 1261 m 54 X s 1196 1254 m 14 Y s 1138 1268 m 2 Y s 1131 1270 m 14 X s 1138 1254 m -3 Y s 1131 1251 m 14 X s 1241 1207 m -45 X s 1196 1200 m 14 Y s 1249
 1207 m 54 X s 1303 1200 m 14 Y s 1245 1214 m 3 Y s 1238 1217 m 14 X s 1245 1200 m -5 Y s 1238 1195 m 14 X s 1347 1133 m -44 X s 1303 1126 m 14 Y s 1356 1133 m 53 X s 1409 1126 m 14 Y s 1352 1140 m 7 Y s 1345 1147 m 14 X s 1352 1126 m -10 Y s 1345
 1116 m 14 X s 1496 1053 m -87 X s 1409 1046 m 14 Y s 1505 1053 m 117 X s 1622 1046 m 14 Y s 1501 1060 m 9 Y s 1494 1069 m 14 X s 1501 1046 m -12 Y s 1494 1034 m 14 X s 1751 942 m -129 X s 1622 934 m 15 Y s 1759 942 m 182 X s 1941 934 m 15 Y s 1755
 949 m 17 Y s 1748 966 m 14 X s 1755 934 m -32 Y s 1748 902 m 14 X s 1 0 0 c 475 2127 528 2004 581 1895 635 1806 688 1725 742 1652 795 1580 848 1518 901 1466 956 1419 1009 1365 1062 1330 1138 1261 1245 1207 1352 1133 1501 1053 1755 942 17 { m22} R
 black 1 1 1 c 0 0 1 c black 345 2444 m 19 X s 378 2444 m 20 X s 0 0 1 c 371 2444 m24 black 398 2306 m 19 X s 432 2306 m 19 X s 0 0 1 c 425 2306 m24 black 451 2142 m 20 X s 485 2142 m 19 X s 0 0 1 c 478 2142 m24 black 504 2006 m 20 X s 538 2006 m 20
 X s 0 0 1 c 531 2006 m24 black 558 1893 m 19 X s 591 1893 m 20 X s 0 0 1 c 584 1893 m24 black 611 1794 m 19 X s 644 1794 m 20 X s 0 0 1 c 637 1794 m24 black 664 1708 m 20 X s 698 1708 m 19 X s 0 0 1 c 691 1708 m24 black 717 1632 m 20 X s 751 1632 m
 19 X s 0 0 1 c 744 1632 m24 black 770 1564 m 20 X s 804 1564 m 20 X s 0 0 1 c 797 1564 m24 black 824 1504 m 19 X s 857 1504 m 20 X s 0 0 1 c 850 1504 m24 black 877 1448 m 19 X s 910 1448 m 20 X s 0 0 1 c 903 1448 m24 black 930 1398 m 20 X s 964 1398
 m 19 X s 0 0 1 c 957 1398 m24 black 983 1356 m 20 X s 1017 1356 m 19 X s 0 0 1 c 1010 1356 m24 black 1036 1310 m 20 X s 1070 1310 m 20 X s 0 0 1 c 1063 1310 m24 black 1090 1279 m 19 X s 1123 1279 m 20 X s 0 0 1 c 1116 1279 m24 black 1143 1234 m 20 X
 s 1177 1234 m 19 X s 0 0 1 c 1170 1234 m24 black 1196 1210 m 20 X s 1230 1210 m 19 X s 0 0 1 c 1223 1210 m24 black 1276 1174 m 1 Y s 1249 1182 m 20 X s 1283 1182 m 20 X s 0 0 1 c 1276 1182 m24 black 1329 1127 m 3 Y s 1329 1144 m 2 Y s 1303 1137 m 19
 X s 1336 1137 m 20 X s 0 0 1 c 1329 1137 m24 black 1382 1104 m 4 Y s 1382 1122 m 3 Y s 1356 1115 m 19 X s 1389 1115 m 20 X s 0 0 1 c 1382 1115 m24 black 1436 1086 m 6 Y s 1436 1106 m 4 Y s 1409 1099 m 20 X s 1443 1099 m 19 X s 0 0 1 c 1436 1099 m24
 black 1489 1071 m 7 Y s 1489 1092 m 5 Y s 1462 1085 m 20 X s 1496 1085 m 19 X s 0 0 1 c 1489 1085 m24 black 1542 1017 m 13 Y s 1542 1044 m 9 Y s 1515 1037 m 20 X s 1549 1037 m 20 X s 0 0 1 c 1542 1037 m24 black 1595 962 m 23 Y s 1595 999 m 13 Y s
 1569 992 m 19 X s 1602 992 m 20 X s 0 0 1 c 1595 992 m24 black 1648 959 m 22 Y s 1648 996 m 13 Y s 1622 988 m 19 X s 1655 988 m 20 X s 0 0 1 c 1648 988 m24 black 1702 861 m 52 Y s 1702 927 m 24 Y s 1675 920 m 20 X s 1709 920 m 19 X s 0 0 1 c 1702
 920 m24 black 1755 805 m 77 Y s 1755 896 m 29 Y s 1728 889 m 20 X s 1762 889 m 20 X s 0 0 1 c 1755 889 m24 black 1808 678 m 156 Y s 1808 848 m 40 Y s 1782 841 m 19 X s 1815 841 m 20 X s 0 0 1 c 1808 841 m24 black 1861 884 m 40 Y s 1861 938 m 21 Y s
 1835 931 m 19 X s 1868 931 m 20 X s 0 0 1 c 1861 931 m24 black 1915 850 m 51 Y s 1915 915 m 24 Y s 1888 908 m 20 X s 1922 908 m 19 X s 0 0 1 c 1915 908 m24 black 669 1729 m -5 X s 664 1722 m 14 Y s 683 1729 m 8 X s 691 1722 m 14 Y s 695 1691 m -4 X
 s 691 1684 m 14 Y s 709 1691 m 8 X s 717 1684 m 14 Y s 722 1656 m -5 X s 717 1649 m 14 Y s 736 1656 m 8 X s 744 1649 m 14 Y s 750 1621 m -6 X s 744 1614 m 14 Y s 764 1621 m 6 X s 770 1614 m 14 Y s 786 1574 m -16 X s 770 1567 m 14 Y s 800 1574 m 24 X
 s 824 1567 m 14 Y s 840 1515 m -16 X s 824 1508 m 14 Y s 854 1515 m 23 X s 877 1508 m 14 Y s 893 1461 m -16 X s 877 1454 m 14 Y s 907 1461 m 23 X s 930 1454 m 14 Y s 946 1411 m -16 X s 930 1404 m 14 Y s 961 1411 m 22 X s 983 1404 m 14 Y s 1000 1364
 m -17 X s 983 1357 m 14 Y s 1014 1364 m 22 X s 1036 1357 m 14 Y s 1054 1323 m -18 X s 1036 1316 m 15 Y s 1068 1323 m 22 X s 1090 1316 m 15 Y s 1126 1268 m -36 X s 1090 1261 m 14 Y s 1140 1268 m 56 X s 1196 1261 m 14 Y s 1265 1172 m -69 X s 1196 1165
 m 14 Y s 1279 1172 m 130 X s 1409 1165 m 14 Y s 1487 1062 m -78 X s 1409 1055 m 14 Y s 1501 1062 m 121 X s 1622 1055 m 14 Y s 1732 961 m -110 X s 1622 954 m 14 Y s 1746 961 m 195 X s 1941 954 m 14 Y s 0 0 1 c 676 1729 702 1691 729 1656 757 1621 793
 1574 847 1515 900 1461 953 1411 1007 1364 1061 1323 1133 1268 1272 1172 1494 1062 1739 961 14 { m20} R black 1 1 1 c black 345 2444 m 19 X s 378 2444 m 20 X s 371 2444 m25 398 2306 m 19 X s 432 2306 m 19 X s 425 2306 m25 451 2141 m 20 X s 485 2141 m
 19 X s 478 2141 m25 504 2005 m 20 X s 538 2005 m 20 X s 531 2005 m25 558 1890 m 19 X s 591 1890 m 20 X s 584 1890 m25 611 1791 m 19 X s 644 1791 m 20 X s 637 1791 m25 664 1704 m 20 X s 698 1704 m 19 X s 691 1704 m25 717 1627 m 20 X s 751 1627 m 19 X
 s 744 1627 m25 770 1558 m 20 X s 804 1558 m 20 X s 797 1558 m25 824 1497 m 19 X s 857 1497 m 20 X s 850 1497 m25 877 1438 m 19 X s 910 1438 m 20 X s 903 1438 m25 930 1390 m 20 X s 964 1390 m 19 X s 957 1390 m25 983 1342 m 20 X s 1017 1342 m 19 X s
 1010 1342 m25 1036 1303 m 20 X s 1070 1303 m 20 X s 1063 1303 m25 1090 1262 m 19 X s 1123 1262 m 20 X s 1116 1262 m25 1143 1228 m 20 X s 1177 1228 m 19 X s 1170 1228 m25 1196 1200 m 20 X s 1230 1200 m 19 X s 1223 1200 m25 1276 1152 m 1 Y s 1276 1167
 m 1 Y s 1249 1160 m 20 X s 1283 1160 m 20 X s 1276 1160 m25 1329 1114 m 4 Y s 1329 1132 m 2 Y s 1303 1125 m 19 X s 1336 1125 m 20 X s 1329 1125 m25 1382 1066 m 8 Y s 1382 1088 m 6 Y s 1356 1081 m 19 X s 1389 1081 m 20 X s 1382 1081 m25 1436 1063 m 8
 Y s 1436 1085 m 6 Y s 1409 1078 m 20 X s 1443 1078 m 19 X s 1436 1078 m25 1489 1030 m 12 Y s 1489 1056 m 7 Y s 1462 1049 m 20 X s 1496 1049 m 19 X s 1489 1049 m25 1542 984 m 19 Y s 1542 1017 m 12 Y s 1515 1010 m 20 X s 1549 1010 m 20 X s 1542 1010
 m25 1595 972 m 20 Y s 1595 1006 m 13 Y s 1569 999 m 19 X s 1602 999 m 20 X s 1595 999 m25 1648 917 m 33 Y s 1648 964 m 18 Y s 1622 957 m 19 X s 1655 957 m 20 X s 1648 957 m25 1702 808 m 76 Y s 1702 898 m 30 Y s 1675 891 m 20 X s 1709 891 m 19 X s
 1702 891 m25 1755 889 m 40 Y s 1755 943 m 20 Y s 1728 936 m 20 X s 1762 936 m 20 X s 1755 936 m25 1861 678 m 153 Y s 1861 845 m 40 Y s 1835 838 m 19 X s 1868 838 m 20 X s 1861 838 m25 669 1723 m -5 X s 664 1716 m 14 Y s 683 1723 m 8 X s 691 1716 m
 14 Y s 695 1685 m -4 X s 691 1678 m 14 Y s 709 1685 m 8 X s 717 1678 m 14 Y s 722 1648 m -5 X s 717 1641 m 14 Y s 736 1648 m 8 X s 744 1641 m 14 Y s 750 1615 m -6 X s 744 1608 m 14 Y s 764 1615 m 6 X s 770 1608 m 14 Y s 786 1566 m -16 X s 770 1559 m
 14 Y s 800 1566 m 24 X s 824 1559 m 14 Y s 840 1506 m -16 X s 824 1499 m 14 Y s 854 1506 m 23 X s 877 1499 m 14 Y s 893 1449 m -16 X s 877 1442 m 14 Y s 907 1449 m 23 X s 930 1442 m 14 Y s 946 1400 m -16 X s 930 1393 m 14 Y s 961 1400 m 22 X s 983
 1393 m 14 Y s 1000 1352 m -17 X s 983 1345 m 14 Y s 1014 1352 m 22 X s 1036 1345 m 14 Y s 1054 1311 m -18 X s 1036 1304 m 14 Y s 1068 1311 m 22 X s 1090 1304 m 14 Y s 1126 1254 m -36 X s 1090 1247 m 14 Y s 1140 1254 m 56 X s 1196 1247 m 14 Y s 1265
 1154 m -69 X s 1196 1147 m 14 Y s 1279 1154 m 130 X s 1409 1147 m 14 Y s 1487 1047 m -78 X s 1409 1040 m 14 Y s 1501 1047 m 121 X s 1622 1040 m 14 Y s 1732 942 m -110 X s 1622 935 m 14 Y s 1746 942 m 195 X s 1941 935 m 14 Y s 676 1723 702 1685 729
 1648 757 1615 793 1566 847 1506 900 1449 953 1400 1007 1352 1061 1311 1133 1254 1272 1154 1494 1047 1739 942 14 { m21} R 1 1 1 c 1238 305 444 2100 bf black
 gsave  1996 2032 45 678 C 712.611 2351.97 t 0 r /Helvetica findfont 52.7005 sf 0 0 m ( = 200 GeV) show NC gr 
 gsave  1996 2032 45 678 C 688.038 2351.97 t 0 r /Helvetica findfont 52.7005 sf 0 0 m (s) show NC gr  6 lw 670 2384 m 4 -36 d s 0 lw 674 2348 m 7 53 d s 681 2401 m 32 X s
 gsave  1996 2032 45 678 C 551.132 2351.97 t 0 r /Helvetica findfont 52.7005 sf 0 0 m (p+p ) show NC gr 
 gsave  1996 2032 45 678 C 452.841 2351.97 t 0 r /Helvetica-Bold findfont 52.7005 sf 0 0 m (    ) show NC gr 
 gsave  1996 2032 45 678 C 593.257 2274.74 t 0 r /Helvetica findfont 52.7005 sf 0 0 m (:) show NC gr 
 gsave  1996 2032 45 678 C 572.195 2295.8 t 0 r /Helvetica findfont 35.1336 sf 0 0 m (0) show NC gr 
 gsave  1996 2032 45 678 C 544.112 2274.74 t 0 r /Symbol findfont 52.7005 sf 0 0 m (p) show NC gr 
 gsave  1996 2032 45 678 C 891.641 2274.74 t 0 r /Helvetica-Bold findfont 52.7005 sf 0 0 m (  ) show NC gr 
 gsave  1996 2032 45 678 C 702.079 2274.74 t 0 r /Helvetica findfont 52.7005 sf 0 0 m (PYTHIA) show NC gr  1 0 0 c 3 lw 653 2291 m26 0 lw black
 gsave  1996 2032 45 678 C 1021.53 2274.74 t 0 r /Helvetica findfont 52.7005 sf 0 0 m (PHENIX PRL91 \(2003\) 241803) show NC gr  1 0 0 c 3 lw 972 2291 m22 0 lw black
 gsave  1996 2032 45 678 C 593.257 2197.51 t 0 r /Helvetica findfont 52.7005 sf 0 0 m (:) show NC gr 
 gsave  1996 2032 45 678 C 572.195 2218.57 t 0 r /Helvetica findfont 35.1336 sf 0 0 m (+) show NC gr 
 gsave  1996 2032 45 678 C 544.112 2197.51 t 0 r /Symbol findfont 52.7005 sf 0 0 m (p) show NC gr 
 gsave  1996 2032 45 678 C 702.079 2197.51 t 0 r /Helvetica findfont 52.7005 sf 0 0 m (PYTHIA) show NC gr  0 0 1 c 3 lw 653 2215 m24 0 lw black
 gsave  1996 2032 45 678 C 1021.53 2197.51 t 0 r /Helvetica findfont 52.7005 sf 0 0 m (STAR) show NC gr  0 0 1 c 3 lw 972 2215 m20 0 lw black
 gsave  1996 2032 45 678 C 582.726 2123.79 t 0 r /Helvetica findfont 52.7005 sf 0 0 m (:) show NC gr 
 gsave  1996 2032 45 678 C 572.195 2148.36 t 0 r /Helvetica findfont 35.1336 sf 0 0 m (\255) show NC gr 
 gsave  1996 2032 45 678 C 544.112 2123.79 t 0 r /Symbol findfont 52.7005 sf 0 0 m (p) show NC gr 
 gsave  1996 2032 45 678 C 702.079 2123.79 t 0 r /Helvetica findfont 52.7005 sf 0 0 m (PYTHIA) show NC gr  3 lw 653 2138 m25 0 lw
 gsave  1996 2032 45 678 C 1021.53 2123.79 t 0 r /Helvetica findfont 52.7005 sf 0 0 m (STAR) show NC gr  3 lw 972 2138 m21 0 lw
 gsave  1996 2032 45 678 C 1263.74 2162.4 t 0 r /Helvetica findfont 84.3207 sf 0 0 m (}) show NC gr 
 gsave  1996 2032 45 678 C 1298.85 2162.4 t 0 r /Helvetica findfont 52.7005 sf 0 0 m (PRL108 \(2012\) 072302) show NC gr  3 lw 1 1 1 c 1996 678 45 0 bf black 1 1 1 c 1596 407 345 271 bf black 1596 407 345 271 bl 345 271 m 1596 X s
 gsave  1996 678 45 0 C 1916.68 122.864 t 0 r /Helvetica findfont 80.7391 sf 0 0 m (\)) show NC gr 
 gsave  1996 678 45 0 C 1871.04 122.864 t 0 r /Helvetica-Oblique findfont 80.7391 sf 0 0 m (c) show NC gr 
 gsave  1996 678 45 0 C 1635.85 122.864 t 0 r /Helvetica findfont 80.7391 sf 0 0 m ( \(GeV/) show NC gr 
 gsave  1996 678 45 0 C 1600.74 77.2287 t 0 r /Helvetica findfont 56.1664 sf 0 0 m (T) show NC gr 
 gsave  1996 678 45 0 C 1551.6 122.864 t 0 r /Helvetica-Oblique findfont 80.7391 sf 0 0 m (p) show NC gr  345 325 m -54 Y s 451 298 m -27 Y s 558 298 m -27 Y s 664 298 m -27 Y s 770 298 m -27 Y s 877 325 m -54 Y s 983 298 m -27 Y s 1090 298 m -27 Y s
 1196 298 m -27 Y s 1303 298 m -27 Y s 1409 325 m -54 Y s 1515 298 m -27 Y s 1622 298 m -27 Y s 1728 298 m -27 Y s 1835 298 m -27 Y s 1941 325 m -54 Y s
 gsave  1996 678 45 0 C 326.467 217.645 t 0 r /Helvetica findfont 59.6768 sf 0 0 m (0) show NC gr 
 gsave  1996 678 45 0 C 856.537 217.645 t 0 r /Helvetica findfont 59.6768 sf 0 0 m (5) show NC gr 
 gsave  1996 678 45 0 C 1372.57 217.645 t 0 r /Helvetica findfont 59.6768 sf 0 0 m (10) show NC gr 
 gsave  1996 678 45 0 C 1902.64 217.645 t 0 r /Helvetica findfont 59.6768 sf 0 0 m (15) show NC gr  345 678 m 1596 X s 345 623 m 55 Y s 451 650 m 28 Y s 558 650 m 28 Y s 664 650 m 28 Y s 770 650 m 28 Y s 877 623 m 55 Y s 983 650 m 28 Y s 1090 650 m
 28 Y s 1196 650 m 28 Y s 1303 650 m 28 Y s 1409 623 m 55 Y s 1515 650 m 28 Y s 1622 650 m 28 Y s 1728 650 m 28 Y s 1835 650 m 28 Y s 1941 623 m 55 Y s 345 271 m 407 Y s
 gsave  1996 678 45 0 C 172.009 245.728 t 90 r /Helvetica findfont 73.7183 sf 0 0 m (data/PYTHIA) show NC gr  381 460 m -36 X s 363 500 m -18 X s 363 539 m -18 X s 363 579 m -18 X s 363 618 m -18 X s 381 658 m -36 X s 381 460 m -36 X s 363 421 m -18
 X s 363 381 m -18 X s 363 342 m -18 X s 363 302 m -18 X s 381 658 m -36 X s
 gsave  1996 678 45 0 C 312.425 438.8 t 0 r /Helvetica findfont 59.6768 sf 0 0 m (1) show NC gr 
 gsave  1996 678 45 0 C 301.894 635.382 t 0 r /Helvetica findfont 59.6768 sf 0 0 m (2) show NC gr  1941 271 m 407 Y s 1905 460 m 36 X s 1923 500 m 18 X s 1923 539 m 18 X s 1923 579 m 18 X s 1923 618 m 18 X s 1905 658 m 36 X s 1905 460 m 36 X s 1923
 421 m 18 X s 1923 381 m 18 X s 1923 342 m 18 X s 1923 302 m 18 X s 1905 658 m 36 X s 466 399 m -15 X s 451 392 m 14 Y s 483 399 m 21 X s 504 392 m 14 Y s 519 436 m -15 X s 504 429 m 14 Y s 536 436 m 22 X s 558 429 m 14 Y s 573 450 m -15 X s 558 443
 m 14 Y s 589 450 m 22 X s 611 443 m 14 Y s 581 464 m 1 Y s 574 465 m 14 X s 581 436 m s 574 436 m 14 X s 627 479 m -16 X s 611 472 m 14 Y s 644 479 m 20 X s 664 472 m 14 Y s 635 493 m 4 Y s 628 497 m 14 X s 635 465 m -3 Y s 628 462 m 14 X s 680 486
 m -16 X s 664 479 m 14 Y s 697 486 m 20 X s 717 479 m 14 Y s 688 500 m 6 Y s 681 506 m 14 X s 688 472 m -7 Y s 681 465 m 14 X s 733 487 m -16 X s 717 480 m 14 Y s 750 487 m 20 X s 770 480 m 14 Y s 742 501 m 9 Y s 735 510 m 14 X s 742 472 m -9 Y s
 735 463 m 14 X s 786 470 m -16 X s 770 463 m 14 Y s 803 470 m 21 X s 824 463 m 14 Y s 795 484 m 4 Y s 788 488 m 14 X s 795 456 m -4 Y s 788 452 m 14 X s 840 461 m -16 X s 824 454 m 14 Y s 857 461 m 20 X s 877 454 m 14 Y s 848 475 m 4 Y s 841 479 m
 14 X s 848 447 m -5 Y s 841 442 m 14 X s 893 469 m -16 X s 877 462 m 14 Y s 910 469 m 20 X s 930 462 m 14 Y s 901 483 m 7 Y s 894 490 m 14 X s 901 455 m -7 Y s 894 448 m 14 X s 947 482 m -17 X s 930 475 m 14 Y s 964 482 m 19 X s 983 475 m 14 Y s 956
 496 m 9 Y s 949 505 m 14 X s 956 468 m -8 Y s 949 460 m 14 X s 1000 458 m -17 X s 983 451 m 14 Y s 1017 458 m 19 X s 1036 451 m 14 Y s 1009 472 m 8 Y s 1002 480 m 14 X s 1009 444 m -8 Y s 1002 436 m 14 X s 1054 484 m -18 X s 1036 477 m 14 Y s 1070
 484 m 20 X s 1090 477 m 14 Y s 1062 498 m 13 Y s 1055 511 m 14 X s 1062 470 m -14 Y s 1055 456 m 14 X s 1129 446 m -39 X s 1090 439 m 14 Y s 1146 446 m 50 X s 1196 439 m 14 Y s 1138 460 m 10 Y s 1131 470 m 14 X s 1138 432 m -11 Y s 1131 421 m 14 X s
 1237 502 m -41 X s 1196 495 m 14 Y s 1254 502 m 49 X s 1303 495 m 14 Y s 1245 516 m 24 Y s 1238 540 m 14 X s 1245 488 m -25 Y s 1238 463 m 14 X s 1343 471 m -40 X s 1303 464 m 14 Y s 1360 471 m 49 X s 1409 464 m 14 Y s 1352 485 m 33 Y s 1345 518 m
 14 X s 1352 457 m -32 Y s 1345 425 m 14 X s 1492 473 m -83 X s 1409 466 m 14 Y s 1509 473 m 113 X s 1622 466 m 14 Y s 1501 487 m 39 Y s 1494 526 m 14 X s 1501 459 m -39 Y s 1494 420 m 14 X s 1746 489 m -124 X s 1622 482 m 14 Y s 1763 489 m 178 X s
 1941 482 m 14 Y s 1755 503 m 87 Y s 1748 590 m 14 X s 1755 475 m -86 Y s 1748 389 m 14 X s 1 0 0 c /w 28 def /w2 {w 2 div} def /w3 {w 3 div} def 475 399 528 436 581 450 635 479 688 486 742 487 795 470 848 461 901 469 956 482 1009 458 1062 484 1138
 446 1245 502 1352 471 1501 473 1755 489 17 { m26} R black 690 436 m 1 X s 691 429 m 14 Y s 716 437 m 1 X s 717 430 m 14 Y s 743 442 m 1 X s 744 435 m 14 Y s 779 434 m -9 X s 770 427 m 14 Y s 807 434 m 17 X s 824 427 m 14 Y s 833 438 m -9 X s 824 431
 m 14 Y s 861 438 m 16 X s 877 431 m 14 Y s 886 437 m -9 X s 877 430 m 14 Y s 914 437 m 16 X s 930 430 m 14 Y s 939 436 m -9 X s 930 429 m 14 Y s 968 436 m 15 X s 983 429 m 14 Y s 993 434 m -10 X s 983 427 m 14 Y s 1021 434 m 15 X s 1036 427 m 14 Y s
 1047 442 m -11 X s 1036 435 m 14 Y s 1075 442 m 15 X s 1090 435 m 14 Y s 1119 437 m -29 X s 1090 430 m 14 Y s 1147 437 m 49 X s 1196 430 m 14 Y s 1258 425 m -62 X s 1196 418 m 14 Y s 1286 425 m 123 X s 1409 418 m 14 Y s 1480 460 m -71 X s 1409 453 m
 14 Y s 1508 460 m 114 X s 1622 453 m 14 Y s 1725 497 m -103 X s 1622 490 m 14 Y s 1753 497 m 188 X s 1941 490 m 14 Y s 0 0 1 c 676 436 702 437 729 442 757 444 793 434 847 438 900 437 953 436 1007 434 1061 442 1133 437 1272 425 1494 460 1739 497 14 {
 m24} R black 690 440 m 1 X s 691 433 m 14 Y s 716 447 m 1 X s 717 440 m 14 Y s 743 448 m 1 X s 744 441 m 14 Y s 779 451 m -9 X s 770 444 m 14 Y s 807 451 m 17 X s 824 444 m 14 Y s 833 461 m -9 X s 824 454 m 14 Y s 861 461 m 16 X s 877 454 m 14 Y s
 886 462 m -9 X s 877 455 m 14 Y s 914 462 m 16 X s 930 455 m 14 Y s 939 473 m -9 X s 930 466 m 14 Y s 968 473 m 15 X s 983 466 m 14 Y s 993 477 m -10 X s 983 470 m 14 Y s 1021 477 m 15 X s 1036 470 m 14 Y s 1047 493 m -11 X s 1036 486 m 14 Y s 1075
 493 m 15 X s 1090 486 m 14 Y s 1119 494 m -29 X s 1090 487 m 14 Y s 1147 494 m 49 X s 1196 487 m 14 Y s 1258 488 m -62 X s 1196 481 m 14 Y s 1286 488 m 123 X s 1409 481 m 14 Y s 1480 588 m -71 X s 1409 581 m 14 Y s 1508 588 m 114 X s 1622 581 m 14 Y
 s 676 440 702 447 729 448 757 460 793 451 847 461 900 462 953 473 1007 477 1061 493 1133 494 1272 488 1494 588 13 { m25} R[ 4 8] 0 sd 345 460 m 1596 X s
 gr  gr showpage
end
%%EOF
