%!PS-Adobe-2.0 EPSF-2.0
%%BoundingBox:  0 0 567 734
%%Title: obr/piplus_phenix_star_pythia_mb_with_kevin.eps: PYTHIA/STAR,PHENIX pi+ spectra
%%Creator: ROOT Version 5.34/38
%%CreationDate: Thu May 28 15:19:03 2020
%%EndComments
%%BeginProlog
80 dict begin
/s {stroke} def /l {lineto} def /m {moveto} def /t {translate} def
/r {rotate} def /rl {roll}  def /R {repeat} def
/d {rlineto} def /rm {rmoveto} def /gr {grestore} def /f {eofill} def
/c {setrgbcolor} def /black {0 setgray} def /sd {setdash} def
/cl {closepath} def /sf {scalefont setfont} def /lw {setlinewidth} def
/box {m dup 0 exch d exch 0 d 0 exch neg d cl} def
/NC{systemdict begin initclip end}def/C{NC box clip newpath}def
/bl {box s} def /bf {gsave box gsave f grestore 1 lw [] 0 sd s grestore} def /Y { 0 exch d} def /X { 0 d} def 
/K {{pop pop 0 moveto} exch kshow} bind def
/ita {/ang 15 def gsave [1 0 ang dup sin exch cos div 1 0 0] concat} def 
/mp {newpath /y exch def /x exch def} def
/side {[w .77 mul w .23 mul] .385 w mul sd w 0 l currentpoint t -144 r} def
/mr {mp x y w2 0 360 arc} def /m24 {mr s} def /m20 {mr f} def
/mb {mp x y w2 add m w2 neg 0 d 0 w neg d w 0 d 0 w d cl} def
/mt {mp x y w2 add m w2 neg w neg d w 0 d cl} def
/m21 {mb f} def /m25 {mb s} def /m22 {mt f} def /m26{mt s} def
/m23 {mp x y w2 sub m w2 w d w neg 0 d cl f} def
/m27 {mp x y w2 add m w3 neg w2 neg d w3 w2 neg d w3 w2 d cl s} def
/m28 {mp x w2 sub y w2 sub w3 add m w3 0 d  0 w3 neg d w3 0 d 0 w3 d w3 0 d  0 w3 d w3 neg 0 d 0 w3 d w3 neg 0 d 0 w3 neg d w3 neg 0 d cl s } def
/m29 {mp gsave x w2 sub y w2 add w3 sub m currentpoint t 4 {side} repeat cl fill gr} def
/m30 {mp gsave x w2 sub y w2 add w3 sub m currentpoint t 4 {side} repeat cl s gr} def
/m31 {mp x y w2 sub m 0 w d x w2 sub y m w 0 d x w2 sub y w2 add m w w neg d x w2 sub y w2 sub m w w d s} def
/m32 {mp x y w2 sub m w2 w d w neg 0 d cl s} def
/m33 {mp x y w2 add m w3 neg w2 neg d w3 w2 neg d w3 w2 d cl f} def
/m34 {mp x w2 sub y w2 sub w3 add m w3 0 d  0 w3 neg d w3 0 d 0 w3 d w3 0 d  0 w3 d w3 neg 0 d 0 w3 d w3 neg 0 d 0 w3 neg d w3 neg 0 d cl f } def
/m2 {mp x y w2 sub m 0 w d x w2 sub y m w 0 d s} def
/m5 {mp x w2 sub y w2 sub m w w d x w2 sub y w2 add m w w neg d s} def
/reEncode {exch findfont dup length dict begin {1 index /FID eq  {pop pop} {def} ifelse } forall /Encoding exch def currentdict end dup /FontName get exch definefont pop } def [/Times-Bold /Times-Italic /Times-BoldItalic /Helvetica /Helvetica-Oblique
 /Helvetica-Bold /Helvetica-BoldOblique /Courier /Courier-Oblique /Courier-Bold /Courier-BoldOblique /Times-Roman /AvantGarde-Book /AvantGarde-BookOblique /AvantGarde-Demi /AvantGarde-DemiOblique /Bookman-Demi /Bookman-DemiItalic /Bookman-Light
 /Bookman-LightItalic /Helvetica-Narrow /Helvetica-Narrow-Bold /Helvetica-Narrow-BoldOblique /Helvetica-Narrow-Oblique /NewCenturySchlbk-Roman /NewCenturySchlbk-Bold /NewCenturySchlbk-BoldItalic /NewCenturySchlbk-Italic /Palatino-Bold
 /Palatino-BoldItalic /Palatino-Italic /Palatino-Roman ] {ISOLatin1Encoding reEncode } forall
%%EndProlog
%%BeginSetup
%%EndSetup
newpath  gsave  .25 .25 scale  gsave  0 0 t black[  ] 0 sd 3 lw 1 1 1 c 2268 2937 0 0 bf black 1 1 1 c 1814 2203 227 734 bf black 1 1 1 c 1452 1983 408 734 bf black 1452 1983 408 734 bl 1 1 1 c 0 0 1 c black 455 2667 m 16 X s 486 2667 m 16 X s 0 0 1
 c /w 21 def /w2 {w 2 div} def /w3 {w 3 div} def 478 2667 m24 black 502 2510 m 16 X s 533 2510 m 16 X s 0 0 1 c 525 2510 m24 black 549 2321 m 15 X s 580 2321 m 15 X s 0 0 1 c 572 2321 m24 black 595 2166 m 16 X s 626 2166 m 16 X s 0 0 1 c 619 2166 m24
 black 642 2036 m 16 X s 673 2036 m 16 X s 0 0 1 c 666 2036 m24 black 689 1923 m 16 X s 720 1923 m 16 X s 0 0 1 c 713 1923 m24 black 736 1824 m 16 X s 767 1824 m 16 X s 0 0 1 c 759 1824 m24 black 783 1737 m 16 X s 814 1737 m 16 X s 0 0 1 c 806 1737
 m24 black 830 1659 m 15 X s 861 1659 m 15 X s 0 0 1 c 853 1659 m24 black 876 1590 m 16 X s 907 1590 m 16 X s 0 0 1 c 900 1590 m24 black 923 1525 m 16 X s 954 1525 m 16 X s 0 0 1 c 947 1525 m24 black 970 1468 m 16 X s 1001 1468 m 16 X s 0 0 1 c 993
 1468 m24 black 1017 1420 m 16 X s 1048 1420 m 16 X s 0 0 1 c 1040 1420 m24 black 1064 1367 m 15 X s 1095 1367 m 15 X s 0 0 1 c 1087 1367 m24 black 1110 1332 m 16 X s 1141 1332 m 16 X s 0 0 1 c 1134 1332 m24 black 1157 1280 m 16 X s 1188 1280 m 16 X
 s 0 0 1 c 1181 1280 m24 black 1204 1253 m 16 X s 1235 1253 m 16 X s 0 0 1 c 1227 1253 m24 black 1274 1212 m s 1251 1220 m 16 X s 1282 1220 m 16 X s 0 0 1 c 1274 1220 m24 black 1321 1157 m 4 Y s 1321 1176 m 3 Y s 1298 1169 m 16 X s 1329 1169 m 16 X s
 0 0 1 c 1321 1169 m24 black 1368 1130 m 6 Y s 1368 1151 m 4 Y s 1345 1144 m 15 X s 1376 1144 m 15 X s 0 0 1 c 1368 1144 m24 black 1415 1111 m 7 Y s 1415 1133 m 5 Y s 1391 1125 m 16 X s 1422 1125 m 16 X s 0 0 1 c 1415 1125 m24 black 1462 1093 m 9 Y s
 1462 1117 m 6 Y s 1438 1109 m 16 X s 1469 1109 m 16 X s 0 0 1 c 1462 1109 m24 black 1508 1031 m 16 Y s 1508 1062 m 10 Y s 1485 1054 m 16 X s 1516 1054 m 16 X s 0 0 1 c 1508 1054 m24 black 1555 968 m 26 Y s 1555 1010 m 16 Y s 1532 1002 m 16 X s 1563
 1002 m 16 X s 0 0 1 c 1555 1002 m24 black 1602 964 m 27 Y s 1602 1006 m 16 Y s 1579 998 m 15 X s 1610 998 m 15 X s 0 0 1 c 1602 998 m24 black 1649 852 m 60 Y s 1649 927 m 28 Y s 1625 919 m 16 X s 1656 919 m 16 X s 0 0 1 c 1649 919 m24 black 1696 788
 m 88 Y s 1696 892 m 34 Y s 1672 884 m 16 X s 1703 884 m 16 X s 0 0 1 c 1696 884 m24 black 1742 734 m 87 Y s 1742 836 m 47 Y s 1719 829 m 16 X s 1750 829 m 16 X s 0 0 1 c 1742 829 m24 black 1789 879 m 46 Y s 1789 940 m 24 Y s 1766 933 m 16 X s 1797
 933 m 16 X s 0 0 1 c 1789 933 m24 black 1836 839 m 60 Y s 1836 914 m 28 Y s 1813 907 m 16 X s 1844 907 m 16 X s 0 0 1 c 1836 907 m24 black 408 734 m 1452 X s 455 787 m -53 Y s 502 761 m -27 Y s 549 761 m -27 Y s 595 761 m -27 Y s 642 787 m -53 Y s
 689 761 m -27 Y s 736 761 m -27 Y s 783 761 m -27 Y s 830 787 m -53 Y s 876 761 m -27 Y s 923 761 m -27 Y s 970 761 m -27 Y s 1017 787 m -53 Y s 1064 761 m -27 Y s 1110 761 m -27 Y s 1157 761 m -27 Y s 1204 787 m -53 Y s 1251 761 m -27 Y s 1298 761
 m -27 Y s 1345 761 m -27 Y s 1391 787 m -53 Y s 1438 761 m -27 Y s 1485 761 m -27 Y s 1532 761 m -27 Y s 1579 787 m -53 Y s 1625 761 m -27 Y s 1672 761 m -27 Y s 1719 761 m -27 Y s 1766 787 m -53 Y s 455 787 m -53 Y s 408 761 m -27 Y s 1766 787 m
 -53 Y s 1813 761 m -27 Y s 1860 761 m -27 Y s
 gsave  1814 2203 227 734 C 433.758 654.442 t 0 r /Helvetica-Bold findfont 68.6032 sf 0 0 m (0) show NC gr 
 gsave  1814 2203 227 734 C 620.198 654.442 t 0 r /Helvetica-Bold findfont 68.6032 sf 0 0 m (2) show NC gr 
 gsave  1814 2203 227 734 C 810.442 654.442 t 0 r /Helvetica-Bold findfont 68.6032 sf 0 0 m (4) show NC gr 
 gsave  1814 2203 227 734 C 996.882 654.442 t 0 r /Helvetica-Bold findfont 68.6032 sf 0 0 m (6) show NC gr 
 gsave  1814 2203 227 734 C 1183.32 654.442 t 0 r /Helvetica-Bold findfont 68.6032 sf 0 0 m (8) show NC gr 
 gsave  1814 2203 227 734 C 1350.74 654.442 t 0 r /Helvetica-Bold findfont 68.6032 sf 0 0 m (10) show NC gr 
 gsave  1814 2203 227 734 C 1537.18 654.442 t 0 r /Helvetica-Bold findfont 68.6032 sf 0 0 m (12) show NC gr 
 gsave  1814 2203 227 734 C 1727.42 654.442 t 0 r /Helvetica-Bold findfont 68.6032 sf 0 0 m (14) show NC gr  408 2717 m 1452 X s 455 2664 m 53 Y s 502 2691 m 26 Y s 549 2691 m 26 Y s 595 2691 m 26 Y s 642 2664 m 53 Y s 689 2691 m 26 Y s 736 2691 m 26
 Y s 783 2691 m 26 Y s 830 2664 m 53 Y s 876 2691 m 26 Y s 923 2691 m 26 Y s 970 2691 m 26 Y s 1017 2664 m 53 Y s 1064 2691 m 26 Y s 1110 2691 m 26 Y s 1157 2691 m 26 Y s 1204 2664 m 53 Y s 1251 2691 m 26 Y s 1298 2691 m 26 Y s 1345 2691 m 26 Y s
 1391 2664 m 53 Y s 1438 2691 m 26 Y s 1485 2691 m 26 Y s 1532 2691 m 26 Y s 1579 2664 m 53 Y s 1625 2691 m 26 Y s 1672 2691 m 26 Y s 1719 2691 m 26 Y s 1766 2664 m 53 Y s 455 2664 m 53 Y s 408 2691 m 26 Y s 1766 2664 m 53 Y s 1813 2691 m 26 Y s 1860
 2691 m 26 Y s 408 734 m 1983 Y s 433 739 m -25 X s 433 750 m -25 X s 433 759 m -25 X s 457 767 m -49 X s
 gsave  1814 2203 227 734 C 365.27 772.393 t 0 r /Helvetica-Bold findfont 45.7355 sf 0 0 m (9) show NC gr 
 gsave  1814 2203 227 734 C 338.636 772.393 t 0 r /Symbol findfont 45.7355 sf 0 0 m (-) show NC gr 
 gsave  1814 2203 227 734 C 262.538 734.344 t 0 r /Helvetica-Bold findfont 68.6032 sf 0 0 m (10) show NC gr  433 821 m -25 X s 433 853 m -25 X s 433 875 m -25 X s 433 893 m -25 X s 433 907 m -25 X s 433 919 m -25 X s 433 929 m -25 X s 433 938 m -25 X
 s 457 946 m -49 X s
 gsave  1814 2203 227 734 C 365.27 951.223 t 0 r /Helvetica-Bold findfont 45.7355 sf 0 0 m (8) show NC gr 
 gsave  1814 2203 227 734 C 338.636 951.223 t 0 r /Symbol findfont 45.7355 sf 0 0 m (-) show NC gr 
 gsave  1814 2203 227 734 C 262.538 913.174 t 0 r /Helvetica-Bold findfont 68.6032 sf 0 0 m (10) show NC gr  433 1000 m -25 X s 433 1032 m -25 X s 433 1054 m -25 X s 433 1072 m -25 X s 433 1086 m -25 X s 433 1098 m -25 X s 433 1108 m -25 X s 433 1118
 m -25 X s 457 1126 m -49 X s
 gsave  1814 2203 227 734 C 365.27 1126.25 t 0 r /Helvetica-Bold findfont 45.7355 sf 0 0 m (7) show NC gr 
 gsave  1814 2203 227 734 C 338.636 1126.25 t 0 r /Symbol findfont 45.7355 sf 0 0 m (-) show NC gr 
 gsave  1814 2203 227 734 C 262.538 1092 t 0 r /Helvetica-Bold findfont 68.6032 sf 0 0 m (10) show NC gr  433 1180 m -25 X s 433 1211 m -25 X s 433 1234 m -25 X s 433 1251 m -25 X s 433 1265 m -25 X s 433 1277 m -25 X s 433 1288 m -25 X s 433 1297 m
 -25 X s 457 1305 m -49 X s
 gsave  1814 2203 227 734 C 365.27 1312.69 t 0 r /Helvetica-Bold findfont 45.7355 sf 0 0 m (6) show NC gr 
 gsave  1814 2203 227 734 C 338.636 1312.69 t 0 r /Symbol findfont 45.7355 sf 0 0 m (-) show NC gr 
 gsave  1814 2203 227 734 C 262.538 1274.64 t 0 r /Helvetica-Bold findfont 68.6032 sf 0 0 m (10) show NC gr  433 1359 m -25 X s 433 1391 m -25 X s 433 1413 m -25 X s 433 1430 m -25 X s 433 1445 m -25 X s 433 1457 m -25 X s 433 1467 m -25 X s 433 1476
 m -25 X s 457 1484 m -49 X s
 gsave  1814 2203 227 734 C 365.27 1491.52 t 0 r /Helvetica-Bold findfont 45.7355 sf 0 0 m (5) show NC gr 
 gsave  1814 2203 227 734 C 338.636 1491.52 t 0 r /Symbol findfont 45.7355 sf 0 0 m (-) show NC gr 
 gsave  1814 2203 227 734 C 262.538 1453.47 t 0 r /Helvetica-Bold findfont 68.6032 sf 0 0 m (10) show NC gr  433 1538 m -25 X s 433 1570 m -25 X s 433 1592 m -25 X s 433 1610 m -25 X s 433 1624 m -25 X s 433 1636 m -25 X s 433 1646 m -25 X s 433 1656
 m -25 X s 457 1664 m -49 X s
 gsave  1814 2203 227 734 C 365.27 1666.54 t 0 r /Helvetica-Bold findfont 45.7355 sf 0 0 m (4) show NC gr 
 gsave  1814 2203 227 734 C 338.636 1666.54 t 0 r /Symbol findfont 45.7355 sf 0 0 m (-) show NC gr 
 gsave  1814 2203 227 734 C 262.538 1632.3 t 0 r /Helvetica-Bold findfont 68.6032 sf 0 0 m (10) show NC gr  433 1718 m -25 X s 433 1749 m -25 X s 433 1772 m -25 X s 433 1789 m -25 X s 433 1803 m -25 X s 433 1815 m -25 X s 433 1826 m -25 X s 433 1835
 m -25 X s 457 1843 m -49 X s
 gsave  1814 2203 227 734 C 365.27 1849.18 t 0 r /Helvetica-Bold findfont 45.7355 sf 0 0 m (3) show NC gr 
 gsave  1814 2203 227 734 C 338.636 1849.18 t 0 r /Symbol findfont 45.7355 sf 0 0 m (-) show NC gr 
 gsave  1814 2203 227 734 C 262.538 1811.13 t 0 r /Helvetica-Bold findfont 68.6032 sf 0 0 m (10) show NC gr  433 1897 m -25 X s 433 1929 m -25 X s 433 1951 m -25 X s 433 1968 m -25 X s 433 1983 m -25 X s 433 1995 m -25 X s 433 2005 m -25 X s 433 2014
 m -25 X s 457 2022 m -49 X s
 gsave  1814 2203 227 734 C 365.27 2024.2 t 0 r /Helvetica-Bold findfont 45.7355 sf 0 0 m (2) show NC gr 
 gsave  1814 2203 227 734 C 338.636 2024.2 t 0 r /Symbol findfont 45.7355 sf 0 0 m (-) show NC gr 
 gsave  1814 2203 227 734 C 262.538 1989.96 t 0 r /Helvetica-Bold findfont 68.6032 sf 0 0 m (10) show NC gr  433 2076 m -25 X s 433 2108 m -25 X s 433 2130 m -25 X s 433 2148 m -25 X s 433 2162 m -25 X s 433 2174 m -25 X s 433 2184 m -25 X s 433 2193
 m -25 X s 457 2202 m -49 X s
 gsave  1814 2203 227 734 C 372.88 2203.03 t 0 r /Helvetica-Bold findfont 45.7355 sf 0 0 m (1) show NC gr 
 gsave  1814 2203 227 734 C 346.245 2203.03 t 0 r /Symbol findfont 45.7355 sf 0 0 m (-) show NC gr 
 gsave  1814 2203 227 734 C 270.147 2168.79 t 0 r /Helvetica-Bold findfont 68.6032 sf 0 0 m (10) show NC gr  433 2256 m -25 X s 433 2287 m -25 X s 433 2310 m -25 X s 433 2327 m -25 X s 433 2341 m -25 X s 433 2353 m -25 X s 433 2364 m -25 X s 433 2373
 m -25 X s 457 2381 m -49 X s
 gsave  1814 2203 227 734 C 393.313 2352.05 t 0 r  -37 0 t /Helvetica-Bold findfont 68.6032 sf 0 0 m (1) show NC gr  433 2435 m -25 X s 433 2467 m -25 X s 433 2489 m -25 X s 433 2506 m -25 X s 433 2520 m -25 X s 433 2532 m -25 X s 433 2543 m -25 X s
 433 2552 m -25 X s 457 2560 m -49 X s
 gsave  1814 2203 227 734 C 393.313 2531.36 t 0 r  -74 0 t /Helvetica-Bold findfont 68.6032 sf 0 0 m (10) show NC gr  433 2614 m -25 X s 433 2646 m -25 X s 433 2668 m -25 X s 433 2686 m -25 X s 433 2700 m -25 X s 433 2712 m -25 X s 1860 734 m 1983 Y
 s 1835 739 m 25 X s 1835 750 m 25 X s 1835 759 m 25 X s 1811 767 m 49 X s 1835 821 m 25 X s 1835 853 m 25 X s 1835 875 m 25 X s 1835 893 m 25 X s 1835 907 m 25 X s 1835 919 m 25 X s 1835 929 m 25 X s 1835 938 m 25 X s 1811 946 m 49 X s 1835 1000 m
 25 X s 1835 1032 m 25 X s 1835 1054 m 25 X s 1835 1072 m 25 X s 1835 1086 m 25 X s 1835 1098 m 25 X s 1835 1108 m 25 X s 1835 1118 m 25 X s 1811 1126 m 49 X s 1835 1180 m 25 X s 1835 1211 m 25 X s 1835 1234 m 25 X s 1835 1251 m 25 X s 1835 1265 m 25
 X s 1835 1277 m 25 X s 1835 1288 m 25 X s 1835 1297 m 25 X s 1811 1305 m 49 X s 1835 1359 m 25 X s 1835 1391 m 25 X s 1835 1413 m 25 X s 1835 1430 m 25 X s 1835 1445 m 25 X s 1835 1457 m 25 X s 1835 1467 m 25 X s 1835 1476 m 25 X s 1811 1484 m 49 X
 s 1835 1538 m 25 X s 1835 1570 m 25 X s 1835 1592 m 25 X s 1835 1610 m 25 X s 1835 1624 m 25 X s 1835 1636 m 25 X s 1835 1646 m 25 X s 1835 1656 m 25 X s 1811 1664 m 49 X s 1835 1718 m 25 X s 1835 1749 m 25 X s 1835 1772 m 25 X s 1835 1789 m 25 X s
 1835 1803 m 25 X s 1835 1815 m 25 X s 1835 1826 m 25 X s 1835 1835 m 25 X s 1811 1843 m 49 X s 1835 1897 m 25 X s 1835 1929 m 25 X s 1835 1951 m 25 X s 1835 1968 m 25 X s 1835 1983 m 25 X s 1835 1995 m 25 X s 1835 2005 m 25 X s 1835 2014 m 25 X s
 1811 2022 m 49 X s 1835 2076 m 25 X s 1835 2108 m 25 X s 1835 2130 m 25 X s 1835 2148 m 25 X s 1835 2162 m 25 X s 1835 2174 m 25 X s 1835 2184 m 25 X s 1835 2193 m 25 X s 1811 2202 m 49 X s 1835 2256 m 25 X s 1835 2287 m 25 X s 1835 2310 m 25 X s
 1835 2327 m 25 X s 1835 2341 m 25 X s 1835 2353 m 25 X s 1835 2364 m 25 X s 1835 2373 m 25 X s 1811 2381 m 49 X s 1835 2435 m 25 X s 1835 2467 m 25 X s 1835 2489 m 25 X s 1835 2506 m 25 X s 1835 2520 m 25 X s 1835 2532 m 25 X s 1835 2543 m 25 X s
 1835 2552 m 25 X s 1811 2560 m 49 X s 1835 2614 m 25 X s 1835 2646 m 25 X s 1835 2668 m 25 X s 1835 2686 m 25 X s 1835 2700 m 25 X s 1835 2712 m 25 X s 951 1528 m -28 X s 923 1520 m 16 Y s 969 1528 m 48 X s 1017 1520 m 16 Y s 1044 1431 m -27 X s
 1017 1423 m 15 Y s 1062 1431 m 48 X s 1110 1423 m 15 Y s 1140 1340 m -30 X s 1110 1332 m 15 Y s 1158 1340 m 46 X s 1204 1332 m 15 Y s 1236 1268 m -32 X s 1204 1260 m 15 Y s 1254 1268 m 44 X s 1298 1260 m 15 Y s 1355 1185 m -57 X s 1298 1177 m 16 Y s
 1373 1185 m 112 X s 1485 1177 m 16 Y s 1541 1069 m -56 X s 1485 1062 m 15 Y s 1560 1069 m 112 X s 1672 1062 m 15 Y s /w 30 def /w2 {w 2 div} def /w3 {w 3 div} def 960 1528 1053 1431 1149 1340 1245 1268 1364 1185 1551 1069 6 { m23} R 739 1848 m -3 X
 s 736 1840 m 15 Y s 754 1848 m 5 X s 759 1840 m 15 Y s 762 1804 m -3 X s 759 1796 m 15 Y s 777 1804 m 6 X s 783 1796 m 15 Y s 785 1764 m -2 X s 783 1757 m 15 Y s 801 1764 m 5 X s 806 1757 m 15 Y s 810 1724 m -4 X s 806 1717 m 15 Y s 825 1724 m 5 X s
 830 1717 m 15 Y s 842 1670 m -12 X s 830 1662 m 15 Y s 857 1670 m 19 X s 876 1662 m 15 Y s 889 1602 m -13 X s 876 1594 m 16 Y s 905 1602 m 18 X s 923 1594 m 16 Y s 936 1540 m -13 X s 923 1532 m 16 Y s 951 1540 m 19 X s 970 1532 m 16 Y s 983 1483 m
 -13 X s 970 1475 m 15 Y s 998 1483 m 19 X s 1017 1475 m 15 Y s 1030 1429 m -13 X s 1017 1422 m 15 Y s 1045 1429 m 19 X s 1064 1422 m 15 Y s 1078 1383 m -14 X s 1064 1375 m 15 Y s 1093 1383 m 17 X s 1110 1375 m 15 Y s 1141 1319 m -31 X s 1110 1311 m
 15 Y s 1156 1319 m 48 X s 1204 1311 m 15 Y s 1263 1208 m -59 X s 1204 1201 m 15 Y s 1278 1208 m 113 X s 1391 1201 m 15 Y s 1459 1082 m -68 X s 1391 1075 m 15 Y s 1474 1082 m 105 X s 1579 1075 m 15 Y s 1674 967 m -95 X s 1579 959 m 16 Y s 1689 967 m
 171 X s 1860 959 m 16 Y s 0 0 1 c /w 21 def /w2 {w 2 div} def /w3 {w 3 div} def 746 1848 770 1804 793 1764 817 1724 849 1670 897 1602 944 1540 991 1483 1037 1429 1085 1383 1149 1319 1271 1208 1466 1082 1682 967 14 { m20} R black 1 1 1 c 726 441 952
 2056 bf black 952 2056 m 726 X s 1678 2056 m 441 Y s 1678 2497 m -726 X s 952 2497 m -441 Y s
 gsave  1814 2203 227 734 C 1133.86 2393.28 t 0 r /Helvetica-Bold findfont 68.6032 sf 0 0 m (PYTHIA 6.28 pi+) show NC gr  0 0 1 c 1043 2423 m24 black
 gsave  1814 2203 227 734 C 1133.86 2244.89 t 0 r /Helvetica-Bold findfont 68.6032 sf 0 0 m (PHENIX pi+) show NC gr  /w 30 def /w2 {w 2 div} def /w3 {w 3 div} def 1043 2276 m23
 gsave  1814 2203 227 734 C 1133.86 2100.3 t 0 r /Helvetica-Bold findfont 68.6032 sf 0 0 m (STAR pi+) show NC gr  0 0 1 c /w 21 def /w2 {w 2 div} def /w3 {w 3 div} def 1043 2130 m20 black 1 1 1 c 1814 734 227 0 bf black 1 1 1 c 1452 440 408 294 bf
 black 1452 440 408 294 bl 408 294 m 1452 X s
 gsave  1814 734 227 0 C 1658.93 197.854 t 0 r /Helvetica findfont 53.2685 sf 0 0 m ( \(GeV/c\)) show NC gr 
 gsave  1814 734 227 0 C 1636.1 167.415 t 0 r /Helvetica findfont 34.244 sf 0 0 m (T) show NC gr 
 gsave  1814 734 227 0 C 1601.86 197.854 t 0 r /Helvetica-Oblique findfont 53.2685 sf 0 0 m (p) show NC gr  408 352 m -58 Y s 505 323 m -29 Y s 602 323 m -29 Y s 698 323 m -29 Y s 795 323 m -29 Y s 892 352 m -58 Y s 989 323 m -29 Y s 1085 323 m -29 Y
 s 1182 323 m -29 Y s 1279 323 m -29 Y s 1376 352 m -58 Y s 1473 323 m -29 Y s 1569 323 m -29 Y s 1666 323 m -29 Y s 1763 323 m -29 Y s 1860 352 m -58 Y s
 gsave  1814 734 227 0 C 391.904 247.318 t 0 r /Helvetica findfont 53.2685 sf 0 0 m (0) show NC gr 
 gsave  1814 734 227 0 C 875.125 247.318 t 0 r /Helvetica findfont 53.2685 sf 0 0 m (5) show NC gr 
 gsave  1814 734 227 0 C 1343.13 247.318 t 0 r /Helvetica findfont 53.2685 sf 0 0 m (10) show NC gr 
 gsave  1814 734 227 0 C 1826.35 247.318 t 0 r /Helvetica findfont 53.2685 sf 0 0 m (15) show NC gr  408 734 m 1452 X s 408 676 m 58 Y s 505 705 m 29 Y s 602 705 m 29 Y s 698 705 m 29 Y s 795 705 m 29 Y s 892 676 m 58 Y s 989 705 m 29 Y s 1085 705 m
 29 Y s 1182 705 m 29 Y s 1279 705 m 29 Y s 1376 676 m 58 Y s 1473 705 m 29 Y s 1569 705 m 29 Y s 1666 705 m 29 Y s 1763 705 m 29 Y s 1860 676 m 58 Y s 408 294 m 440 Y s
 gsave  1814 734 227 0 C 315.806 422.343 t 90 r /Helvetica findfont 53.2685 sf 0 0 m (data/PYTHIA) show NC gr  441 294 m -33 X s 425 316 m -17 X s 425 338 m -17 X s 425 360 m -17 X s 441 382 m -33 X s 425 404 m -17 X s 425 426 m -17 X s 425 448 m -17
 X s 441 470 m -33 X s 425 492 m -17 X s 425 514 m -17 X s 425 536 m -17 X s 441 558 m -33 X s 425 580 m -17 X s 425 602 m -17 X s 425 624 m -17 X s 441 646 m -33 X s 425 668 m -17 X s 425 690 m -17 X s 425 712 m -17 X s 441 734 m -33 X s
 gsave  1814 734 227 0 C 365.27 277.757 t 0 r /Helvetica findfont 53.2685 sf 0 0 m (0) show NC gr 
 gsave  1814 734 227 0 C 323.416 365.27 t 0 r /Helvetica findfont 53.2685 sf 0 0 m (0.4) show NC gr 
 gsave  1814 734 227 0 C 323.416 452.782 t 0 r /Helvetica findfont 53.2685 sf 0 0 m (0.8) show NC gr 
 gsave  1814 734 227 0 C 323.416 536.49 t 0 r /Helvetica findfont 53.2685 sf 0 0 m (1.2) show NC gr 
 gsave  1814 734 227 0 C 323.416 627.807 t 0 r /Helvetica findfont 53.2685 sf 0 0 m (1.6) show NC gr 
 gsave  1814 734 227 0 C 365.27 711.515 t 0 r /Helvetica findfont 53.2685 sf 0 0 m (2) show NC gr  1860 294 m 440 Y s 1827 294 m 33 X s 1843 316 m 17 X s 1843 338 m 17 X s 1843 360 m 17 X s 1827 382 m 33 X s 1843 404 m 17 X s 1843 426 m 17 X s 1843
 448 m 17 X s 1827 470 m 33 X s 1843 492 m 17 X s 1843 514 m 17 X s 1843 536 m 17 X s 1827 558 m 33 X s 1843 580 m 17 X s 1843 602 m 17 X s 1843 624 m 17 X s 1827 646 m 33 X s 1843 668 m 17 X s 1843 690 m 17 X s 1843 712 m 17 X s 1827 734 m 33 X s
 800 485 m -5 X s 795 477 m 15 Y s 831 485 m 13 X s 844 477 m 15 Y s 850 489 m -6 X s 844 481 m 15 Y s 880 489 m 12 X s 892 481 m 15 Y s 898 488 m -6 X s 892 481 m 15 Y s 928 488 m 12 X s 940 481 m 15 Y s 946 487 m -6 X s 940 480 m 15 Y s 977 487 m
 12 X s 989 480 m 15 Y s 995 485 m -6 X s 989 478 m 15 Y s 1025 485 m 12 X s 1037 478 m 15 Y s 1044 494 m -7 X s 1037 486 m 15 Y s 1075 494 m 10 X s 1085 486 m 15 Y s 1110 488 m -25 X s 1085 480 m 16 Y s 1140 488 m 42 X s 1182 480 m 16 Y s 1236 475 m
 -54 X s 1182 467 m 15 Y s 1266 475 m 110 X s 1376 467 m 15 Y s 1438 514 m -62 X s 1376 506 m 16 Y s 1468 514 m 101 X s 1569 506 m 16 Y s 1660 555 m -91 X s 1569 547 m 15 Y s 1691 555 m 169 X s 1860 547 m 15 Y s 0 0 1 c /w 30 def /w2 {w 2 div} def
 /w3 {w 3 div} def 709 487 733 488 757 493 783 496 816 485 865 489 913 488 962 487 1010 485 1059 494 1125 488 1251 475 1453 514 1676 555 14 { m24} R
 gr  gr showpage
end
%%EOF
