%!PS-Adobe-2.0 EPSF-2.0
%%BoundingBox:  0 0 567 176
%%Title: obr/ptleading_ratios_pythia.eps: pt leading spectra ratios
%%Creator: ROOT Version 5.34/38
%%CreationDate: Thu May 28 15:19:02 2020
%%EndComments
%%BeginProlog
80 dict begin
/s {stroke} def /l {lineto} def /m {moveto} def /t {translate} def
/r {rotate} def /rl {roll}  def /R {repeat} def
/d {rlineto} def /rm {rmoveto} def /gr {grestore} def /f {eofill} def
/c {setrgbcolor} def /black {0 setgray} def /sd {setdash} def
/cl {closepath} def /sf {scalefont setfont} def /lw {setlinewidth} def
/box {m dup 0 exch d exch 0 d 0 exch neg d cl} def
/NC{systemdict begin initclip end}def/C{NC box clip newpath}def
/bl {box s} def /bf {gsave box gsave f grestore 1 lw [] 0 sd s grestore} def /Y { 0 exch d} def /X { 0 d} def 
/K {{pop pop 0 moveto} exch kshow} bind def
/ita {/ang 15 def gsave [1 0 ang dup sin exch cos div 1 0 0] concat} def 
/mp {newpath /y exch def /x exch def} def
/side {[w .77 mul w .23 mul] .385 w mul sd w 0 l currentpoint t -144 r} def
/mr {mp x y w2 0 360 arc} def /m24 {mr s} def /m20 {mr f} def
/mb {mp x y w2 add m w2 neg 0 d 0 w neg d w 0 d 0 w d cl} def
/mt {mp x y w2 add m w2 neg w neg d w 0 d cl} def
/m21 {mb f} def /m25 {mb s} def /m22 {mt f} def /m26{mt s} def
/m23 {mp x y w2 sub m w2 w d w neg 0 d cl f} def
/m27 {mp x y w2 add m w3 neg w2 neg d w3 w2 neg d w3 w2 d cl s} def
/m28 {mp x w2 sub y w2 sub w3 add m w3 0 d  0 w3 neg d w3 0 d 0 w3 d w3 0 d  0 w3 d w3 neg 0 d 0 w3 d w3 neg 0 d 0 w3 neg d w3 neg 0 d cl s } def
/m29 {mp gsave x w2 sub y w2 add w3 sub m currentpoint t 4 {side} repeat cl fill gr} def
/m30 {mp gsave x w2 sub y w2 add w3 sub m currentpoint t 4 {side} repeat cl s gr} def
/m31 {mp x y w2 sub m 0 w d x w2 sub y m w 0 d x w2 sub y w2 add m w w neg d x w2 sub y w2 sub m w w d s} def
/m32 {mp x y w2 sub m w2 w d w neg 0 d cl s} def
/m33 {mp x y w2 add m w3 neg w2 neg d w3 w2 neg d w3 w2 d cl f} def
/m34 {mp x w2 sub y w2 sub w3 add m w3 0 d  0 w3 neg d w3 0 d 0 w3 d w3 0 d  0 w3 d w3 neg 0 d 0 w3 d w3 neg 0 d 0 w3 neg d w3 neg 0 d cl f } def
/m2 {mp x y w2 sub m 0 w d x w2 sub y m w 0 d s} def
/m5 {mp x w2 sub y w2 sub m w w d x w2 sub y w2 add m w w neg d s} def
/reEncode {exch findfont dup length dict begin {1 index /FID eq  {pop pop} {def} ifelse } forall /Encoding exch def currentdict end dup /FontName get exch definefont pop } def [/Times-Bold /Times-Italic /Times-BoldItalic /Helvetica /Helvetica-Oblique
 /Helvetica-Bold /Helvetica-BoldOblique /Courier /Courier-Oblique /Courier-Bold /Courier-BoldOblique /Times-Roman /AvantGarde-Book /AvantGarde-BookOblique /AvantGarde-Demi /AvantGarde-DemiOblique /Bookman-Demi /Bookman-DemiItalic /Bookman-Light
 /Bookman-LightItalic /Helvetica-Narrow /Helvetica-Narrow-Bold /Helvetica-Narrow-BoldOblique /Helvetica-Narrow-Oblique /NewCenturySchlbk-Roman /NewCenturySchlbk-Bold /NewCenturySchlbk-BoldItalic /NewCenturySchlbk-Italic /Palatino-Bold
 /Palatino-BoldItalic /Palatino-Italic /Palatino-Roman ] {ISOLatin1Encoding reEncode } forall
%%EndProlog
%%BeginSetup
%%EndSetup
newpath  gsave  .25 .25 scale  gsave  0 0 t black[  ] 0 sd 3 lw 1 1 1 c 2268 705 0 0 bf black 1 1 1 c 710 691 23 7 bf black 1 1 1 c 511 553 165 131 bf black 511 553 165 131 bl 0 0 0.6 c 1 1 1 c black 0 0 0.6 c 226 278 m 3 X s 244 278 m 3 X s black /w
 15 def /w2 {w 2 div} def /w3 {w 3 div} def 236 278 m20 0 0 0.6 c 247 410 m 2 X s 264 410 m 3 X s black 257 410 m20 0 0 0.6 c 267 432 m 3 X s 285 432 m 3 X s black 277 432 m20 0 0 0.6 c 288 472 m 2 X s 305 472 m 3 X s black 298 472 m20 0 0 0.6 c 308
 496 m 3 X s 326 496 m 2 X s black 318 496 m20 0 0 0.6 c 339 493 m 16 Y s 339 524 m 13 Y s 328 516 m 3 X s 346 516 m 3 X s black 339 516 m20 0 0 0.6 c 349 525 m 3 X s 367 525 m 2 X s black 359 525 m20 0 0 0.6 c 369 534 m 3 X s 387 534 m 3 X s black
 380 534 m20 0 0 0.6 c 390 540 m 3 X s 408 540 m 2 X s black 400 540 m20 0 0 0.6 c 410 543 m 3 X s 428 543 m 3 X s black 421 543 m20 0 0 0.6 c 431 545 m 2 X s 449 545 m 2 X s black 441 545 m20 0 0 0.6 c 451 547 m 3 X s 469 547 m 3 X s black 462 547
 m20 0 0 0.6 c 472 547 m 2 X s 490 547 m 2 X s black 482 547 m20 0 0 0.6 c 492 548 m 3 X s 510 548 m 3 X s black 502 548 m20 0 0 0.6 c 513 548 m 2 X s 530 548 m 3 X s black 523 548 m20 0 0 0.6 c 533 548 m 3 X s 551 548 m 3 X s black 543 548 m20 0 0
 0.6 c 554 548 m 2 X s 571 548 m 3 X s black 564 548 m20 0 0 0.6 c 574 548 m 3 X s 592 548 m 3 X s black 584 548 m20 0 0 0.6 c 595 548 m 2 X s 612 548 m 3 X s black 605 548 m20 0 0 0.6 c 615 548 m 3 X s 633 548 m 2 X s black 625 548 m20 0 0 0.6 c 635
 548 m 3 X s 653 548 m 3 X s black 646 548 m20 0 0 0.6 c 656 548 m 3 X s 674 548 m 2 X s black 666 548 m20 165 131 m 511 X s
 gsave  710 691 23 7 C 576.41 83.4277 t 0 r /Helvetica findfont 26.586 sf 0 0 m ( \(GeV/c\)) show NC gr 
 gsave  710 691 23 7 C 515.735 96.7003 t 0 r /Helvetica findfont 17.091 sf 0 0 m (charged) show NC gr 
 gsave  710 691 23 7 C 515.735 70.1551 t 0 r /Helvetica findfont 17.091 sf 0 0 m (T,jet) show NC gr 
 gsave  710 691 23 7 C 498.67 83.4277 t 0 r /Helvetica-Oblique findfont 26.586 sf 0 0 m (p) show NC gr  165 146 m -15 Y s 175 139 m -8 Y s 185 139 m -8 Y s 195 139 m -8 Y s 206 139 m -8 Y s 216 146 m -15 Y s 226 139 m -8 Y s 236 139 m -8 Y s 247 139
 m -8 Y s 257 139 m -8 Y s 267 146 m -15 Y s 277 139 m -8 Y s 288 139 m -8 Y s 298 139 m -8 Y s 308 139 m -8 Y s 318 146 m -15 Y s 328 139 m -8 Y s 339 139 m -8 Y s 349 139 m -8 Y s 359 139 m -8 Y s 369 146 m -15 Y s 380 139 m -8 Y s 390 139 m -8 Y s
 400 139 m -8 Y s 410 139 m -8 Y s 421 146 m -15 Y s 431 139 m -8 Y s 441 139 m -8 Y s 451 139 m -8 Y s 462 139 m -8 Y s 472 146 m -15 Y s 482 139 m -8 Y s 492 139 m -8 Y s 502 139 m -8 Y s 513 139 m -8 Y s 523 146 m -15 Y s 533 139 m -8 Y s 543 139
 m -8 Y s 554 139 m -8 Y s 564 139 m -8 Y s 574 146 m -15 Y s 584 139 m -8 Y s 595 139 m -8 Y s 605 139 m -8 Y s 615 139 m -8 Y s 625 146 m -15 Y s 635 139 m -8 Y s 646 139 m -8 Y s 656 139 m -8 Y s 666 139 m -8 Y s 676 146 m -15 Y s
 gsave  710 691 23 7 C 155.479 109.973 t 0 r /Helvetica findfont 22.788 sf 0 0 m (0) show NC gr 
 gsave  710 691 23 7 C 206.673 109.973 t 0 r /Helvetica findfont 22.788 sf 0 0 m (5) show NC gr 
 gsave  710 691 23 7 C 252.179 109.973 t 0 r /Helvetica findfont 22.788 sf 0 0 m (10) show NC gr 
 gsave  710 691 23 7 C 303.373 109.973 t 0 r /Helvetica findfont 22.788 sf 0 0 m (15) show NC gr 
 gsave  710 691 23 7 C 354.568 109.973 t 0 r /Helvetica findfont 22.788 sf 0 0 m (20) show NC gr 
 gsave  710 691 23 7 C 405.762 109.973 t 0 r /Helvetica findfont 22.788 sf 0 0 m (25) show NC gr 
 gsave  710 691 23 7 C 456.956 109.973 t 0 r /Helvetica findfont 22.788 sf 0 0 m (30) show NC gr 
 gsave  710 691 23 7 C 508.151 109.973 t 0 r /Helvetica findfont 22.788 sf 0 0 m (35) show NC gr 
 gsave  710 691 23 7 C 559.345 109.973 t 0 r /Helvetica findfont 22.788 sf 0 0 m (40) show NC gr 
 gsave  710 691 23 7 C 610.539 109.973 t 0 r /Helvetica findfont 22.788 sf 0 0 m (45) show NC gr 
 gsave  710 691 23 7 C 661.733 109.973 t 0 r /Helvetica findfont 22.788 sf 0 0 m (50) show NC gr  165 131 m 553 Y s
 gsave  710 691 23 7 C 121.349 557.449 t 90 r /Helvetica findfont 26.586 sf 0 0 m ( > 5 GeV/c) show NC gr 
 gsave  710 691 23 7 C 111.869 510.047 t 90 r /Helvetica findfont 17.091 sf 0 0 m (min) show NC gr 
 gsave  710 691 23 7 C 134.622 510.047 t 90 r /Helvetica findfont 17.091 sf 0 0 m (T,lead) show NC gr 
 gsave  710 691 23 7 C 121.349 492.982 t 90 r /Helvetica-Oblique findfont 26.586 sf 0 0 m (p) show NC gr 
 gsave  710 691 23 7 C 121.349 343.191 t 90 r /Helvetica findfont 26.586 sf 0 0 m ( > 7 GeV/c / ) show NC gr 
 gsave  710 691 23 7 C 111.869 295.789 t 90 r /Helvetica findfont 17.091 sf 0 0 m (min) show NC gr 
 gsave  710 691 23 7 C 134.622 295.789 t 90 r /Helvetica findfont 17.091 sf 0 0 m (T,lead) show NC gr 
 gsave  710 691 23 7 C 121.349 278.724 t 90 r /Helvetica-Oblique findfont 26.586 sf 0 0 m (p) show NC gr  173 213 m -8 X s 173 297 m -8 X s 173 357 m -8 X s 173 404 m -8 X s 173 442 m -8 X s 173 474 m -8 X s 173 502 m -8 X s 173 526 m -8 X s 182 548
 m -17 X s
 gsave  710 691 23 7 C 159.245 539.385 t 0 r  -12 0 t /Helvetica findfont 22.788 sf 0 0 m (1) show NC gr  1 1 1 c black
 gsave  710 691 23 7 C 335.607 665.525 t 0 r /Helvetica findfont 30.384 sf 0 0 m (R=0.2) show NC gr  1 1 1 c black
 gsave  710 691 23 7 C 335.607 665.525 t 0 r /Helvetica findfont 30.384 sf 0 0 m (R=0.2) show NC gr  1 1 1 c 710 691 779 7 bf black 1 1 1 c 511 553 921 131 bf black 511 553 921 131 bl 0 0 0.6 c 1 1 1 c black 0 0 0.6 c 982 258 m 3 X s 1000 258 m 3 X s
 black 992 258 m20 0 0 0.6 c 1003 404 m 2 X s 1020 404 m 3 X s black 1013 404 m20 0 0 0.6 c 1023 440 m 3 X s 1041 440 m 2 X s black 1033 440 m20 0 0 0.6 c 1043 475 m 3 X s 1061 475 m 3 X s black 1054 475 m20 0 0 0.6 c 1064 502 m 3 X s 1082 502 m 2 X
 s black 1074 502 m20 0 0 0.6 c 1095 508 m 9 Y s 1095 532 m 8 Y s 1084 525 m 3 X s 1102 525 m 3 X s black 1095 525 m20 0 0 0.6 c 1105 535 m 3 X s 1123 535 m 2 X s black 1115 535 m20 0 0 0.6 c 1125 546 m 3 X s 1143 546 m 3 X s black 1136 546 m20 0 0
 0.6 c 1146 554 m 2 X s 1164 554 m 2 X s black 1156 554 m20 0 0 0.6 c 1166 558 m 3 X s 1184 558 m 3 X s black 1176 558 m20 0 0 0.6 c 1187 562 m 2 X s 1205 562 m 2 X s black 1197 562 m20 0 0 0.6 c 1207 564 m 3 X s 1225 564 m 3 X s black 1217 564 m20 0
 0 0.6 c 1228 565 m 2 X s 1245 565 m 3 X s black 1238 565 m20 0 0 0.6 c 1248 566 m 3 X s 1266 566 m 3 X s black 1258 566 m20 0 0 0.6 c 1269 567 m 2 X s 1286 567 m 3 X s black 1279 567 m20 0 0 0.6 c 1289 567 m 3 X s 1307 567 m 3 X s black 1299 567 m20
 0 0 0.6 c 1310 567 m 2 X s 1327 567 m 3 X s black 1320 567 m20 0 0 0.6 c 1330 567 m 3 X s 1348 567 m 2 X s black 1340 567 m20 0 0 0.6 c 1350 568 m 3 X s 1368 568 m 3 X s black 1361 568 m20 0 0 0.6 c 1371 568 m 3 X s 1389 568 m 2 X s black 1381 568
 m20 0 0 0.6 c 1391 568 m 3 X s 1409 568 m 3 X s black 1402 568 m20 0 0 0.6 c 1412 568 m 2 X s 1430 568 m 2 X s black 1422 568 m20 921 131 m 511 X s
 gsave  710 691 779 7 C 1332.95 83.4277 t 0 r /Helvetica findfont 26.586 sf 0 0 m ( \(GeV/c\)) show NC gr 
 gsave  710 691 779 7 C 1272.27 96.7003 t 0 r /Helvetica findfont 17.091 sf 0 0 m (charged) show NC gr 
 gsave  710 691 779 7 C 1272.27 70.1551 t 0 r /Helvetica findfont 17.091 sf 0 0 m (T,jet) show NC gr 
 gsave  710 691 779 7 C 1255.21 83.4277 t 0 r /Helvetica-Oblique findfont 26.586 sf 0 0 m (p) show NC gr  921 146 m -15 Y s 931 139 m -8 Y s 941 139 m -8 Y s 951 139 m -8 Y s 962 139 m -8 Y s 972 146 m -15 Y s 982 139 m -8 Y s 992 139 m -8 Y s 1003
 139 m -8 Y s 1013 139 m -8 Y s 1023 146 m -15 Y s 1033 139 m -8 Y s 1043 139 m -8 Y s 1054 139 m -8 Y s 1064 139 m -8 Y s 1074 146 m -15 Y s 1084 139 m -8 Y s 1095 139 m -8 Y s 1105 139 m -8 Y s 1115 139 m -8 Y s 1125 146 m -15 Y s 1136 139 m -8 Y s
 1146 139 m -8 Y s 1156 139 m -8 Y s 1166 139 m -8 Y s 1176 146 m -15 Y s 1187 139 m -8 Y s 1197 139 m -8 Y s 1207 139 m -8 Y s 1217 139 m -8 Y s 1228 146 m -15 Y s 1238 139 m -8 Y s 1248 139 m -8 Y s 1258 139 m -8 Y s 1269 139 m -8 Y s 1279 146 m
 -15 Y s 1289 139 m -8 Y s 1299 139 m -8 Y s 1310 139 m -8 Y s 1320 139 m -8 Y s 1330 146 m -15 Y s 1340 139 m -8 Y s 1350 139 m -8 Y s 1361 139 m -8 Y s 1371 139 m -8 Y s 1381 146 m -15 Y s 1391 139 m -8 Y s 1402 139 m -8 Y s 1412 139 m -8 Y s 1422
 139 m -8 Y s 1432 146 m -15 Y s
 gsave  710 691 779 7 C 912.016 109.973 t 0 r /Helvetica findfont 22.788 sf 0 0 m (0) show NC gr 
 gsave  710 691 779 7 C 963.211 109.973 t 0 r /Helvetica findfont 22.788 sf 0 0 m (5) show NC gr 
 gsave  710 691 779 7 C 1008.72 109.973 t 0 r /Helvetica findfont 22.788 sf 0 0 m (10) show NC gr 
 gsave  710 691 779 7 C 1059.91 109.973 t 0 r /Helvetica findfont 22.788 sf 0 0 m (15) show NC gr 
 gsave  710 691 779 7 C 1111.11 109.973 t 0 r /Helvetica findfont 22.788 sf 0 0 m (20) show NC gr 
 gsave  710 691 779 7 C 1162.3 109.973 t 0 r /Helvetica findfont 22.788 sf 0 0 m (25) show NC gr 
 gsave  710 691 779 7 C 1213.49 109.973 t 0 r /Helvetica findfont 22.788 sf 0 0 m (30) show NC gr 
 gsave  710 691 779 7 C 1264.69 109.973 t 0 r /Helvetica findfont 22.788 sf 0 0 m (35) show NC gr 
 gsave  710 691 779 7 C 1315.88 109.973 t 0 r /Helvetica findfont 22.788 sf 0 0 m (40) show NC gr 
 gsave  710 691 779 7 C 1367.08 109.973 t 0 r /Helvetica findfont 22.788 sf 0 0 m (45) show NC gr 
 gsave  710 691 779 7 C 1418.27 109.973 t 0 r /Helvetica findfont 22.788 sf 0 0 m (50) show NC gr  921 131 m 553 Y s
 gsave  710 691 779 7 C 877.887 557.449 t 90 r /Helvetica findfont 26.586 sf 0 0 m ( > 5 GeV/c) show NC gr 
 gsave  710 691 779 7 C 868.406 510.047 t 90 r /Helvetica findfont 17.091 sf 0 0 m (min) show NC gr 
 gsave  710 691 779 7 C 891.159 510.047 t 90 r /Helvetica findfont 17.091 sf 0 0 m (T,lead) show NC gr 
 gsave  710 691 779 7 C 877.887 492.982 t 90 r /Helvetica-Oblique findfont 26.586 sf 0 0 m (p) show NC gr 
 gsave  710 691 779 7 C 877.887 343.191 t 90 r /Helvetica findfont 26.586 sf 0 0 m ( > 7 GeV/c / ) show NC gr 
 gsave  710 691 779 7 C 868.406 295.789 t 90 r /Helvetica findfont 17.091 sf 0 0 m (min) show NC gr 
 gsave  710 691 779 7 C 891.159 295.789 t 90 r /Helvetica findfont 17.091 sf 0 0 m (T,lead) show NC gr 
 gsave  710 691 779 7 C 877.887 278.724 t 90 r /Helvetica-Oblique findfont 26.586 sf 0 0 m (p) show NC gr  929 135 m -8 X s 938 154 m -17 X s
 gsave  710 691 779 7 C 908.224 155.479 t 0 r /Helvetica findfont 15.192 sf 0 0 m (1) show NC gr 
 gsave  710 691 779 7 C 898.744 155.479 t 0 r /Symbol findfont 15.192 sf 0 0 m (-) show NC gr 
 gsave  710 691 779 7 C 874.095 144.102 t 0 r /Helvetica findfont 22.788 sf 0 0 m (10) show NC gr  929 278 m -8 X s 929 351 m -8 X s 929 403 m -8 X s 929 443 m -8 X s 929 476 m -8 X s 929 504 m -8 X s 929 528 m -8 X s 929 549 m -8 X s 938 568 m -17 X
 s
 gsave  710 691 779 7 C 915.151 558.563 t 0 r  -12 0 t /Helvetica findfont 22.788 sf 0 0 m (1) show NC gr  1 1 1 c black
 gsave  710 691 779 7 C 1092.14 665.525 t 0 r /Helvetica findfont 30.384 sf 0 0 m (R=0.3) show NC gr  1 1 1 c black
 gsave  710 691 779 7 C 1092.14 665.525 t 0 r /Helvetica findfont 30.384 sf 0 0 m (R=0.3) show NC gr  1 1 1 c 711 691 1534 7 bf black 1 1 1 c 511 553 1677 131 bf black 511 553 1677 131 bl 0 0 0.6 c 1 1 1 c black 0 0 0.6 c 1738 245 m 3 X s 1756 245 m
 2 X s black /w 16 def /w2 {w 2 div} def /w3 {w 3 div} def 1748 245 m20 0 0 0.6 c 1758 409 m 3 X s 1776 409 m 3 X s black 1769 409 m20 0 0 0.6 c 1779 451 m 3 X s 1797 451 m 2 X s black 1789 451 m20 0 0 0.6 c 1799 484 m 3 X s 1817 484 m 3 X s black
 1810 484 m20 0 0 0.6 c 1820 510 m 2 X s 1838 510 m 2 X s black 1830 510 m20 0 0 0.6 c 1840 530 m 3 X s 1858 530 m 3 X s black 1851 530 m20 0 0 0.6 c 1861 544 m 2 X s 1879 544 m 2 X s black 1871 544 m20 0 0 0.6 c 1881 555 m 3 X s 1899 555 m 3 X s
 black 1891 555 m20 0 0 0.6 c 1902 563 m 2 X s 1920 563 m 2 X s black 1912 563 m20 0 0 0.6 c 1922 569 m 3 X s 1940 569 m 3 X s black 1932 569 m20 0 0 0.6 c 1943 573 m 2 X s 1960 573 m 3 X s black 1953 573 m20 0 0 0.6 c 1963 576 m 3 X s 1981 576 m 3 X
 s black 1973 576 m20 0 0 0.6 c 1984 578 m 2 X s 2001 578 m 3 X s black 1994 578 m20 0 0 0.6 c 2004 579 m 3 X s 2022 579 m 2 X s black 2014 579 m20 0 0 0.6 c 2024 579 m 3 X s 2042 579 m 3 X s black 2035 579 m20 0 0 0.6 c 2045 580 m 3 X s 2063 580 m 2
 X s black 2055 580 m20 0 0 0.6 c 2065 580 m 3 X s 2083 580 m 3 X s black 2076 580 m20 0 0 0.6 c 2086 580 m 3 X s 2104 580 m 2 X s black 2096 580 m20 0 0 0.6 c 2106 581 m 3 X s 2124 581 m 3 X s black 2117 581 m20 0 0 0.6 c 2127 581 m 2 X s 2145 581 m
 2 X s black 2137 581 m20 0 0 0.6 c 2147 581 m 3 X s 2165 581 m 3 X s black 2157 581 m20 0 0 0.6 c 2168 581 m 2 X s 2186 581 m 2 X s black 2178 581 m20 1677 131 m 511 X s
 gsave  711 691 1534 7 C 2089.48 83.4277 t 0 r /Helvetica findfont 26.586 sf 0 0 m ( \(GeV/c\)) show NC gr 
 gsave  711 691 1534 7 C 2028.81 96.7003 t 0 r /Helvetica findfont 17.091 sf 0 0 m (charged) show NC gr 
 gsave  711 691 1534 7 C 2028.81 70.1551 t 0 r /Helvetica findfont 17.091 sf 0 0 m (T,jet) show NC gr 
 gsave  711 691 1534 7 C 2011.75 83.4277 t 0 r /Helvetica-Oblique findfont 26.586 sf 0 0 m (p) show NC gr  1677 146 m -15 Y s 1687 139 m -8 Y s 1697 139 m -8 Y s 1707 139 m -8 Y s 1718 139 m -8 Y s 1728 146 m -15 Y s 1738 139 m -8 Y s 1748 139 m -8 Y
 s 1758 139 m -8 Y s 1769 139 m -8 Y s 1779 146 m -15 Y s 1789 139 m -8 Y s 1799 139 m -8 Y s 1810 139 m -8 Y s 1820 139 m -8 Y s 1830 146 m -15 Y s 1840 139 m -8 Y s 1851 139 m -8 Y s 1861 139 m -8 Y s 1871 139 m -8 Y s 1881 146 m -15 Y s 1891 139 m
 -8 Y s 1902 139 m -8 Y s 1912 139 m -8 Y s 1922 139 m -8 Y s 1932 146 m -15 Y s 1943 139 m -8 Y s 1953 139 m -8 Y s 1963 139 m -8 Y s 1973 139 m -8 Y s 1984 146 m -15 Y s 1994 139 m -8 Y s 2004 139 m -8 Y s 2014 139 m -8 Y s 2024 139 m -8 Y s 2035
 146 m -15 Y s 2045 139 m -8 Y s 2055 139 m -8 Y s 2065 139 m -8 Y s 2076 139 m -8 Y s 2086 146 m -15 Y s 2096 139 m -8 Y s 2106 139 m -8 Y s 2117 139 m -8 Y s 2127 139 m -8 Y s 2137 146 m -15 Y s 2147 139 m -8 Y s 2157 139 m -8 Y s 2168 139 m -8 Y s
 2178 139 m -8 Y s 2188 146 m -15 Y s
 gsave  711 691 1534 7 C 1668.55 109.973 t 0 r /Helvetica findfont 22.788 sf 0 0 m (0) show NC gr 
 gsave  711 691 1534 7 C 1719.75 109.973 t 0 r /Helvetica findfont 22.788 sf 0 0 m (5) show NC gr 
 gsave  711 691 1534 7 C 1765.25 109.973 t 0 r /Helvetica findfont 22.788 sf 0 0 m (10) show NC gr 
 gsave  711 691 1534 7 C 1816.45 109.973 t 0 r /Helvetica findfont 22.788 sf 0 0 m (15) show NC gr 
 gsave  711 691 1534 7 C 1867.64 109.973 t 0 r /Helvetica findfont 22.788 sf 0 0 m (20) show NC gr 
 gsave  711 691 1534 7 C 1918.84 109.973 t 0 r /Helvetica findfont 22.788 sf 0 0 m (25) show NC gr 
 gsave  711 691 1534 7 C 1970.03 109.973 t 0 r /Helvetica findfont 22.788 sf 0 0 m (30) show NC gr 
 gsave  711 691 1534 7 C 2021.23 109.973 t 0 r /Helvetica findfont 22.788 sf 0 0 m (35) show NC gr 
 gsave  711 691 1534 7 C 2072.42 109.973 t 0 r /Helvetica findfont 22.788 sf 0 0 m (40) show NC gr 
 gsave  711 691 1534 7 C 2123.61 109.973 t 0 r /Helvetica findfont 22.788 sf 0 0 m (45) show NC gr 
 gsave  711 691 1534 7 C 2174.81 109.973 t 0 r /Helvetica findfont 22.788 sf 0 0 m (50) show NC gr  1677 131 m 553 Y s
 gsave  711 691 1534 7 C 1634.42 557.449 t 90 r /Helvetica findfont 26.586 sf 0 0 m ( > 5 GeV/c) show NC gr 
 gsave  711 691 1534 7 C 1624.94 510.047 t 90 r /Helvetica findfont 17.091 sf 0 0 m (min) show NC gr 
 gsave  711 691 1534 7 C 1647.7 510.047 t 90 r /Helvetica findfont 17.091 sf 0 0 m (T,lead) show NC gr 
 gsave  711 691 1534 7 C 1634.42 492.982 t 90 r /Helvetica-Oblique findfont 26.586 sf 0 0 m (p) show NC gr 
 gsave  711 691 1534 7 C 1634.42 343.191 t 90 r /Helvetica findfont 26.586 sf 0 0 m ( > 7 GeV/c / ) show NC gr 
 gsave  711 691 1534 7 C 1624.94 295.789 t 90 r /Helvetica findfont 17.091 sf 0 0 m (min) show NC gr 
 gsave  711 691 1534 7 C 1647.7 295.789 t 90 r /Helvetica findfont 17.091 sf 0 0 m (T,lead) show NC gr 
 gsave  711 691 1534 7 C 1634.42 278.724 t 90 r /Helvetica-Oblique findfont 26.586 sf 0 0 m (p) show NC gr  1685 156 m -8 X s 1685 177 m -8 X s 1685 196 m -8 X s 1694 213 m -17 X s
 gsave  711 691 1534 7 C 1664.76 214.257 t 0 r /Helvetica findfont 15.192 sf 0 0 m (1) show NC gr 
 gsave  711 691 1534 7 C 1655.28 214.257 t 0 r /Symbol findfont 15.192 sf 0 0 m (-) show NC gr 
 gsave  711 691 1534 7 C 1630.63 202.881 t 0 r /Helvetica findfont 22.788 sf 0 0 m (10) show NC gr  1685 324 m -8 X s 1685 388 m -8 X s 1685 434 m -8 X s 1685 470 m -8 X s 1685 499 m -8 X s 1685 524 m -8 X s 1685 545 m -8 X s 1685 564 m -8 X s 1694
 581 m -17 X s
 gsave  711 691 1534 7 C 1671.06 571.637 t 0 r  -12 0 t /Helvetica findfont 22.788 sf 0 0 m (1) show NC gr  1 1 1 c black
 gsave  711 691 1534 7 C 1846.79 665.525 t 0 r /Helvetica findfont 30.384 sf 0 0 m (R=0.4) show NC gr  1 1 1 c black
 gsave  711 691 1534 7 C 1846.79 665.525 t 0 r /Helvetica findfont 30.384 sf 0 0 m (R=0.4) show NC gr 
 gr  gr showpage
end
%%EOF
