%!PS-Adobe-2.0 EPSF-2.0
%%BoundingBox:  0 0 567 425
%%Title: obr/ptleading_ratios_pythia_one.eps: pt leading spectra ratios
%%Creator: ROOT Version 5.34/38
%%CreationDate: Thu May 28 15:19:02 2020
%%EndComments
%%BeginProlog
80 dict begin
/s {stroke} def /l {lineto} def /m {moveto} def /t {translate} def
/r {rotate} def /rl {roll}  def /R {repeat} def
/d {rlineto} def /rm {rmoveto} def /gr {grestore} def /f {eofill} def
/c {setrgbcolor} def /black {0 setgray} def /sd {setdash} def
/cl {closepath} def /sf {scalefont setfont} def /lw {setlinewidth} def
/box {m dup 0 exch d exch 0 d 0 exch neg d cl} def
/NC{systemdict begin initclip end}def/C{NC box clip newpath}def
/bl {box s} def /bf {gsave box gsave f grestore 1 lw [] 0 sd s grestore} def /Y { 0 exch d} def /X { 0 d} def 
/K {{pop pop 0 moveto} exch kshow} bind def
/ita {/ang 15 def gsave [1 0 ang dup sin exch cos div 1 0 0] concat} def 
/mp {newpath /y exch def /x exch def} def
/side {[w .77 mul w .23 mul] .385 w mul sd w 0 l currentpoint t -144 r} def
/mr {mp x y w2 0 360 arc} def /m24 {mr s} def /m20 {mr f} def
/mb {mp x y w2 add m w2 neg 0 d 0 w neg d w 0 d 0 w d cl} def
/mt {mp x y w2 add m w2 neg w neg d w 0 d cl} def
/m21 {mb f} def /m25 {mb s} def /m22 {mt f} def /m26{mt s} def
/m23 {mp x y w2 sub m w2 w d w neg 0 d cl f} def
/m27 {mp x y w2 add m w3 neg w2 neg d w3 w2 neg d w3 w2 d cl s} def
/m28 {mp x w2 sub y w2 sub w3 add m w3 0 d  0 w3 neg d w3 0 d 0 w3 d w3 0 d  0 w3 d w3 neg 0 d 0 w3 d w3 neg 0 d 0 w3 neg d w3 neg 0 d cl s } def
/m29 {mp gsave x w2 sub y w2 add w3 sub m currentpoint t 4 {side} repeat cl fill gr} def
/m30 {mp gsave x w2 sub y w2 add w3 sub m currentpoint t 4 {side} repeat cl s gr} def
/m31 {mp x y w2 sub m 0 w d x w2 sub y m w 0 d x w2 sub y w2 add m w w neg d x w2 sub y w2 sub m w w d s} def
/m32 {mp x y w2 sub m w2 w d w neg 0 d cl s} def
/m33 {mp x y w2 add m w3 neg w2 neg d w3 w2 neg d w3 w2 d cl f} def
/m34 {mp x w2 sub y w2 sub w3 add m w3 0 d  0 w3 neg d w3 0 d 0 w3 d w3 0 d  0 w3 d w3 neg 0 d 0 w3 d w3 neg 0 d 0 w3 neg d w3 neg 0 d cl f } def
/m2 {mp x y w2 sub m 0 w d x w2 sub y m w 0 d s} def
/m5 {mp x w2 sub y w2 sub m w w d x w2 sub y w2 add m w w neg d s} def
/reEncode {exch findfont dup length dict begin {1 index /FID eq  {pop pop} {def} ifelse } forall /Encoding exch def currentdict end dup /FontName get exch definefont pop } def [/Times-Bold /Times-Italic /Times-BoldItalic /Helvetica /Helvetica-Oblique
 /Helvetica-Bold /Helvetica-BoldOblique /Courier /Courier-Oblique /Courier-Bold /Courier-BoldOblique /Times-Roman /AvantGarde-Book /AvantGarde-BookOblique /AvantGarde-Demi /AvantGarde-DemiOblique /Bookman-Demi /Bookman-DemiItalic /Bookman-Light
 /Bookman-LightItalic /Helvetica-Narrow /Helvetica-Narrow-Bold /Helvetica-Narrow-BoldOblique /Helvetica-Narrow-Oblique /NewCenturySchlbk-Roman /NewCenturySchlbk-Bold /NewCenturySchlbk-BoldItalic /NewCenturySchlbk-Italic /Palatino-Bold
 /Palatino-BoldItalic /Palatino-Italic /Palatino-Roman ] {ISOLatin1Encoding reEncode } forall
%%EndProlog
%%BeginSetup
%%EndSetup
newpath  gsave  .25 .25 scale  gsave  0 0 t black[  ] 0 sd 3 lw 1 1 1 c 2268 1701 0 0 bf black 1 1 1 c 1632 1361 454 306 bf black 1632 1361 454 306 bl 0 0 0.6 c 1 1 1 c black 0 0 0.6 c 649 813 m 15 X s 700 813 m 15 X s black /w 37 def /w2 {w 2 div}
 def /w3 {w 3 div} def 682 813 m20 0 0 0.6 c 715 1130 m 14 X s 766 1130 m 14 X s black 747 1130 m20 0 0 0.6 c 780 1183 m 14 X s 831 1183 m 14 X s black 813 1183 m20 0 0 0.6 c 845 1278 m 15 X s 896 1278 m 15 X s black 878 1278 m20 0 0 0.6 c 911 1338 m
 14 X s 962 1338 m 14 X s black 943 1338 m20 0 0 0.6 c 1009 1329 m 38 Y s 1009 1403 m 33 Y s 976 1385 m 14 X s 1027 1385 m 14 X s black 1009 1385 m20 0 0 0.6 c 1041 1407 m 15 X s 1092 1407 m 15 X s black 1074 1407 m20 0 0 0.6 c 1107 1428 m 14 X s
 1158 1428 m 14 X s black 1139 1428 m20 0 0 0.6 c 1172 1442 m 14 X s 1223 1442 m 14 X s black 1205 1442 m20 0 0 0.6 c 1237 1449 m 15 X s 1288 1449 m 15 X s black 1270 1449 m20 0 0 0.6 c 1303 1455 m 14 X s 1354 1455 m 14 X s black 1335 1455 m20 0 0
 0.6 c 1368 1458 m 14 X s 1419 1458 m 14 X s black 1401 1458 m20 0 0 0.6 c 1433 1460 m 15 X s 1484 1460 m 15 X s black 1466 1460 m20 0 0 0.6 c 1499 1462 m 14 X s 1549 1462 m 15 X s black 1531 1462 m20 0 0 0.6 c 1564 1462 m 14 X s 1615 1462 m 14 X s
 black 1596 1462 m20 0 0 0.6 c 1629 1463 m 14 X s 1680 1463 m 14 X s black 1662 1463 m20 0 0 0.6 c 1694 1463 m 15 X s 1745 1463 m 15 X s black 1727 1463 m20 0 0 0.6 c 1760 1463 m 14 X s 1811 1463 m 14 X s black 1792 1463 m20 0 0 0.6 c 1825 1463 m 14
 X s 1876 1463 m 14 X s black 1858 1463 m20 0 0 0.6 c 1890 1463 m 15 X s 1941 1463 m 15 X s black 1923 1463 m20 0 0 0.6 c 1956 1463 m 14 X s 2007 1463 m 14 X s black 1988 1463 m20 0 0 0.6 c 2021 1463 m 14 X s 2072 1463 m 14 X s black 2054 1463 m20
 454 306 m 1632 X s
 gsave  2268 1701 0 0 C 1847.09 187.452 t 0 r /Helvetica findfont 64.0081 sf 0 0 m ( \(GeV/c\)) show NC gr 
 gsave  2268 1701 0 0 C 1700.79 219.456 t 0 r /Helvetica findfont 41.1481 sf 0 0 m (charged) show NC gr 
 gsave  2268 1701 0 0 C 1700.79 155.448 t 0 r /Helvetica findfont 41.1481 sf 0 0 m (T,jet) show NC gr 
 gsave  2268 1701 0 0 C 1659.64 187.452 t 0 r /Helvetica-Oblique findfont 64.0081 sf 0 0 m (p) show NC gr  454 343 m -37 Y s 486 325 m -19 Y s 519 325 m -19 Y s 552 325 m -19 Y s 584 325 m -19 Y s 617 343 m -37 Y s 649 325 m -19 Y s 682 325 m -19 Y s
 715 325 m -19 Y s 747 325 m -19 Y s 780 343 m -37 Y s 813 325 m -19 Y s 845 325 m -19 Y s 878 325 m -19 Y s 911 325 m -19 Y s 943 343 m -37 Y s 976 325 m -19 Y s 1009 325 m -19 Y s 1041 325 m -19 Y s 1074 325 m -19 Y s 1107 343 m -37 Y s 1139 325 m
 -19 Y s 1172 325 m -19 Y s 1205 325 m -19 Y s 1237 325 m -19 Y s 1270 343 m -37 Y s 1303 325 m -19 Y s 1335 325 m -19 Y s 1368 325 m -19 Y s 1401 325 m -19 Y s 1433 343 m -37 Y s 1466 325 m -19 Y s 1499 325 m -19 Y s 1531 325 m -19 Y s 1564 325 m
 -19 Y s 1596 343 m -37 Y s 1629 325 m -19 Y s 1662 325 m -19 Y s 1694 325 m -19 Y s 1727 325 m -19 Y s 1760 343 m -37 Y s 1792 325 m -19 Y s 1825 325 m -19 Y s 1858 325 m -19 Y s 1890 325 m -19 Y s 1923 343 m -37 Y s 1956 325 m -19 Y s 1988 325 m
 -19 Y s 2021 325 m -19 Y s 2054 325 m -19 Y s 2086 343 m -37 Y s
 gsave  2268 1701 0 0 C 434.341 251.461 t 0 r /Helvetica findfont 54.8641 sf 0 0 m (0) show NC gr 
 gsave  2268 1701 0 0 C 594.361 251.461 t 0 r /Helvetica findfont 54.8641 sf 0 0 m (5) show NC gr 
 gsave  2268 1701 0 0 C 745.237 251.461 t 0 r /Helvetica findfont 54.8641 sf 0 0 m (10) show NC gr 
 gsave  2268 1701 0 0 C 909.83 251.461 t 0 r /Helvetica findfont 54.8641 sf 0 0 m (15) show NC gr 
 gsave  2268 1701 0 0 C 1074.42 251.461 t 0 r /Helvetica findfont 54.8641 sf 0 0 m (20) show NC gr 
 gsave  2268 1701 0 0 C 1234.44 251.461 t 0 r /Helvetica findfont 54.8641 sf 0 0 m (25) show NC gr 
 gsave  2268 1701 0 0 C 1399.03 251.461 t 0 r /Helvetica findfont 54.8641 sf 0 0 m (30) show NC gr 
 gsave  2268 1701 0 0 C 1563.63 251.461 t 0 r /Helvetica findfont 54.8641 sf 0 0 m (35) show NC gr 
 gsave  2268 1701 0 0 C 1723.65 251.461 t 0 r /Helvetica findfont 54.8641 sf 0 0 m (40) show NC gr 
 gsave  2268 1701 0 0 C 1888.24 251.461 t 0 r /Helvetica findfont 54.8641 sf 0 0 m (45) show NC gr 
 gsave  2268 1701 0 0 C 2052.83 251.461 t 0 r /Helvetica findfont 54.8641 sf 0 0 m (50) show NC gr  454 306 m 1361 Y s
 gsave  2268 1701 0 0 C 315.469 1362.46 t 90 r /Helvetica findfont 64.0081 sf 0 0 m ( > 5 GeV/c) show NC gr 
 gsave  2268 1701 0 0 C 292.609 1248.16 t 90 r /Helvetica findfont 41.1481 sf 0 0 m (min) show NC gr 
 gsave  2268 1701 0 0 C 347.473 1248.16 t 90 r /Helvetica findfont 41.1481 sf 0 0 m (T,lead) show NC gr 
 gsave  2268 1701 0 0 C 315.469 1207.01 t 90 r /Helvetica-Oblique findfont 64.0081 sf 0 0 m (p) show NC gr 
 gsave  2268 1701 0 0 C 315.469 845.822 t 90 r /Helvetica findfont 64.0081 sf 0 0 m ( > 7 GeV/c / ) show NC gr 
 gsave  2268 1701 0 0 C 292.609 731.521 t 90 r /Helvetica findfont 41.1481 sf 0 0 m (min) show NC gr 
 gsave  2268 1701 0 0 C 347.473 731.521 t 90 r /Helvetica findfont 41.1481 sf 0 0 m (T,lead) show NC gr 
 gsave  2268 1701 0 0 C 315.469 690.373 t 90 r /Helvetica-Oblique findfont 64.0081 sf 0 0 m (p) show NC gr  508 306 m -54 X s
 gsave  2268 1701 0 0 C 420.625 306.325 t 0 r /Helvetica findfont 36.5761 sf 0 0 m (1) show NC gr 
 gsave  2268 1701 0 0 C 397.765 306.325 t 0 r /Symbol findfont 36.5761 sf 0 0 m (-) show NC gr 
 gsave  2268 1701 0 0 C 338.329 278.893 t 0 r /Helvetica findfont 54.8641 sf 0 0 m (10) show NC gr  481 654 m -27 X s 481 858 m -27 X s 481 1003 m -27 X s 481 1115 m -27 X s 481 1206 m -27 X s 481 1284 m -27 X s 481 1351 m -27 X s 481 1410 m -27 X s
 508 1463 m -54 X s
 gsave  2268 1701 0 0 C 435.855 1439.28 t 0 r  -30 0 t /Helvetica findfont 54.8641 sf 0 0 m (1) show NC gr  1 1 1 c black
 gsave  2268 1701 0 0 C 1033.27 1618.49 t 0 r /Helvetica findfont 73.1521 sf 0 0 m (R=0.2) show NC gr  0 0 0.6 c 1 1 1 c 1 0 0 c 0 0 0.6 c 649 599 m 15 X s 700 599 m 15 X s 1 0 0 c 682 599 m21 0 0 0.6 c 715 1004 m 14 X s 766 1004 m 14 X s 1 0 0 c 747
 1004 m21 0 0 0.6 c 780 1106 m 14 X s 831 1106 m 14 X s 1 0 0 c 813 1106 m21 0 0 0.6 c 845 1204 m 15 X s 896 1204 m 15 X s 1 0 0 c 878 1204 m21 0 0 0.6 c 911 1279 m 14 X s 962 1279 m 14 X s 1 0 0 c 943 1279 m21 0 0 0.6 c 1009 1297 m 27 Y s 1009 1361
 m 24 Y s 976 1343 m 14 X s 1027 1343 m 14 X s 1 0 0 c 1009 1343 m21 0 0 0.6 c 1041 1373 m 15 X s 1092 1373 m 15 X s 1 0 0 c 1074 1373 m21 0 0 0.6 c 1107 1403 m 14 X s 1158 1403 m 14 X s 1 0 0 c 1139 1403 m21 0 0 0.6 c 1172 1424 m 14 X s 1223 1424 m
 14 X s 1 0 0 c 1205 1424 m21 0 0 0.6 c 1237 1437 m 15 X s 1288 1437 m 15 X s 1 0 0 c 1270 1437 m21 0 0 0.6 c 1303 1446 m 14 X s 1354 1446 m 14 X s 1 0 0 c 1335 1446 m21 0 0 0.6 c 1368 1453 m 14 X s 1419 1453 m 14 X s 1 0 0 c 1401 1453 m21 0 0 0.6 c
 1433 1457 m 15 X s 1484 1457 m 15 X s 1 0 0 c 1466 1457 m21 0 0 0.6 c 1499 1459 m 14 X s 1549 1459 m 15 X s 1 0 0 c 1531 1459 m21 0 0 0.6 c 1564 1461 m 14 X s 1615 1461 m 14 X s 1 0 0 c 1596 1461 m21 0 0 0.6 c 1629 1462 m 14 X s 1680 1462 m 14 X s 1
 0 0 c 1662 1462 m21 0 0 0.6 c 1694 1462 m 15 X s 1745 1462 m 15 X s 1 0 0 c 1727 1462 m21 0 0 0.6 c 1760 1462 m 14 X s 1811 1462 m 14 X s 1 0 0 c 1792 1462 m21 0 0 0.6 c 1825 1463 m 14 X s 1876 1463 m 14 X s 1 0 0 c 1858 1463 m21 0 0 0.6 c 1890 1463
 m 15 X s 1941 1463 m 15 X s 1 0 0 c 1923 1463 m21 0 0 0.6 c 1956 1463 m 14 X s 2007 1463 m 14 X s 1 0 0 c 1988 1463 m21 0 0 0.6 c 2021 1463 m 14 X s 2072 1463 m 14 X s 1 0 0 c 2054 1463 m21 0 0 0.6 c 1 1 1 c 0 0 1 c 0 0 0.6 c 649 407 m 15 X s 700
 407 m 15 X s 0 0 1 c 682 407 m22 0 0 0.6 c 715 922 m 14 X s 766 922 m 14 X s 0 0 1 c 747 922 m22 0 0 0.6 c 780 1054 m 14 X s 831 1054 m 14 X s 0 0 1 c 813 1054 m22 0 0 0.6 c 845 1159 m 15 X s 896 1159 m 15 X s 0 0 1 c 878 1159 m22 0 0 0.6 c 911 1241
 m 14 X s 962 1241 m 14 X s 0 0 1 c 943 1241 m22 0 0 0.6 c 976 1303 m 14 X s 1027 1303 m 14 X s 0 0 1 c 1009 1303 m22 0 0 0.6 c 1041 1348 m 15 X s 1092 1348 m 15 X s 0 0 1 c 1074 1348 m22 0 0 0.6 c 1107 1383 m 14 X s 1158 1383 m 14 X s 0 0 1 c 1139
 1383 m22 0 0 0.6 c 1172 1408 m 14 X s 1223 1408 m 14 X s 0 0 1 c 1205 1408 m22 0 0 0.6 c 1237 1427 m 15 X s 1288 1427 m 15 X s 0 0 1 c 1270 1427 m22 0 0 0.6 c 1303 1438 m 14 X s 1354 1438 m 14 X s 0 0 1 c 1335 1438 m22 0 0 0.6 c 1368 1447 m 14 X s
 1419 1447 m 14 X s 0 0 1 c 1401 1447 m22 0 0 0.6 c 1433 1453 m 15 X s 1484 1453 m 15 X s 0 0 1 c 1466 1453 m22 0 0 0.6 c 1499 1457 m 14 X s 1549 1457 m 15 X s 0 0 1 c 1531 1457 m22 0 0 0.6 c 1564 1459 m 14 X s 1615 1459 m 14 X s 0 0 1 c 1596 1459
 m22 0 0 0.6 c 1629 1461 m 14 X s 1680 1461 m 14 X s 0 0 1 c 1662 1461 m22 0 0 0.6 c 1694 1461 m 15 X s 1745 1461 m 15 X s 0 0 1 c 1727 1461 m22 0 0 0.6 c 1760 1462 m 14 X s 1811 1462 m 14 X s 0 0 1 c 1792 1462 m22 0 0 0.6 c 1825 1462 m 14 X s 1876
 1462 m 14 X s 0 0 1 c 1858 1462 m22 0 0 0.6 c 1890 1463 m 15 X s 1941 1463 m 15 X s 0 0 1 c 1923 1463 m22 0 0 0.6 c 1956 1463 m 14 X s 2007 1463 m 14 X s 0 0 1 c 1988 1463 m22 0 0 0.6 c 2021 1463 m 14 X s 2072 1463 m 14 X s 0 0 1 c 2054 1463 m22
 black 1 1 1 c 340 425 794 340 bf black
 gsave  2268 1701 0 0 C 937.262 699.517 t 0 r /Helvetica findfont 45.7201 sf 0 0 m ( = 200 GeV charged jets spectra ratio) show NC gr 
 gsave  2268 1701 0 0 C 914.402 699.517 t 0 r /Helvetica findfont 45.7201 sf 0 0 m (s) show NC gr  6 lw 901 727 m 4 -32 d s 0 lw 905 695 m 5 41 d s 910 736 m 27 X s
 gsave  2268 1701 0 0 C 800.102 699.517 t 0 r /Helvetica findfont 45.7201 sf 0 0 m (p+p ) show NC gr 
 gsave  2268 1701 0 0 C 877.826 589.789 t 0 r /Helvetica findfont 45.7201 sf 0 0 m (R=0.2) show NC gr  3 lw 836 606 m20 0 lw
 gsave  2268 1701 0 0 C 877.826 484.633 t 0 r /Helvetica findfont 45.7201 sf 0 0 m (R=0.3) show NC gr  1 0 0 c 3 lw 836 500 m21 0 lw black
 gsave  2268 1701 0 0 C 877.826 379.477 t 0 r /Helvetica findfont 45.7201 sf 0 0 m (R=0.4) show NC gr  0 0 1 c 3 lw 836 393 m22 0 lw 1 1 1 c black
 gsave  2268 1701 0 0 C 1033.27 1618.49 t 0 r /Helvetica findfont 73.1521 sf 0 0 m (R=0.2) show NC gr 
 gr  gr showpage
end
%%EOF
